<?xml version="1.0" encoding="UTF-8"?>
<svg width="1440px" height="2070px" viewBox="0 0 1440 2070" version="1.1" xmlns="http://www.w3.org/2000/svg" xmlns:xlink="http://www.w3.org/1999/xlink">
    <!-- Generator: sketchtool 51.1 (57501) - http://www.bohemiancoding.com/sketch -->
    <title>9C90BAF6-8B1B-4A1A-817B-F99BB128E5A3</title>
    <desc>Created with sketchtool.</desc>
    <defs>
        <path d="M1556.131,1.444 C1551.204,1.741 1545.749,2.071 1539.811,2.429 C1533.905,3.291 1527.518,4.223 1520.693,5.218 C1513.878,6.285 1506.626,7.42 1498.982,8.617 C1491.326,9.74 1483.516,12.208 1475.248,14.155 C1467.032,16.329 1458.471,18.591 1449.612,20.933 C1440.993,24.048 1432.083,27.269 1422.922,30.579 C1418.361,32.286 1413.737,34.015 1409.057,35.765 C1404.447,37.673 1399.939,39.974 1395.305,42.127 C1386.115,46.599 1376.727,51.166 1367.178,55.812 C1330.122,76.567 1293.396,103.401 1261.094,135.095 C1229.401,167.396 1202.568,204.123 1181.812,241.178 C1177.167,250.726 1172.598,260.115 1168.127,269.305 C1165.975,273.938 1163.673,278.447 1161.765,283.057 C1160.015,287.737 1158.286,292.361 1156.58,296.922 C1153.269,306.082 1150.048,314.994 1146.932,323.612 C1144.59,332.471 1142.328,341.031 1140.156,349.249 C1138.208,357.515 1135.74,365.326 1134.617,372.982 C1133.42,380.626 1132.285,387.878 1131.218,394.693 C1130.223,401.518 1129.291,407.904 1128.43,413.811 C1128.071,419.749 1127.742,425.204 1127.445,430.131 C1126.526,449.856 1126,461.128 1126,461.128 C1126,461.381 1126.526,472.653 1127.445,492.378 C1127.742,497.305 1128.071,502.759 1128.43,508.697 C1129.291,514.604 1130.223,520.991 1131.218,527.816 C1132.285,534.63 1133.42,541.882 1134.617,549.527 C1135.74,557.183 1138.208,564.993 1140.156,573.261 C1142.328,581.477 1144.59,590.037 1146.932,598.897 C1150.048,607.516 1153.269,616.426 1156.58,625.587 C1158.286,630.148 1160.015,634.772 1161.765,639.452 C1163.673,644.062 1165.975,648.571 1168.127,653.203 C1172.598,662.394 1177.167,671.782 1181.812,681.331 C1202.568,718.387 1229.401,755.113 1261.094,787.415 C1293.396,819.108 1330.122,845.941 1367.178,866.696 C1376.727,871.342 1386.115,875.911 1395.305,880.381 C1399.939,882.534 1404.447,884.835 1409.057,886.743 C1413.737,888.494 1418.361,890.223 1422.922,891.929 C1432.083,895.241 1440.993,898.461 1449.612,901.577 C1458.471,903.919 1467.032,906.181 1475.248,908.353 C1483.516,910.301 1491.326,912.769 1498.982,913.892 C1506.626,915.089 1513.878,916.223 1520.693,917.291 C1527.518,918.286 1533.905,919.218 1539.811,920.079 C1545.749,920.438 1551.204,920.767 1556.131,921.064 C1575.856,921.983 1587.128,922.509 1587.128,922.509 C1587.381,922.509 1598.491,921.992 1617.933,921.089 C1622.789,920.807 1628.167,920.495 1634.021,920.154 C1639.842,919.314 1646.138,918.404 1652.865,917.434 C1666.313,915.39 1681.533,913.384 1697.682,908.755 C1705.787,906.635 1714.231,904.425 1722.969,902.139 C1731.55,899.352 1740.293,896.037 1749.318,892.766 C1767.607,886.756 1785.531,877.243 1804.384,868.168 C1840.937,847.9 1877.828,822.28 1909.605,790.945 C1941.037,759.428 1968.73,724.081 1989.061,687.443 C1994.685,678.618 1998.534,668.996 2003.112,660.033 C2007.32,650.884 2012.094,642.22 2015.137,633.092 C2021.738,615.064 2028.512,598.174 2032.157,581.78 C2034.217,573.658 2036.192,565.875 2038.069,558.472 C2040.003,551.082 2040.661,543.849 2041.859,537.159 C2043.744,523.707 2046.102,512.014 2046.501,502.294 C2047.505,482.855 2048.079,471.749 2048.079,471.749 L2048.514,461.255 L1994.808,461.255 L1941.102,461.255 L1887.397,461.255 L1833.691,461.255 C1833.438,465.02 1833.311,466.902 1833.311,466.902 C1833.311,466.902 1833.021,472.883 1832.515,483.346 C1832.51,488.614 1830.785,494.755 1829.939,501.959 C1829.262,505.514 1829.223,509.449 1828.04,513.343 C1827.005,517.268 1825.917,521.395 1824.782,525.701 C1823.185,534.519 1819.049,543.316 1815.808,552.986 C1814.443,557.939 1811.511,562.397 1809.339,567.292 C1806.794,572.007 1805.172,577.341 1801.933,581.935 C1791.172,601.544 1776.05,620.264 1759.414,637.349 C1742.392,654.218 1722.45,667.614 1703.127,678.706 C1692.912,683.162 1683.624,688.823 1673.768,691.666 C1668.981,693.431 1664.324,695.146 1659.821,696.807 C1655.16,697.965 1650.658,699.084 1646.335,700.159 C1637.831,702.907 1629.626,703.628 1622.469,704.773 C1618.889,705.36 1615.537,705.91 1612.438,706.418 C1609.281,706.532 1606.381,706.638 1603.762,706.734 C1593.301,707.339 1587.323,707.686 1587.323,707.686 C1587.186,707.686 1581.121,707.336 1570.506,706.723 C1567.851,706.619 1564.91,706.502 1561.709,706.375 C1558.565,705.856 1555.166,705.293 1551.534,704.693 C1547.891,704.165 1544.016,703.601 1539.931,703.008 C1535.808,702.571 1531.742,700.923 1527.336,699.941 C1522.952,698.845 1518.386,697.703 1513.66,696.523 C1509.098,694.814 1504.382,693.047 1499.533,691.231 C1497.09,690.373 1494.613,689.504 1492.106,688.623 C1489.649,687.617 1487.301,686.262 1484.841,685.107 C1479.923,682.772 1474.898,680.389 1469.789,677.964 C1450.148,666.644 1430.494,652.36 1412.997,635.511 C1396.149,618.015 1381.865,598.361 1370.544,578.72 C1368.12,573.611 1365.736,568.586 1363.402,563.668 C1362.246,561.208 1360.892,558.86 1359.886,556.402 C1359.005,553.896 1358.136,551.419 1357.278,548.976 C1355.462,544.127 1353.695,539.411 1351.986,534.849 C1350.806,530.123 1349.664,525.557 1348.568,521.173 C1347.586,516.767 1345.938,512.7 1345.502,508.578 C1344.908,504.492 1344.344,500.618 1343.816,496.975 C1343.215,493.343 1342.653,489.944 1342.134,486.8 C1342.007,483.599 1341.891,480.658 1341.786,478.003 C1341.173,467.388 1340.823,461.323 1340.823,461.323 C1340.823,461.186 1341.173,455.121 1341.786,444.507 C1341.891,441.85 1342.007,438.91 1342.134,435.708 C1342.653,432.566 1343.215,429.166 1343.816,425.534 C1344.344,421.892 1344.908,418.016 1345.502,413.93 C1345.938,409.808 1347.586,405.742 1348.568,401.336 C1349.664,396.952 1350.806,392.386 1351.986,387.66 C1353.695,383.098 1355.462,378.381 1357.278,373.532 C1358.136,371.089 1359.005,368.612 1359.886,366.106 C1360.892,363.649 1362.246,361.301 1363.402,358.841 C1365.736,353.923 1368.12,348.899 1370.544,343.789 C1381.865,324.147 1396.149,304.493 1412.997,286.997 C1430.494,270.149 1450.148,255.865 1469.789,244.544 C1474.898,242.121 1479.923,239.736 1484.841,237.403 C1487.301,236.246 1489.649,234.892 1492.106,233.886 C1494.613,233.006 1497.09,232.136 1499.533,231.277 C1504.382,229.462 1509.098,227.695 1513.66,225.986 C1518.386,224.805 1522.952,223.664 1527.336,222.568 C1531.742,221.586 1535.808,219.938 1539.931,219.501 C1544.016,218.908 1547.891,218.345 1551.534,217.815 C1555.166,217.215 1558.565,216.653 1561.709,216.133 C1564.91,216.007 1567.851,215.891 1570.506,215.786 C1581.121,215.173 1587.186,214.823 1587.186,214.823 C1587.323,214.823 1595.399,215.537 1611.598,216.066 C1627.394,218.741 1651.89,220.772 1681.565,233.597 C1711.376,245.411 1746.134,268.2 1777.79,305.006 C1807.856,342.666 1833.474,395.86 1833.691,461.255 L1887.397,461.255 L1941.102,461.255 L1994.808,461.255 L2048.514,461.255 C2048.436,401.083 2036.496,344.559 2017.348,295.353 C1998.184,246.028 1972.202,203.805 1943.79,168.651 C1885.362,99.373 1819.727,57.805 1763.893,35.176 C1707.938,11.534 1662.135,6.352 1632.465,2.259 C1602.425,0.454 1587.381,0 1587.381,0 C1587.128,0 1575.856,0.525 1556.131,1.444 Z" id="path-1"></path>
        <path d="M-141.869,1178.444 C-146.796,1178.741 -152.251,1179.071 -158.189,1179.429 C-164.095,1180.291 -170.482,1181.223 -177.307,1182.218 C-184.122,1183.285 -191.374,1184.42 -199.018,1185.617 C-206.674,1186.74 -214.484,1189.208 -222.752,1191.155 C-230.968,1193.329 -239.529,1195.591 -248.388,1197.933 C-257.007,1201.048 -265.917,1204.269 -275.078,1207.579 C-279.639,1209.286 -284.263,1211.015 -288.943,1212.765 C-293.553,1214.673 -298.061,1216.974 -302.695,1219.127 C-311.885,1223.599 -321.273,1228.166 -330.822,1232.812 C-367.878,1253.567 -404.604,1280.401 -436.906,1312.095 C-468.599,1344.396 -495.432,1381.123 -516.188,1418.178 C-520.833,1427.726 -525.402,1437.115 -529.873,1446.305 C-532.025,1450.938 -534.327,1455.447 -536.235,1460.057 C-537.985,1464.737 -539.714,1469.361 -541.42,1473.922 C-544.731,1483.082 -547.952,1491.994 -551.068,1500.612 C-553.41,1509.471 -555.672,1518.031 -557.844,1526.249 C-559.792,1534.515 -562.26,1542.326 -563.383,1549.982 C-564.58,1557.626 -565.715,1564.878 -566.782,1571.693 C-567.777,1578.518 -568.709,1584.904 -569.57,1590.811 C-569.929,1596.749 -570.258,1602.204 -570.555,1607.131 C-571.474,1626.856 -572,1638.128 -572,1638.128 C-572,1638.381 -571.474,1649.653 -570.555,1669.378 C-570.258,1674.305 -569.929,1679.759 -569.57,1685.697 C-568.709,1691.604 -567.777,1697.991 -566.782,1704.816 C-565.715,1711.63 -564.58,1718.882 -563.383,1726.527 C-562.26,1734.183 -559.792,1741.993 -557.844,1750.261 C-555.672,1758.477 -553.41,1767.037 -551.068,1775.897 C-547.952,1784.516 -544.731,1793.426 -541.42,1802.587 C-539.714,1807.148 -537.985,1811.772 -536.235,1816.452 C-534.327,1821.062 -532.025,1825.571 -529.873,1830.203 C-525.402,1839.394 -520.833,1848.782 -516.188,1858.331 C-495.432,1895.387 -468.599,1932.113 -436.906,1964.415 C-404.604,1996.108 -367.878,2022.941 -330.822,2043.696 C-321.273,2048.342 -311.885,2052.911 -302.695,2057.381 C-298.061,2059.534 -293.553,2061.835 -288.943,2063.743 C-284.263,2065.494 -279.639,2067.223 -275.078,2068.929 C-265.917,2072.241 -257.007,2075.461 -248.388,2078.577 C-239.529,2080.919 -230.968,2083.181 -222.752,2085.353 C-214.484,2087.301 -206.674,2089.769 -199.018,2090.892 C-191.374,2092.089 -184.122,2093.223 -177.307,2094.291 C-170.482,2095.286 -164.095,2096.218 -158.189,2097.079 C-152.251,2097.438 -146.796,2097.767 -141.869,2098.064 C-122.144,2098.983 -110.872,2099.509 -110.872,2099.509 C-110.619,2099.509 -99.509,2098.992 -80.067,2098.089 C-75.211,2097.807 -69.833,2097.495 -63.979,2097.154 C-58.158,2096.314 -51.862,2095.404 -45.135,2094.434 C-31.687,2092.39 -16.467,2090.384 -0.318,2085.755 C7.787,2083.635 16.231,2081.425 24.969,2079.139 C33.55,2076.352 42.293,2073.037 51.318,2069.766 C69.607,2063.756 87.531,2054.243 106.384,2045.168 C142.937,2024.9 179.828,1999.28 211.605,1967.945 C243.037,1936.428 270.73,1901.081 291.061,1864.443 C296.685,1855.618 300.534,1845.996 305.112,1837.033 C309.32,1827.884 314.094,1819.22 317.137,1810.092 C323.738,1792.064 330.512,1775.174 334.157,1758.78 C336.217,1750.658 338.192,1742.875 340.069,1735.472 C342.003,1728.082 342.661,1720.849 343.859,1714.159 C345.744,1700.707 348.102,1689.014 348.501,1679.294 C349.505,1659.855 350.079,1648.749 350.079,1648.749 L350.514,1638.255 L296.808,1638.255 L243.102,1638.255 L189.397,1638.255 L135.691,1638.255 C135.438,1642.02 135.311,1643.902 135.311,1643.902 C135.311,1643.902 135.021,1649.883 134.515,1660.346 C134.51,1665.614 132.785,1671.755 131.939,1678.959 C131.262,1682.514 131.223,1686.449 130.04,1690.343 C129.005,1694.268 127.917,1698.395 126.782,1702.701 C125.185,1711.519 121.049,1720.316 117.808,1729.986 C116.443,1734.939 113.511,1739.397 111.339,1744.292 C108.794,1749.007 107.172,1754.341 103.933,1758.935 C93.172,1778.544 78.05,1797.264 61.414,1814.349 C44.392,1831.218 24.45,1844.614 5.127,1855.706 C-5.088,1860.162 -14.376,1865.823 -24.232,1868.666 C-29.019,1870.431 -33.676,1872.146 -38.179,1873.807 C-42.84,1874.965 -47.342,1876.084 -51.665,1877.159 C-60.169,1879.907 -68.374,1880.628 -75.531,1881.773 C-79.111,1882.36 -82.463,1882.91 -85.562,1883.418 C-88.719,1883.532 -91.619,1883.638 -94.238,1883.734 C-104.699,1884.339 -110.677,1884.686 -110.677,1884.686 C-110.814,1884.686 -116.879,1884.336 -127.494,1883.723 C-130.149,1883.619 -133.09,1883.502 -136.291,1883.375 C-139.435,1882.856 -142.834,1882.293 -146.466,1881.693 C-150.109,1881.165 -153.984,1880.601 -158.069,1880.008 C-162.192,1879.571 -166.258,1877.923 -170.664,1876.941 C-175.048,1875.845 -179.614,1874.703 -184.34,1873.523 C-188.902,1871.814 -193.618,1870.047 -198.467,1868.231 C-200.91,1867.373 -203.387,1866.504 -205.894,1865.623 C-208.351,1864.617 -210.699,1863.262 -213.159,1862.107 C-218.077,1859.772 -223.102,1857.389 -228.211,1854.964 C-247.852,1843.644 -267.506,1829.36 -285.003,1812.511 C-301.851,1795.015 -316.135,1775.361 -327.456,1755.72 C-329.88,1750.611 -332.264,1745.586 -334.598,1740.668 C-335.754,1738.208 -337.108,1735.86 -338.114,1733.402 C-338.995,1730.896 -339.864,1728.419 -340.722,1725.976 C-342.538,1721.127 -344.305,1716.411 -346.014,1711.849 C-347.194,1707.123 -348.336,1702.557 -349.432,1698.173 C-350.414,1693.767 -352.062,1689.7 -352.498,1685.578 C-353.092,1681.492 -353.656,1677.618 -354.184,1673.975 C-354.785,1670.343 -355.347,1666.944 -355.866,1663.8 C-355.993,1660.599 -356.109,1657.658 -356.214,1655.003 C-356.827,1644.388 -357.177,1638.323 -357.177,1638.323 C-357.177,1638.186 -356.827,1632.121 -356.214,1621.507 C-356.109,1618.85 -355.993,1615.91 -355.866,1612.708 C-355.347,1609.566 -354.785,1606.166 -354.184,1602.534 C-353.656,1598.892 -353.092,1595.016 -352.498,1590.93 C-352.062,1586.808 -350.414,1582.742 -349.432,1578.336 C-348.336,1573.952 -347.194,1569.386 -346.014,1564.66 C-344.305,1560.098 -342.538,1555.381 -340.722,1550.532 C-339.864,1548.089 -338.995,1545.612 -338.114,1543.106 C-337.108,1540.649 -335.754,1538.301 -334.598,1535.841 C-332.264,1530.923 -329.88,1525.899 -327.456,1520.789 C-316.135,1501.147 -301.851,1481.493 -285.003,1463.997 C-267.506,1447.149 -247.852,1432.865 -228.211,1421.544 C-223.102,1419.121 -218.077,1416.736 -213.159,1414.403 C-210.699,1413.246 -208.351,1411.892 -205.894,1410.886 C-203.387,1410.006 -200.91,1409.136 -198.467,1408.277 C-193.618,1406.462 -188.902,1404.695 -184.34,1402.986 C-179.614,1401.805 -175.048,1400.664 -170.664,1399.568 C-166.258,1398.586 -162.192,1396.938 -158.069,1396.501 C-153.984,1395.908 -150.109,1395.345 -146.466,1394.815 C-142.834,1394.215 -139.435,1393.653 -136.291,1393.133 C-133.09,1393.007 -130.149,1392.891 -127.494,1392.786 C-116.879,1392.173 -110.814,1391.823 -110.814,1391.823 C-110.677,1391.823 -102.601,1392.537 -86.402,1393.066 C-70.606,1395.741 -46.11,1397.772 -16.435,1410.597 C13.376,1422.411 48.134,1445.2 79.79,1482.006 C109.856,1519.666 135.474,1572.86 135.691,1638.255 L189.397,1638.255 L243.102,1638.255 L296.808,1638.255 L350.514,1638.255 C350.436,1578.083 338.496,1521.559 319.348,1472.353 C300.184,1423.028 274.202,1380.805 245.79,1345.651 C187.362,1276.373 121.727,1234.805 65.893,1212.176 C9.938,1188.534 -35.865,1183.352 -65.535,1179.259 C-95.575,1177.454 -110.619,1177 -110.619,1177 C-110.872,1177 -122.144,1177.525 -141.869,1178.444 Z" id="path-3"></path>
    </defs>
    <g id="Page-Entreprise-champ-de-base" stroke="none" stroke-width="1" fill="none" fill-rule="evenodd">
        <g id="Champs-de-base-_-Message-d'erreurs">
            <g id="big_ring_background" transform="translate(0.000000, -24.000000)">
                <mask id="mask-2" fill="white">
                    <use xlink:href="#path-1"></use>
                </mask>
                <g id="Clip-2"></g>
                <path d="M1556.131,1.444 C1551.204,1.741 1545.749,2.071 1539.811,2.429 C1533.905,3.291 1527.518,4.223 1520.693,5.218 C1513.878,6.285 1506.626,7.42 1498.982,8.617 C1491.326,9.74 1483.516,12.208 1475.248,14.155 C1467.032,16.329 1458.471,18.591 1449.612,20.933 C1440.993,24.048 1432.083,27.269 1422.922,30.579 C1418.361,32.286 1413.737,34.015 1409.057,35.765 C1404.447,37.673 1399.939,39.974 1395.305,42.127 C1386.115,46.599 1376.727,51.166 1367.178,55.812 C1330.122,76.567 1293.396,103.401 1261.094,135.095 C1229.401,167.396 1202.568,204.123 1181.812,241.178 C1177.167,250.726 1172.598,260.115 1168.127,269.305 C1165.975,273.938 1163.673,278.447 1161.765,283.057 C1160.015,287.737 1158.286,292.361 1156.58,296.922 C1153.269,306.082 1150.048,314.994 1146.932,323.612 C1144.59,332.471 1142.328,341.031 1140.156,349.249 C1138.208,357.515 1135.74,365.326 1134.617,372.982 C1133.42,380.626 1132.285,387.878 1131.218,394.693 C1130.223,401.518 1129.291,407.904 1128.43,413.811 C1128.071,419.749 1127.742,425.204 1127.445,430.131 C1126.526,449.856 1126,461.128 1126,461.128 C1126,461.381 1126.526,472.653 1127.445,492.378 C1127.742,497.305 1128.071,502.759 1128.43,508.697 C1129.291,514.604 1130.223,520.991 1131.218,527.816 C1132.285,534.63 1133.42,541.882 1134.617,549.527 C1135.74,557.183 1138.208,564.993 1140.156,573.261 C1142.328,581.477 1144.59,590.037 1146.932,598.897 C1150.048,607.516 1153.269,616.426 1156.58,625.587 C1158.286,630.148 1160.015,634.772 1161.765,639.452 C1163.673,644.062 1165.975,648.571 1168.127,653.203 C1172.598,662.394 1177.167,671.782 1181.812,681.331 C1202.568,718.387 1229.401,755.113 1261.094,787.415 C1293.396,819.108 1330.122,845.941 1367.178,866.696 C1376.727,871.342 1386.115,875.911 1395.305,880.381 C1399.939,882.534 1404.447,884.835 1409.057,886.743 C1413.737,888.494 1418.361,890.223 1422.922,891.929 C1432.083,895.241 1440.993,898.461 1449.612,901.577 C1458.471,903.919 1467.032,906.181 1475.248,908.353 C1483.516,910.301 1491.326,912.769 1498.982,913.892 C1506.626,915.089 1513.878,916.223 1520.693,917.291 C1527.518,918.286 1533.905,919.218 1539.811,920.079 C1545.749,920.438 1551.204,920.767 1556.131,921.064 C1575.856,921.983 1587.128,922.509 1587.128,922.509 C1587.381,922.509 1598.491,921.992 1617.933,921.089 C1622.789,920.807 1628.167,920.495 1634.021,920.154 C1639.842,919.314 1646.138,918.404 1652.865,917.434 C1666.313,915.39 1681.533,913.384 1697.682,908.755 C1705.787,906.635 1714.231,904.425 1722.969,902.139 C1731.55,899.352 1740.293,896.037 1749.318,892.766 C1767.607,886.756 1785.531,877.243 1804.384,868.168 C1840.937,847.9 1877.828,822.28 1909.605,790.945 C1941.037,759.428 1968.73,724.081 1989.061,687.443 C1994.685,678.618 1998.534,668.996 2003.112,660.033 C2007.32,650.884 2012.094,642.22 2015.137,633.092 C2021.738,615.064 2028.512,598.174 2032.157,581.78 C2034.217,573.658 2036.192,565.875 2038.069,558.472 C2040.003,551.082 2040.661,543.849 2041.859,537.159 C2043.744,523.707 2046.102,512.014 2046.501,502.294 C2047.505,482.855 2048.079,471.749 2048.079,471.749 L2048.514,461.255 L1994.808,461.255 L1941.102,461.255 L1887.397,461.255 L1833.691,461.255 C1833.438,465.02 1833.311,466.902 1833.311,466.902 C1833.311,466.902 1833.021,472.883 1832.515,483.346 C1832.51,488.614 1830.785,494.755 1829.939,501.959 C1829.262,505.514 1829.223,509.449 1828.04,513.343 C1827.005,517.268 1825.917,521.395 1824.782,525.701 C1823.185,534.519 1819.049,543.316 1815.808,552.986 C1814.443,557.939 1811.511,562.397 1809.339,567.292 C1806.794,572.007 1805.172,577.341 1801.933,581.935 C1791.172,601.544 1776.05,620.264 1759.414,637.349 C1742.392,654.218 1722.45,667.614 1703.127,678.706 C1692.912,683.162 1683.624,688.823 1673.768,691.666 C1668.981,693.431 1664.324,695.146 1659.821,696.807 C1655.16,697.965 1650.658,699.084 1646.335,700.159 C1637.831,702.907 1629.626,703.628 1622.469,704.773 C1618.889,705.36 1615.537,705.91 1612.438,706.418 C1609.281,706.532 1606.381,706.638 1603.762,706.734 C1593.301,707.339 1587.323,707.686 1587.323,707.686 C1587.186,707.686 1581.121,707.336 1570.506,706.723 C1567.851,706.619 1564.91,706.502 1561.709,706.375 C1558.565,705.856 1555.166,705.293 1551.534,704.693 C1547.891,704.165 1544.016,703.601 1539.931,703.008 C1535.808,702.571 1531.742,700.923 1527.336,699.941 C1522.952,698.845 1518.386,697.703 1513.66,696.523 C1509.098,694.814 1504.382,693.047 1499.533,691.231 C1497.09,690.373 1494.613,689.504 1492.106,688.623 C1489.649,687.617 1487.301,686.262 1484.841,685.107 C1479.923,682.772 1474.898,680.389 1469.789,677.964 C1450.148,666.644 1430.494,652.36 1412.997,635.511 C1396.149,618.015 1381.865,598.361 1370.544,578.72 C1368.12,573.611 1365.736,568.586 1363.402,563.668 C1362.246,561.208 1360.892,558.86 1359.886,556.402 C1359.005,553.896 1358.136,551.419 1357.278,548.976 C1355.462,544.127 1353.695,539.411 1351.986,534.849 C1350.806,530.123 1349.664,525.557 1348.568,521.173 C1347.586,516.767 1345.938,512.7 1345.502,508.578 C1344.908,504.492 1344.344,500.618 1343.816,496.975 C1343.215,493.343 1342.653,489.944 1342.134,486.8 C1342.007,483.599 1341.891,480.658 1341.786,478.003 C1341.173,467.388 1340.823,461.323 1340.823,461.323 C1340.823,461.186 1341.173,455.121 1341.786,444.507 C1341.891,441.85 1342.007,438.91 1342.134,435.708 C1342.653,432.566 1343.215,429.166 1343.816,425.534 C1344.344,421.892 1344.908,418.016 1345.502,413.93 C1345.938,409.808 1347.586,405.742 1348.568,401.336 C1349.664,396.952 1350.806,392.386 1351.986,387.66 C1353.695,383.098 1355.462,378.381 1357.278,373.532 C1358.136,371.089 1359.005,368.612 1359.886,366.106 C1360.892,363.649 1362.246,361.301 1363.402,358.841 C1365.736,353.923 1368.12,348.899 1370.544,343.789 C1381.865,324.147 1396.149,304.493 1412.997,286.997 C1430.494,270.149 1450.148,255.865 1469.789,244.544 C1474.898,242.121 1479.923,239.736 1484.841,237.403 C1487.301,236.246 1489.649,234.892 1492.106,233.886 C1494.613,233.006 1497.09,232.136 1499.533,231.277 C1504.382,229.462 1509.098,227.695 1513.66,225.986 C1518.386,224.805 1522.952,223.664 1527.336,222.568 C1531.742,221.586 1535.808,219.938 1539.931,219.501 C1544.016,218.908 1547.891,218.345 1551.534,217.815 C1555.166,217.215 1558.565,216.653 1561.709,216.133 C1564.91,216.007 1567.851,215.891 1570.506,215.786 C1581.121,215.173 1587.186,214.823 1587.186,214.823 C1587.323,214.823 1595.399,215.537 1611.598,216.066 C1627.394,218.741 1651.89,220.772 1681.565,233.597 C1711.376,245.411 1746.134,268.2 1777.79,305.006 C1807.856,342.666 1833.474,395.86 1833.691,461.255 L1887.397,461.255 L1941.102,461.255 L1994.808,461.255 L2048.514,461.255 C2048.436,401.083 2036.496,344.559 2017.348,295.353 C1998.184,246.028 1972.202,203.805 1943.79,168.651 C1885.362,99.373 1819.727,57.805 1763.893,35.176 C1707.938,11.534 1662.135,6.352 1632.465,2.259 C1602.425,0.454 1587.381,0 1587.381,0 C1587.128,0 1575.856,0.525 1556.131,1.444 Z" id="Fill-1" fill="#DCDDEB" mask="url(#mask-2)"></path>
                <mask id="mask-4" fill="white">
                    <use xlink:href="#path-3"></use>
                </mask>
                <g id="Clip-2"></g>
                <path d="M-141.869,1178.444 C-146.796,1178.741 -152.251,1179.071 -158.189,1179.429 C-164.095,1180.291 -170.482,1181.223 -177.307,1182.218 C-184.122,1183.285 -191.374,1184.42 -199.018,1185.617 C-206.674,1186.74 -214.484,1189.208 -222.752,1191.155 C-230.968,1193.329 -239.529,1195.591 -248.388,1197.933 C-257.007,1201.048 -265.917,1204.269 -275.078,1207.579 C-279.639,1209.286 -284.263,1211.015 -288.943,1212.765 C-293.553,1214.673 -298.061,1216.974 -302.695,1219.127 C-311.885,1223.599 -321.273,1228.166 -330.822,1232.812 C-367.878,1253.567 -404.604,1280.401 -436.906,1312.095 C-468.599,1344.396 -495.432,1381.123 -516.188,1418.178 C-520.833,1427.726 -525.402,1437.115 -529.873,1446.305 C-532.025,1450.938 -534.327,1455.447 -536.235,1460.057 C-537.985,1464.737 -539.714,1469.361 -541.42,1473.922 C-544.731,1483.082 -547.952,1491.994 -551.068,1500.612 C-553.41,1509.471 -555.672,1518.031 -557.844,1526.249 C-559.792,1534.515 -562.26,1542.326 -563.383,1549.982 C-564.58,1557.626 -565.715,1564.878 -566.782,1571.693 C-567.777,1578.518 -568.709,1584.904 -569.57,1590.811 C-569.929,1596.749 -570.258,1602.204 -570.555,1607.131 C-571.474,1626.856 -572,1638.128 -572,1638.128 C-572,1638.381 -571.474,1649.653 -570.555,1669.378 C-570.258,1674.305 -569.929,1679.759 -569.57,1685.697 C-568.709,1691.604 -567.777,1697.991 -566.782,1704.816 C-565.715,1711.63 -564.58,1718.882 -563.383,1726.527 C-562.26,1734.183 -559.792,1741.993 -557.844,1750.261 C-555.672,1758.477 -553.41,1767.037 -551.068,1775.897 C-547.952,1784.516 -544.731,1793.426 -541.42,1802.587 C-539.714,1807.148 -537.985,1811.772 -536.235,1816.452 C-534.327,1821.062 -532.025,1825.571 -529.873,1830.203 C-525.402,1839.394 -520.833,1848.782 -516.188,1858.331 C-495.432,1895.387 -468.599,1932.113 -436.906,1964.415 C-404.604,1996.108 -367.878,2022.941 -330.822,2043.696 C-321.273,2048.342 -311.885,2052.911 -302.695,2057.381 C-298.061,2059.534 -293.553,2061.835 -288.943,2063.743 C-284.263,2065.494 -279.639,2067.223 -275.078,2068.929 C-265.917,2072.241 -257.007,2075.461 -248.388,2078.577 C-239.529,2080.919 -230.968,2083.181 -222.752,2085.353 C-214.484,2087.301 -206.674,2089.769 -199.018,2090.892 C-191.374,2092.089 -184.122,2093.223 -177.307,2094.291 C-170.482,2095.286 -164.095,2096.218 -158.189,2097.079 C-152.251,2097.438 -146.796,2097.767 -141.869,2098.064 C-122.144,2098.983 -110.872,2099.509 -110.872,2099.509 C-110.619,2099.509 -99.509,2098.992 -80.067,2098.089 C-75.211,2097.807 -69.833,2097.495 -63.979,2097.154 C-58.158,2096.314 -51.862,2095.404 -45.135,2094.434 C-31.687,2092.39 -16.467,2090.384 -0.318,2085.755 C7.787,2083.635 16.231,2081.425 24.969,2079.139 C33.55,2076.352 42.293,2073.037 51.318,2069.766 C69.607,2063.756 87.531,2054.243 106.384,2045.168 C142.937,2024.9 179.828,1999.28 211.605,1967.945 C243.037,1936.428 270.73,1901.081 291.061,1864.443 C296.685,1855.618 300.534,1845.996 305.112,1837.033 C309.32,1827.884 314.094,1819.22 317.137,1810.092 C323.738,1792.064 330.512,1775.174 334.157,1758.78 C336.217,1750.658 338.192,1742.875 340.069,1735.472 C342.003,1728.082 342.661,1720.849 343.859,1714.159 C345.744,1700.707 348.102,1689.014 348.501,1679.294 C349.505,1659.855 350.079,1648.749 350.079,1648.749 L350.514,1638.255 L296.808,1638.255 L243.102,1638.255 L189.397,1638.255 L135.691,1638.255 C135.438,1642.02 135.311,1643.902 135.311,1643.902 C135.311,1643.902 135.021,1649.883 134.515,1660.346 C134.51,1665.614 132.785,1671.755 131.939,1678.959 C131.262,1682.514 131.223,1686.449 130.04,1690.343 C129.005,1694.268 127.917,1698.395 126.782,1702.701 C125.185,1711.519 121.049,1720.316 117.808,1729.986 C116.443,1734.939 113.511,1739.397 111.339,1744.292 C108.794,1749.007 107.172,1754.341 103.933,1758.935 C93.172,1778.544 78.05,1797.264 61.414,1814.349 C44.392,1831.218 24.45,1844.614 5.127,1855.706 C-5.088,1860.162 -14.376,1865.823 -24.232,1868.666 C-29.019,1870.431 -33.676,1872.146 -38.179,1873.807 C-42.84,1874.965 -47.342,1876.084 -51.665,1877.159 C-60.169,1879.907 -68.374,1880.628 -75.531,1881.773 C-79.111,1882.36 -82.463,1882.91 -85.562,1883.418 C-88.719,1883.532 -91.619,1883.638 -94.238,1883.734 C-104.699,1884.339 -110.677,1884.686 -110.677,1884.686 C-110.814,1884.686 -116.879,1884.336 -127.494,1883.723 C-130.149,1883.619 -133.09,1883.502 -136.291,1883.375 C-139.435,1882.856 -142.834,1882.293 -146.466,1881.693 C-150.109,1881.165 -153.984,1880.601 -158.069,1880.008 C-162.192,1879.571 -166.258,1877.923 -170.664,1876.941 C-175.048,1875.845 -179.614,1874.703 -184.34,1873.523 C-188.902,1871.814 -193.618,1870.047 -198.467,1868.231 C-200.91,1867.373 -203.387,1866.504 -205.894,1865.623 C-208.351,1864.617 -210.699,1863.262 -213.159,1862.107 C-218.077,1859.772 -223.102,1857.389 -228.211,1854.964 C-247.852,1843.644 -267.506,1829.36 -285.003,1812.511 C-301.851,1795.015 -316.135,1775.361 -327.456,1755.72 C-329.88,1750.611 -332.264,1745.586 -334.598,1740.668 C-335.754,1738.208 -337.108,1735.86 -338.114,1733.402 C-338.995,1730.896 -339.864,1728.419 -340.722,1725.976 C-342.538,1721.127 -344.305,1716.411 -346.014,1711.849 C-347.194,1707.123 -348.336,1702.557 -349.432,1698.173 C-350.414,1693.767 -352.062,1689.7 -352.498,1685.578 C-353.092,1681.492 -353.656,1677.618 -354.184,1673.975 C-354.785,1670.343 -355.347,1666.944 -355.866,1663.8 C-355.993,1660.599 -356.109,1657.658 -356.214,1655.003 C-356.827,1644.388 -357.177,1638.323 -357.177,1638.323 C-357.177,1638.186 -356.827,1632.121 -356.214,1621.507 C-356.109,1618.85 -355.993,1615.91 -355.866,1612.708 C-355.347,1609.566 -354.785,1606.166 -354.184,1602.534 C-353.656,1598.892 -353.092,1595.016 -352.498,1590.93 C-352.062,1586.808 -350.414,1582.742 -349.432,1578.336 C-348.336,1573.952 -347.194,1569.386 -346.014,1564.66 C-344.305,1560.098 -342.538,1555.381 -340.722,1550.532 C-339.864,1548.089 -338.995,1545.612 -338.114,1543.106 C-337.108,1540.649 -335.754,1538.301 -334.598,1535.841 C-332.264,1530.923 -329.88,1525.899 -327.456,1520.789 C-316.135,1501.147 -301.851,1481.493 -285.003,1463.997 C-267.506,1447.149 -247.852,1432.865 -228.211,1421.544 C-223.102,1419.121 -218.077,1416.736 -213.159,1414.403 C-210.699,1413.246 -208.351,1411.892 -205.894,1410.886 C-203.387,1410.006 -200.91,1409.136 -198.467,1408.277 C-193.618,1406.462 -188.902,1404.695 -184.34,1402.986 C-179.614,1401.805 -175.048,1400.664 -170.664,1399.568 C-166.258,1398.586 -162.192,1396.938 -158.069,1396.501 C-153.984,1395.908 -150.109,1395.345 -146.466,1394.815 C-142.834,1394.215 -139.435,1393.653 -136.291,1393.133 C-133.09,1393.007 -130.149,1392.891 -127.494,1392.786 C-116.879,1392.173 -110.814,1391.823 -110.814,1391.823 C-110.677,1391.823 -102.601,1392.537 -86.402,1393.066 C-70.606,1395.741 -46.11,1397.772 -16.435,1410.597 C13.376,1422.411 48.134,1445.2 79.79,1482.006 C109.856,1519.666 135.474,1572.86 135.691,1638.255 L189.397,1638.255 L243.102,1638.255 L296.808,1638.255 L350.514,1638.255 C350.436,1578.083 338.496,1521.559 319.348,1472.353 C300.184,1423.028 274.202,1380.805 245.79,1345.651 C187.362,1276.373 121.727,1234.805 65.893,1212.176 C9.938,1188.534 -35.865,1183.352 -65.535,1179.259 C-95.575,1177.454 -110.619,1177 -110.619,1177 C-110.872,1177 -122.144,1177.525 -141.869,1178.444 Z" id="Fill-1" fill="#DCDDEB" mask="url(#mask-4)"></path>
            </g>
        </g>
    </g>
</svg>