<?xml version="1.0" encoding="UTF-8"?>
<svg width="1120px" height="92px" viewBox="0 0 1120 92" version="1.1" xmlns="http://www.w3.org/2000/svg" xmlns:xlink="http://www.w3.org/1999/xlink">
    <!-- Generator: sketchtool 51.1 (57501) - http://www.bohemiancoding.com/sketch -->
    <title>7E1FD80C-0276-49D1-98E1-8F89F31D423C</title>
    <desc>Created with sketchtool.</desc>
    <defs>
        <polygon id="path-1" points="0 1 1120 1 1120 92 0 92"></polygon>
    </defs>
    <g id="Publier-une-offre" stroke="none" stroke-width="1" fill="none" fill-rule="evenodd">
        <g id="Edition-offre-d'emploi" transform="translate(-160.000000, -190.000000)">
            <g id="Bloc1" transform="translate(160.000000, 164.000000)">
                <g id="little_cercle_white-02" transform="translate(0.000000, 26.000000)">
                    <g id="job_opening_banner">
                        <mask id="mask-2" fill="white">
                            <use xlink:href="#path-1"></use>
                        </mask>
                        <use id="Mask" fill="#FF3300" xlink:href="#path-1"></use>
                        <g id="little_cercle_white-02" mask="url(#mask-2)" fill="#FFFFFF" fill-rule="nonzero">
                            <g transform="translate(-53.594977, -419.835758)" id="Shape">
                                <path d="M68.1388013,432.054951 C70.1876557,432.054951 71.8485804,433.70776 71.8485804,435.746602 C71.8485804,437.785444 70.1876557,439.438252 68.1388013,439.438252 C66.0899468,439.438252 64.4290221,437.785444 64.4290221,435.746602 C64.4290221,433.70776 66.0899468,432.054951 68.1388013,432.054951 Z M68.1388013,431.584078 C66.4469497,431.584078 64.9216888,432.598244 64.2742452,434.153673 C63.6268017,435.709102 63.9846784,437.499477 65.1809981,438.689951 C66.3773178,439.880425 68.1764858,440.236553 69.7395528,439.592273 C71.3026198,438.947993 72.3217666,437.430186 72.3217666,435.746602 C72.3217666,433.447703 70.4489892,431.584078 68.1388013,431.584078 Z"></path>
                                <path d="M131.460568,432.054951 C132.961889,432.05114 134.317511,432.948162 134.894697,434.327331 C135.471883,435.7065 135.156831,437.295887 134.09659,438.353645 C133.036349,439.411403 131.439967,439.728975 130.052555,439.158134 C128.665143,438.587293 127.760257,437.240591 127.760252,435.746602 C127.757738,434.768382 128.146482,433.829371 128.840698,433.13678 C129.534914,432.444189 130.477541,432.054948 131.460568,432.054951 Z M131.460568,431.584078 C129.15038,431.584078 127.277603,433.447703 127.277603,435.746602 C127.277603,438.045501 129.15038,439.909126 131.460568,439.909126 C133.770756,439.909126 135.643533,438.045501 135.643533,435.746602 C135.643533,433.447703 133.770756,431.584078 131.460568,431.584078 Z"></path>
                                <path d="M194.810726,432.054951 C196.85958,432.054951 198.520505,433.70776 198.520505,435.746602 C198.520505,437.785444 196.85958,439.438252 194.810726,439.438252 C192.761871,439.438252 191.100946,437.785444 191.100946,435.746602 C191.098425,434.766748 191.488466,433.826304 192.184732,433.13344 C192.880997,432.440577 193.82606,432.052442 194.810726,432.054951 Z M194.810726,431.584078 C192.500538,431.584078 190.62776,433.447703 190.62776,435.746602 C190.62776,438.045501 192.500538,439.909126 194.810726,439.909126 C197.120913,439.909126 198.993691,438.045501 198.993691,435.746602 C198.988487,433.449852 197.118754,431.589256 194.810726,431.584078 Z"></path>
                                <path d="M258.160883,432.054951 C260.209738,432.054951 261.870662,433.70776 261.870662,435.746602 C261.870662,437.785444 260.209738,439.438252 258.160883,439.438252 C256.112029,439.438252 254.451104,437.785444 254.451104,435.746602 C254.451104,433.70776 256.112029,432.054951 258.160883,432.054951 Z M258.160883,431.584078 C255.850695,431.584078 253.977918,433.447703 253.977918,435.746602 C253.977918,438.045501 255.850695,439.909126 258.160883,439.909126 C260.471071,439.909126 262.343849,438.045501 262.343849,435.746602 C262.343849,433.447703 260.471071,431.584078 258.160883,431.584078 Z"></path>
                                <path d="M321.511041,432.054951 C323.559895,432.054951 325.22082,433.70776 325.22082,435.746602 C325.22082,437.785444 323.559895,439.438252 321.511041,439.438252 C319.462187,439.438252 317.801262,437.785444 317.801262,435.746602 C317.801262,433.70776 319.462187,432.054951 321.511041,432.054951 Z M321.511041,431.584078 C319.200853,431.584078 317.328076,433.447703 317.328076,435.746602 C317.328076,438.045501 319.200853,439.909126 321.511041,439.909126 C323.821229,439.909126 325.694006,438.045501 325.694006,435.746602 C325.694006,433.447703 323.821229,431.584078 321.511041,431.584078 Z"></path>
                                <path d="M384.851735,432.054951 C386.353056,432.05114 387.708678,432.948162 388.285864,434.327331 C388.863051,435.7065 388.547998,437.295887 387.487757,438.353645 C386.427516,439.411403 384.831134,439.728975 383.443722,439.158134 C382.056311,438.587293 381.151424,437.240591 381.15142,435.746602 C381.148905,434.768382 381.537649,433.829371 382.231865,433.13678 C382.926082,432.444189 383.868708,432.054948 384.851735,432.054951 Z M384.851735,431.584078 C382.541547,431.584078 380.66877,433.447703 380.66877,435.746602 C380.66877,438.045501 382.541547,439.909126 384.851735,439.909126 C387.161923,439.909126 389.0347,438.045501 389.0347,435.746602 C389.0347,433.447703 387.161923,431.584078 384.851735,431.584078 Z"></path>
                                <path d="M448.201893,432.054951 C449.702358,432.054951 451.055078,432.954393 451.629282,434.333868 C452.203485,435.713344 451.886092,437.301188 450.825103,438.356993 C449.764113,439.412798 448.168471,439.72864 446.782222,439.157242 C445.395972,438.585845 444.492114,437.239735 444.492114,435.746602 C444.489592,434.766748 444.879633,433.826304 445.575899,433.13344 C446.272165,432.440577 447.217227,432.052442 448.201893,432.054951 Z M448.201893,431.584078 C446.50834,431.576452 444.97728,432.585769 444.323868,434.140579 C443.670457,435.695388 444.023646,437.488845 445.218463,438.683227 C446.413279,439.877609 448.213922,440.237202 449.779314,439.594042 C451.344706,438.950882 452.365913,437.431896 452.365931,435.746602 C452.360726,433.449852 450.490994,431.589256 448.182965,431.584078 L448.201893,431.584078 Z"></path>
                                <path d="M511.55205,432.054951 C513.600905,432.054951 515.26183,433.70776 515.26183,435.746602 C515.26183,437.785444 513.600905,439.438252 511.55205,439.438252 C509.503196,439.438252 507.842271,437.785444 507.842271,435.746602 C507.842271,433.70776 509.503196,432.054951 511.55205,432.054951 Z M511.55205,431.584078 C509.246905,431.604838 507.393139,433.477555 507.407016,435.771488 C507.420892,438.065421 509.297181,439.915795 511.60241,439.908937 C513.907639,439.90208 515.772776,438.040576 515.772871,435.746602 C515.772871,433.447703 513.900093,431.584078 511.589905,431.584078 L511.55205,431.584078 Z"></path>
                                <path d="M574.902208,432.054951 C576.951063,432.054951 578.611987,433.70776 578.611987,435.746602 C578.611987,437.785444 576.951063,439.438252 574.902208,439.438252 C572.853354,439.438252 571.192429,437.785444 571.192429,435.746602 C571.189907,434.766748 571.579948,433.826304 572.276214,433.13344 C572.97248,432.440577 573.917543,432.052442 574.902208,432.054951 Z M574.902208,431.584078 C573.209501,431.580267 571.681338,432.592013 571.030911,434.147137 C570.380485,435.70226 570.736022,437.494178 571.931594,438.686605 C573.127165,439.879032 574.927073,440.23689 576.491302,439.593166 C578.055532,438.949442 579.075705,437.431042 579.07571,435.746602 C579.075716,433.451376 577.208699,431.58927 574.902208,431.584078 Z"></path>
                                <path d="M638.242902,432.054951 C639.744223,432.05114 641.099845,432.948162 641.677031,434.327331 C642.254218,435.7065 641.939165,437.295887 640.878924,438.353645 C639.818683,439.411403 638.222301,439.728975 636.834889,439.158134 C635.447478,438.587293 634.542592,437.240591 634.542587,435.746602 C634.540073,434.768382 634.928816,433.829371 635.623032,433.13678 C636.317249,432.444189 637.259876,432.054948 638.242902,432.054951 Z M638.242902,431.584078 C635.932714,431.584078 634.059937,433.447703 634.059937,435.746602 C634.059937,438.045501 635.932714,439.909126 638.242902,439.909126 C640.55309,439.909126 642.425868,438.045501 642.425868,435.746602 C642.425868,433.447703 640.55309,431.584078 638.242902,431.584078 Z"></path>
                                <path d="M68.1388013,493.475728 C70.1876557,493.475728 71.8485804,495.128536 71.8485804,497.167379 C71.8485804,499.206221 70.1876557,500.859029 68.1388013,500.859029 C66.0899468,500.859029 64.4290221,499.206221 64.4290221,497.167379 C64.4342234,495.130684 66.0921051,493.480904 68.1388013,493.475728 Z M68.1388013,493.004854 C65.8361183,492.994862 63.9583568,494.83875 63.9377618,497.13011 C63.9171667,499.421471 65.7614843,501.298487 68.0639785,501.329483 C70.3664727,501.360478 72.2611393,499.533795 72.3028391,497.242718 C72.297635,494.945968 70.4279027,493.085373 68.1198738,493.080194 L68.1388013,493.004854 Z"></path>
                                <path d="M131.460568,493.475728 C133.500696,493.470972 135.161841,495.106392 135.178908,497.136485 C135.195975,499.166578 133.56256,500.829426 131.522637,500.858637 C129.482715,500.887848 127.801893,499.27246 127.760252,497.242718 C127.760246,495.207548 129.41541,493.55626 131.460568,493.551068 L131.460568,493.475728 Z M131.460568,493.080194 C129.15038,493.080194 127.277603,494.94382 127.277603,497.242718 C127.277603,499.541617 129.15038,501.405243 131.460568,501.405243 C133.770756,501.405243 135.643533,499.541617 135.643533,497.242718 C135.638329,494.945968 133.768597,493.085373 131.460568,493.080194 Z"></path>
                                <path d="M194.810726,493.475728 C196.85958,493.475728 198.520505,495.128536 198.520505,497.167379 C198.520505,499.206221 196.85958,500.859029 194.810726,500.859029 C192.761871,500.859029 191.100946,499.206221 191.100946,497.167379 C191.100946,495.128536 192.761871,493.475728 194.810726,493.475728 Z M194.810726,493.004854 C192.500538,493.004854 190.62776,494.86848 190.62776,497.167379 C190.62776,499.466277 192.500538,501.329903 194.810726,501.329903 C197.120913,501.329903 198.993691,499.466277 198.993691,497.167379 C198.988487,494.870628 197.118754,493.010033 194.810726,493.004854 Z"></path>
                                <path d="M258.160883,493.475728 C260.209738,493.475728 261.870662,495.128536 261.870662,497.167379 C261.870662,499.206221 260.209738,500.859029 258.160883,500.859029 C256.112029,500.859029 254.451104,499.206221 254.451104,497.167379 C254.456305,495.130684 256.114187,493.480904 258.160883,493.475728 Z M258.160883,493.004854 C255.850695,493.004854 253.977918,494.86848 253.977918,497.167379 C253.977918,499.466277 255.850695,501.329903 258.160883,501.329903 C260.471071,501.329903 262.343849,499.466277 262.343849,497.167379 C262.338644,494.870628 260.468912,493.010033 258.160883,493.004854 Z"></path>
                                <path d="M321.511041,493.475728 C323.559895,493.475728 325.22082,495.128536 325.22082,497.167379 C325.22082,499.206221 323.559895,500.859029 321.511041,500.859029 C319.462187,500.859029 317.801262,499.206221 317.801262,497.167379 C317.806463,495.130684 319.464345,493.480904 321.511041,493.475728 Z M321.511041,493.004854 C319.200853,493.004854 317.328076,494.86848 317.328076,497.167379 C317.328076,499.466277 319.200853,501.329903 321.511041,501.329903 C323.821229,501.329903 325.694006,499.466277 325.694006,497.167379 C325.688802,494.870628 323.81907,493.010033 321.511041,493.004854 Z"></path>
                                <path d="M384.851735,493.475728 C386.353056,493.471917 387.708678,494.368938 388.285864,495.748108 C388.863051,497.127277 388.547998,498.716664 387.487757,499.774422 C386.427516,500.83218 384.831134,501.149752 383.443722,500.578911 C382.056311,500.00807 381.151424,498.661368 381.15142,497.167379 C381.151413,495.132208 382.806577,493.48092 384.851735,493.475728 Z M384.851735,493.004854 C382.541547,493.004854 380.66877,494.86848 380.66877,497.167379 C380.66877,499.466277 382.541547,501.329903 384.851735,501.329903 C387.161923,501.329903 389.0347,499.466277 389.0347,497.167379 C389.029496,494.870628 387.159764,493.010033 384.851735,493.004854 Z"></path>
                                <path d="M448.201893,493.475728 C449.702358,493.475728 451.055078,494.37517 451.629282,495.754645 C452.203485,497.13412 451.886092,498.721965 450.825103,499.77777 C449.764113,500.833574 448.168471,501.149416 446.782222,500.578019 C445.395972,500.006622 444.492114,498.660512 444.492114,497.167379 C444.492114,495.128536 446.153038,493.475728 448.201893,493.475728 Z M448.201893,493.004854 C445.89921,492.994862 444.021448,494.83875 444.000853,497.13011 C443.980258,499.421471 445.824576,501.298487 448.12707,501.329483 C450.429564,501.360478 452.324231,499.533795 452.365931,497.242718 C452.360726,494.945968 450.490994,493.085373 448.182965,493.080194 L448.201893,493.004854 Z"></path>
                                <path d="M511.55205,493.475728 C513.600905,493.475728 515.26183,495.128536 515.26183,497.167379 C515.26183,499.206221 513.600905,500.859029 511.55205,500.859029 C509.503196,500.859029 507.842271,499.206221 507.842271,497.167379 C507.847473,495.130684 509.505354,493.480904 511.55205,493.475728 Z M511.55205,493.004854 C509.256843,493.025901 507.40741,494.88351 507.407629,497.167599 C507.407847,499.451688 509.257636,501.308946 511.552848,501.329557 C513.84806,501.350168 515.731229,499.526431 515.772871,497.242718 C515.767667,494.945968 513.897934,493.085373 511.589905,493.080194 L511.55205,493.004854 Z"></path>
                                <path d="M574.902208,493.475728 C576.951063,493.475728 578.611987,495.128536 578.611987,497.167379 C578.611987,499.206221 576.951063,500.859029 574.902208,500.859029 C572.853354,500.859029 571.192429,499.206221 571.192429,497.167379 C571.192429,495.128536 572.853354,493.475728 574.902208,493.475728 Z M574.902208,493.004854 C573.209501,493.001043 571.681338,494.01279 571.030911,495.567913 C570.380485,497.123036 570.736022,498.914955 571.931594,500.107382 C573.127165,501.299809 574.927073,501.657666 576.491302,501.013942 C578.055532,500.370218 579.075705,498.851819 579.07571,497.167379 C579.070532,494.87429 577.20654,493.015201 574.902208,493.004854 Z"></path>
                                <path d="M638.242902,493.475728 C640.28303,493.470972 641.944175,495.106392 641.961242,497.136485 C641.97831,499.166578 640.344894,500.829426 638.304972,500.858637 C636.265049,500.887848 634.584228,499.27246 634.542587,497.242718 C634.54258,495.207548 636.197745,493.55626 638.242902,493.551068 L638.242902,493.475728 Z M638.242902,493.080194 C635.932714,493.080194 634.059937,494.94382 634.059937,497.242718 C634.059937,499.541617 635.932714,501.405243 638.242902,501.405243 C640.55309,501.405243 642.425868,499.541617 642.425868,497.242718 C642.420663,494.945968 640.550931,493.085373 638.242902,493.080194 Z"></path>
                                <path d="M701.59306,432.054951 C703.641914,432.054951 705.302839,433.70776 705.302839,435.746602 C705.302839,437.785444 703.641914,439.438252 701.59306,439.438252 C699.544205,439.438252 697.883281,437.785444 697.883281,435.746602 C697.880759,434.766748 698.2708,433.826304 698.967066,433.13344 C699.663332,432.440577 700.608394,432.052442 701.59306,432.054951 Z M701.59306,431.584078 C699.901208,431.584078 698.375947,432.598244 697.728504,434.153673 C697.08106,435.709102 697.438937,437.499477 698.635257,438.689951 C699.831577,439.880425 701.630744,440.236553 703.193811,439.592273 C704.756878,438.947993 705.776025,437.430186 705.776025,435.746602 C705.770821,433.449852 703.901089,431.589256 701.59306,431.584078 Z"></path>
                                <path d="M701.59306,493.475728 C703.641914,493.475728 705.302839,495.128536 705.302839,497.167379 C705.302839,499.206221 703.641914,500.859029 701.59306,500.859029 C699.544205,500.859029 697.883281,499.206221 697.883281,497.167379 C697.883281,495.128536 699.544205,493.475728 701.59306,493.475728 Z M701.59306,493.004854 C699.901208,493.004854 698.375947,494.019021 697.728504,495.57445 C697.08106,497.129878 697.438937,498.920254 698.635257,500.110728 C699.831577,501.301201 701.630744,501.657329 703.193811,501.01305 C704.756878,500.36877 705.776025,498.850963 705.776025,497.167379 C705.770821,494.870628 703.901089,493.010033 701.59306,493.004854 Z"></path>
                                <path d="M764.943218,432.054951 C766.992072,432.054951 768.652997,433.70776 768.652997,435.746602 C768.652997,437.785444 766.992072,439.438252 764.943218,439.438252 C762.894363,439.438252 761.233438,437.785444 761.233438,435.746602 C761.233438,433.70776 762.894363,432.054951 764.943218,432.054951 Z M764.943218,431.584078 C762.63303,431.584078 760.760252,433.447703 760.760252,435.746602 C760.760252,438.045501 762.63303,439.909126 764.943218,439.909126 C767.253406,439.909126 769.126183,438.045501 769.126183,435.746602 C769.126183,433.447703 767.253406,431.584078 764.943218,431.584078 Z"></path>
                                <path d="M828.293375,432.054951 C830.34223,432.054951 832.003155,433.70776 832.003155,435.746602 C832.003155,437.785444 830.34223,439.438252 828.293375,439.438252 C826.244521,439.438252 824.583596,437.785444 824.583596,435.746602 C824.581075,434.766748 824.971115,433.826304 825.667381,433.13344 C826.363647,432.440577 827.30871,432.052442 828.293375,432.054951 Z M828.293375,431.584078 C826.600668,431.580267 825.072505,432.592013 824.422078,434.147137 C823.771652,435.70226 824.127189,437.494178 825.322761,438.686605 C826.518332,439.879032 828.318241,440.23689 829.88247,439.593166 C831.446699,438.949442 832.466873,437.431042 832.466877,435.746602 C832.466883,433.451376 830.599867,431.58927 828.293375,431.584078 Z"></path>
                                <path d="M891.634069,432.054951 C893.13539,432.05114 894.491012,432.948162 895.068199,434.327331 C895.645385,435.7065 895.330332,437.295887 894.270091,438.353645 C893.20985,439.411403 891.613468,439.728975 890.226057,439.158134 C888.838645,438.587293 887.933759,437.240591 887.933754,435.746602 C887.93124,434.768382 888.319983,433.829371 889.0142,433.13678 C889.708416,432.444189 890.651043,432.054948 891.634069,432.054951 Z M891.634069,431.584078 C889.942218,431.584078 888.416957,432.598244 887.769513,434.153673 C887.12207,435.709102 887.479947,437.499477 888.676266,438.689951 C889.872586,439.880425 891.671754,440.236553 893.234821,439.592273 C894.797888,438.947993 895.817035,437.430186 895.817035,435.746602 C895.817035,433.447703 893.944257,431.584078 891.634069,431.584078 Z"></path>
                                <path d="M764.943218,493.475728 C766.992072,493.475728 768.652997,495.128536 768.652997,497.167379 C768.652997,499.206221 766.992072,500.859029 764.943218,500.859029 C762.894363,500.859029 761.233438,499.206221 761.233438,497.167379 C761.23864,495.130684 762.896522,493.480904 764.943218,493.475728 Z M764.943218,493.004854 C762.63303,493.004854 760.760252,494.86848 760.760252,497.167379 C760.760252,499.466277 762.63303,501.329903 764.943218,501.329903 C767.253406,501.329903 769.126183,499.466277 769.126183,497.167379 C769.120979,494.870628 767.251247,493.010033 764.943218,493.004854 Z"></path>
                                <path d="M828.293375,493.475728 C830.34223,493.475728 832.003155,495.128536 832.003155,497.167379 C832.003155,499.206221 830.34223,500.859029 828.293375,500.859029 C826.244521,500.859029 824.583596,499.206221 824.583596,497.167379 C824.583596,495.128536 826.244521,493.475728 828.293375,493.475728 Z M828.293375,493.004854 C826.600668,493.001043 825.072505,494.01279 824.422078,495.567913 C823.771652,497.123036 824.127189,498.914955 825.322761,500.107382 C826.518332,501.299809 828.318241,501.657666 829.88247,501.013942 C831.446699,500.370218 832.466873,498.851819 832.466877,497.167379 C832.461699,494.87429 830.597708,493.015201 828.293375,493.004854 Z"></path>
                                <path d="M891.634069,493.475728 C893.13539,493.471917 894.491012,494.368938 895.068199,495.748108 C895.645385,497.127277 895.330332,498.716664 894.270091,499.774422 C893.20985,500.83218 891.613468,501.149752 890.226057,500.578911 C888.838645,500.00807 887.933759,498.661368 887.933754,497.167379 C887.933747,495.132208 889.588912,493.48092 891.634069,493.475728 Z M891.634069,493.004854 C889.942218,493.004854 888.416957,494.019021 887.769513,495.57445 C887.12207,497.129878 887.479947,498.920254 888.676266,500.110728 C889.872586,501.301201 891.671754,501.657329 893.234821,501.01305 C894.797888,500.36877 895.817035,498.850963 895.817035,497.167379 C895.811831,494.870628 893.942098,493.010033 891.634069,493.004854 Z"></path>
                            </g>
                        </g>
                        <g id="little_cercle_white-02" mask="url(#mask-2)" fill="#FFFFFF" fill-rule="nonzero">
                            <g transform="translate(896.405023, -419.835758)" id="Shape">
                                <path d="M4.7318612,432.054951 C6.78071566,432.054951 8.44164038,433.70776 8.44164038,435.746602 C8.44164038,437.785444 6.78071566,439.438252 4.7318612,439.438252 C2.68300673,439.438252 1.02208202,437.785444 1.02208202,435.746602 C1.02208202,433.70776 2.68300673,432.054951 4.7318612,432.054951 Z M4.7318612,431.584078 C2.42167325,431.584078 0.548895899,433.447703 0.548895899,435.746602 C0.548895899,438.045501 2.42167325,439.909126 4.7318612,439.909126 C7.04204914,439.909126 8.9148265,438.045501 8.9148265,435.746602 C8.9148265,434.642632 8.47412249,433.583878 7.68966433,432.803253 C6.90520616,432.022628 5.84125257,431.584078 4.7318612,431.584078 Z"></path>
                                <path d="M68.1388013,432.054951 C70.1876557,432.054951 71.8485804,433.70776 71.8485804,435.746602 C71.8485804,437.785444 70.1876557,439.438252 68.1388013,439.438252 C66.0899468,439.438252 64.4290221,437.785444 64.4290221,435.746602 C64.4290221,433.70776 66.0899468,432.054951 68.1388013,432.054951 Z M68.1388013,431.584078 C66.4469497,431.584078 64.9216888,432.598244 64.2742452,434.153673 C63.6268017,435.709102 63.9846784,437.499477 65.1809981,438.689951 C66.3773178,439.880425 68.1764858,440.236553 69.7395528,439.592273 C71.3026198,438.947993 72.3217666,437.430186 72.3217666,435.746602 C72.3217666,433.447703 70.4489892,431.584078 68.1388013,431.584078 Z"></path>
                                <path d="M131.460568,432.054951 C132.961889,432.05114 134.317511,432.948162 134.894697,434.327331 C135.471883,435.7065 135.156831,437.295887 134.09659,438.353645 C133.036349,439.411403 131.439967,439.728975 130.052555,439.158134 C128.665143,438.587293 127.760257,437.240591 127.760252,435.746602 C127.757738,434.768382 128.146482,433.829371 128.840698,433.13678 C129.534914,432.444189 130.477541,432.054948 131.460568,432.054951 Z M131.460568,431.584078 C129.15038,431.584078 127.277603,433.447703 127.277603,435.746602 C127.277603,438.045501 129.15038,439.909126 131.460568,439.909126 C133.770756,439.909126 135.643533,438.045501 135.643533,435.746602 C135.643533,433.447703 133.770756,431.584078 131.460568,431.584078 Z"></path>
                                <path d="M194.810726,432.054951 C196.85958,432.054951 198.520505,433.70776 198.520505,435.746602 C198.520505,437.785444 196.85958,439.438252 194.810726,439.438252 C192.761871,439.438252 191.100946,437.785444 191.100946,435.746602 C191.098425,434.766748 191.488466,433.826304 192.184732,433.13344 C192.880997,432.440577 193.82606,432.052442 194.810726,432.054951 Z M194.810726,431.584078 C192.500538,431.584078 190.62776,433.447703 190.62776,435.746602 C190.62776,438.045501 192.500538,439.909126 194.810726,439.909126 C197.120913,439.909126 198.993691,438.045501 198.993691,435.746602 C198.988487,433.449852 197.118754,431.589256 194.810726,431.584078 Z"></path>
                                <path d="M4.7318612,493.475728 C6.77556185,493.455401 8.45082558,495.08379 8.47838165,497.117421 C8.50593772,499.151051 6.87540501,500.823798 4.8318966,500.858313 C2.78838819,500.892828 1.10174925,499.276108 1.05993691,497.242718 C1.04222808,496.257874 1.41975984,495.306632 2.10894294,494.599606 C2.79812604,493.89258 3.74210053,493.488102 4.7318612,493.475728 Z M4.7318612,493.004854 C2.43665327,493.025901 0.587220441,494.88351 0.587439239,497.167599 C0.587658036,499.451688 2.43744672,501.308946 4.73265864,501.329557 C7.02787056,501.350168 8.91103996,499.526431 8.95268139,497.242718 C8.96030397,496.12645 8.51805987,495.053701 7.72484415,494.264361 C6.93162842,493.475022 5.85361174,493.034939 4.7318612,493.042524 L4.7318612,493.004854 Z"></path>
                                <path d="M68.1388013,493.475728 C70.1876557,493.475728 71.8485804,495.128536 71.8485804,497.167379 C71.8485804,499.206221 70.1876557,500.859029 68.1388013,500.859029 C66.0899468,500.859029 64.4290221,499.206221 64.4290221,497.167379 C64.4342234,495.130684 66.0921051,493.480904 68.1388013,493.475728 Z M68.1388013,493.004854 C65.8361183,492.994862 63.9583568,494.83875 63.9377618,497.13011 C63.9171667,499.421471 65.7614843,501.298487 68.0639785,501.329483 C70.3664727,501.360478 72.2611393,499.533795 72.3028391,497.242718 C72.297635,494.945968 70.4279027,493.085373 68.1198738,493.080194 L68.1388013,493.004854 Z"></path>
                                <path d="M131.460568,493.475728 C133.500696,493.470972 135.161841,495.106392 135.178908,497.136485 C135.195975,499.166578 133.56256,500.829426 131.522637,500.858637 C129.482715,500.887848 127.801893,499.27246 127.760252,497.242718 C127.760246,495.207548 129.41541,493.55626 131.460568,493.551068 L131.460568,493.475728 Z M131.460568,493.080194 C129.15038,493.080194 127.277603,494.94382 127.277603,497.242718 C127.277603,499.541617 129.15038,501.405243 131.460568,501.405243 C133.770756,501.405243 135.643533,499.541617 135.643533,497.242718 C135.638329,494.945968 133.768597,493.085373 131.460568,493.080194 Z"></path>
                                <path d="M194.810726,493.475728 C196.85958,493.475728 198.520505,495.128536 198.520505,497.167379 C198.520505,499.206221 196.85958,500.859029 194.810726,500.859029 C192.761871,500.859029 191.100946,499.206221 191.100946,497.167379 C191.100946,495.128536 192.761871,493.475728 194.810726,493.475728 Z M194.810726,493.004854 C192.500538,493.004854 190.62776,494.86848 190.62776,497.167379 C190.62776,499.466277 192.500538,501.329903 194.810726,501.329903 C197.120913,501.329903 198.993691,499.466277 198.993691,497.167379 C198.988487,494.870628 197.118754,493.010033 194.810726,493.004854 Z"></path>
                            </g>
                        </g>
                    </g>
                </g>
            </g>
        </g>
    </g>
</svg>