// Jest Snapshot v1, https://goo.gl/fbAQLP

exports[`components/company/dashboard/gb-job-offers-table-row actions slot should match snapshot 1`] = `
<div
  class="gb-job-offers-table-row columns is-marginless is-paddingless"
>
  <div
    class="column is-11"
  >
    <div
      class="gb-job-offers-table-row--content columns is-vcentered"
    >
      <div
        class="gb-job-offers-table-row--title column is-4 "
      >
        <span>
          
        </span>
      </div>
       
      <div
        class="gb-job-offers-table-row--published-at column"
      >
        <span>
          
        </span>
      </div>
       
      <div
        class="gb-job-offers-table-row--city column"
      >
        <span>
          
        </span>
      </div>
       
      <div
        class="gb-job-offers-table-row--candidates column"
      >
        
        -
      
      </div>
       
      <div
        class="gb-job-offers-table-row--days-left column"
      />
       
      <div
        class="gb-job-offers-table-row--actions column"
      >
        <div>
          <button>
            Extend
          </button>
          <button>
            Boost
          </button>
        </div>
      </div>
    </div>
  </div>
   
  <div
    class="gb-job-offers-table-row--delete column is-marginless is-paddingless"
  />
</div>
`;
