<?xml version="1.0" encoding="UTF-8"?>
<svg width="14px" height="18px" viewBox="0 0 14 18" version="1.1" xmlns="http://www.w3.org/2000/svg" xmlns:xlink="http://www.w3.org/1999/xlink">
    <!-- Generator: sketchtool 51.1 (57501) - http://www.bohemiancoding.com/sketch -->
    <title>8B65AB49-23D4-40B1-99CF-5BA59A9A8A75</title>
    <desc>Created with sketchtool.</desc>
    <defs></defs>
    <g id="Babillard" stroke="none" stroke-width="1" fill="none" fill-rule="evenodd">
        <g id="Babillard_connect" transform="translate(-1029.000000, -785.000000)" fill="#FFFFFF" fill-rule="nonzero">
            <g id="annonce" transform="translate(980.000000, 456.000000)">
                <g id="details" transform="translate(36.000000, 254.000000)">
                    <g id="address_white" transform="translate(13.000000, 75.000000)">
                        <path d="M7,0 C3.14017915,0 0,2.92437075 0,6.51889076 C0,10.9798024 6.26431426,17.5286815 6.53102299,17.8052912 C6.78153667,18.0651314 7.21891634,18.0646744 7.46897701,17.8052912 C7.73568574,17.5286815 14,10.9798024 14,6.51889076 C13.9999245,2.92437075 10.8597831,0 7,0 Z M7,9.79872678 C5.05802823,9.79872678 3.47816122,8.32740077 3.47816122,6.51889076 C3.47816122,4.71038074 5.05806598,3.23908988 7,3.23908988 C8.94193402,3.23908988 10.521801,4.7104159 10.521801,6.51892591 C10.521801,8.32743593 8.94193402,9.79872678 7,9.79872678 Z" id="Shape"></path>
                    </g>
                </g>
            </g>
        </g>
    </g>
</svg>