<?xml version="1.0" encoding="UTF-8"?>
<svg width="25px" height="23px" viewBox="0 0 25 23" version="1.1" xmlns="http://www.w3.org/2000/svg" xmlns:xlink="http://www.w3.org/1999/xlink">
    <!-- Generator: sketchtool 51.1 (57501) - http://www.bohemiancoding.com/sketch -->
    <title>37545C0D-28AE-42D8-906A-45D6C1DE8011</title>
    <desc>Created with sketchtool.</desc>
    <defs></defs>
    <g id="Créez-une-offre" stroke="none" stroke-width="1" fill="none" fill-rule="evenodd">
        <g id="Edition-offre-d'emploi_message-d'erreur" transform="translate(-773.000000, -3022.000000)" fill="#FFFFFF" fill-rule="nonzero">
            <g id="Personnalité-recherchée" transform="translate(252.000000, 2930.000000)">
                <g id="binoculars_on" transform="translate(521.000000, 92.000000)">
                    <path d="M24.3115741,14.594844 L21.5814815,3.1614674 C21.1560185,1.38113477 19.6643519,0.0826504669 17.9541667,0.00415505734 C16.8800926,-0.0450227896 15.8638889,0.343671347 15.0898148,1.09930788 C14.3152778,1.85589014 13.8888889,2.87491187 13.8888889,3.9686461 L13.8888889,5.97689914 L11.1111111,5.97689914 L11.1111111,3.9686461 C11.1111111,2.87491187 10.6847222,1.85589014 9.91018519,1.09978074 C9.13611111,0.343671347 8.11666667,-0.0464413813 7.04583333,0.00462792125 C5.33518519,0.0831233308 3.84351852,1.38160764 3.41851852,3.16194027 L0.687962963,14.5957897 C0.250462963,15.4062784 0,16.3364017 0,17.325633 C0,20.4545736 2.49212963,23 5.55555556,23 C8.52685185,23 10.9541667,20.6030528 11.0972222,17.603677 C11.1009259,17.5800338 11.1111111,17.558755 11.1111111,17.534166 L11.1111111,17.3261059 L11.1111111,13.0703307 L13.8888889,13.0703307 L13.8888889,17.3261059 L13.8888889,17.534166 C13.8888889,17.5573364 13.8990741,17.5776695 13.9023148,17.5998941 C14.0435185,20.6011614 16.4717593,23 19.4444444,23 C22.5078704,23 25,20.4545736 25,17.325633 C25,16.3359289 24.749537,15.4058056 24.3115741,14.594844 Z M5.55555556,22.0542722 C3.00277778,22.0542722 0.925925926,19.9330047 0.925925926,17.325633 C0.925925926,16.4645479 1.15601852,15.6587878 1.55185185,14.9622592 C1.63703704,14.8123614 1.73009259,14.6690836 1.82962963,14.5310073 C1.85416667,14.4969611 1.87824074,14.4629149 1.9037037,14.4298144 C2.13657407,14.1243444 2.40231481,13.8505562 2.69537037,13.6145971 C2.72175926,13.5933182 2.74907407,13.5739308 2.77546296,13.5531248 C2.90509259,13.4533505 3.03981481,13.3601963 3.1787037,13.2750808 C3.2037037,13.2594763 3.22824074,13.2433989 3.2537037,13.2282672 C3.58101852,13.0358116 3.93148148,12.884968 4.29722222,12.7785737 C4.33425926,12.7676978 4.37175926,12.7587134 4.40925926,12.7492561 C4.55462963,12.7109541 4.70231481,12.6806908 4.85138889,12.6570476 C4.89768519,12.6494818 4.94351852,12.6409703 4.99027778,12.6352959 C5.17685185,12.6116527 5.36527778,12.5965211 5.55555556,12.5965211 C8.10833333,12.5965211 10.1851852,14.7177886 10.1851852,17.3251602 C10.1851852,17.3629893 10.1805556,17.398927 10.1796296,17.4362832 L10.175,17.5143057 C10.175,17.5152515 10.175463,17.5161972 10.175463,17.5171429 C10.0759259,20.0356161 8.04490741,22.0542722 5.55555556,22.0542722 Z M9.80416667,13.6770151 C9.76805556,13.6330388 9.7287037,13.5928453 9.6912037,13.5502876 C9.5912037,13.4358545 9.48796296,13.3252043 9.37916667,13.2197557 C9.32824074,13.170105 9.27592593,13.1223457 9.22314815,13.0750593 C9.11666667,12.979068 9.00648148,12.8878052 8.89305556,12.8003254 C8.84027778,12.7596591 8.78842593,12.7175742 8.73425926,12.6787994 C8.58564815,12.572405 8.43194444,12.4731036 8.27314815,12.3818408 C8.25231481,12.3700192 8.23287037,12.3553605 8.21203704,12.3440117 C8.03148148,12.2432917 7.84444444,12.1548662 7.65277778,12.0744793 C7.5962963,12.0508361 7.53796296,12.0319215 7.48055556,12.0101698 C7.34074074,11.957209 7.19907407,11.9089769 7.05416667,11.8673649 C6.98425926,11.8475046 6.91435185,11.8290629 6.84305556,11.8120398 C6.69861111,11.7770479 6.55231481,11.7486761 6.4037037,11.7255057 C6.33796296,11.7151027 6.27268519,11.7023354 6.20601852,11.6947696 C5.99212963,11.6692349 5.77592593,11.6522118 5.55555556,11.6522118 C5.37962963,11.6522118 5.20462963,11.662142 5.03148148,11.6791651 C4.96018519,11.6857852 4.89074074,11.6980796 4.82037037,11.7075369 C4.72175926,11.72125 4.62361111,11.7344901 4.52638889,11.7534047 C4.43888889,11.7699549 4.35324074,11.7912338 4.26759259,11.8120398 C4.1912037,11.8309544 4.11527778,11.8498689 4.03981481,11.8720935 C3.9462963,11.8990468 3.8537037,11.9288372 3.76203704,11.960992 C3.69768519,11.9836894 3.63425926,12.0078055 3.57083333,12.0323944 C3.47546296,12.0697507 3.38101852,12.1085255 3.28796296,12.1510832 C3.23101852,12.1770908 3.17546296,12.2059355 3.11944444,12.2343073 C3.02546296,12.2815937 2.93101852,12.3284072 2.83981481,12.3808951 C2.78842593,12.4102127 2.73935185,12.4433131 2.68935185,12.4745222 C2.59722222,12.5312658 2.50462963,12.5870638 2.4162037,12.6490089 C2.39305556,12.6650863 2.37175926,12.6840009 2.34861111,12.7005511 C2.24259259,12.7776279 2.13657407,12.8551776 2.03611111,12.9393474 L4.31805556,3.38607776 C4.6462963,2.0109895 5.78518519,1.00946374 7.0875,0.949410019 C7.90833333,0.904960811 8.68055556,1.20806658 9.27037037,1.78401483 C9.86018519,2.35949021 10.1851852,3.13545989 10.1851852,3.9686461 L10.1851852,6.44976305 L10.1851852,12.5969939 L10.1851852,14.1919639 C10.1814815,14.1867624 10.1773148,14.1820338 10.1736111,14.1763594 C10.0597222,14.0023455 9.93564815,13.8363702 9.80416667,13.6770151 Z M11.1111111,12.12413 L11.1111111,6.92262697 L13.8888889,6.92262697 L13.8888889,12.12413 L11.1111111,12.12413 Z M14.8148148,14.1919639 L14.8148148,12.5969939 L14.8148148,6.44976305 L14.8148148,3.9686461 C14.8148148,3.13545989 15.1398148,2.35949021 15.7296296,1.78354196 C16.2861111,1.24069419 17.0069444,0.946099972 17.7736111,0.946099972 C17.8199074,0.946099972 17.8657407,0.947045699 17.9125,0.949410019 C19.2148148,1.00946374 20.3537037,2.0109895 20.6819444,3.38607776 L22.962963,12.9384017 C22.7550926,12.7639149 22.5310185,12.6092884 22.299537,12.4669563 C22.2532407,12.4385845 22.2083333,12.4083212 22.1615741,12.381368 C22.0685185,12.3274615 21.9722222,12.2797022 21.8759259,12.2314701 C21.8217593,12.2045169 21.7685185,12.1766179 21.7134259,12.1515561 C21.6194444,12.1085255 21.5240741,12.0692778 21.4273148,12.0314487 C21.3648148,12.0068598 21.3023148,11.9832166 21.2393519,11.960992 C21.1472222,11.9288372 21.0541667,11.8985739 20.9597222,11.8711478 C20.8847222,11.8493961 20.8092593,11.8300087 20.7333333,11.811567 C20.6472222,11.7907609 20.5611111,11.7694821 20.4736111,11.7529318 C20.3768519,11.7340173 20.2787037,11.7207771 20.1800926,11.707064 C20.1097222,11.6976068 20.0398148,11.6853123 19.9685185,11.6786922 C19.7953704,11.6616691 19.6203704,11.6512661 19.4444444,11.6512661 C19.2240741,11.6512661 19.0074074,11.6678163 18.7939815,11.6938238 C18.7273148,11.7018625 18.6625,11.714157 18.5962963,11.72456 C18.4476852,11.7477303 18.3013889,11.7761022 18.1569444,11.8110941 C18.0861111,11.8285901 18.0157407,11.8465589 17.9458333,11.8664192 C17.8009259,11.9080312 17.6592593,11.9562633 17.5194444,12.0092241 C17.462037,12.0309758 17.4037037,12.0498904 17.3472222,12.0735336 C17.1555556,12.1539204 16.9680556,12.242346 16.787963,12.343066 C16.7671296,12.3548876 16.7476852,12.3690735 16.7268519,12.3808951 C16.5680556,12.4721578 16.4143519,12.5714593 16.2657407,12.6778536 C16.2115741,12.7166285 16.1597222,12.7582405 16.1069444,12.7993797 C15.9935185,12.8868595 15.8833333,12.9781222 15.7768519,13.0741136 C15.7240741,13.1218729 15.6717593,13.1696321 15.6208333,13.21881 C15.512037,13.3242586 15.4087963,13.4349088 15.3087963,13.5493418 C15.2712963,13.5918996 15.2319444,13.6325659 15.1958333,13.6760694 C15.0643519,13.8354245 14.9402778,14.0013997 14.8263889,14.1754137 C14.8226852,14.1820338 14.8185185,14.1867624 14.8148148,14.1919639 Z M19.4444444,22.0542722 C16.9550926,22.0542722 14.9240741,20.0356161 14.824537,17.5176158 C14.824537,17.5166701 14.825,17.5157243 14.825,17.5147786 L14.8203704,17.4367561 C14.8194444,17.3993998 14.8148148,17.3634622 14.8148148,17.325633 C14.8148148,14.7182614 16.8916667,12.5969939 19.4444444,12.5969939 C19.6347222,12.5969939 19.8231481,12.6121256 20.0097222,12.6362416 C20.0564815,12.641916 20.1023148,12.6504275 20.1486111,12.6579934 C20.2981481,12.6816366 20.4458333,12.7118998 20.5912037,12.7502018 C20.6282407,12.760132 20.6657407,12.7686435 20.7023148,12.7795194 C21.0680556,12.8859138 21.4189815,13.0367574 21.7467593,13.2296858 C21.7712963,13.2443446 21.7949074,13.2599491 21.8194444,13.2746079 C21.9597222,13.3606691 22.0953704,13.4542962 22.2263889,13.5554891 C22.2518519,13.5753494 22.2782407,13.593791 22.3032407,13.6141242 C22.5976852,13.8505562 22.8643519,14.1252901 23.0976852,14.4321788 C23.1217593,14.4638606 23.1453704,14.4964883 23.1689815,14.5291159 C23.2699074,14.6686107 23.3643519,14.8142528 23.450463,14.966515 C23.8444444,15.6616249 24.0740741,16.4659665 24.0740741,17.325633 C24.0740741,19.9330047 21.9972222,22.0542722 19.4444444,22.0542722 Z" id="Shape"></path>
                </g>
            </g>
        </g>
    </g>
</svg>