<?xml version="1.0" encoding="UTF-8"?>
<svg width="27px" height="15px" viewBox="0 0 27 15" version="1.1" xmlns="http://www.w3.org/2000/svg" xmlns:xlink="http://www.w3.org/1999/xlink">
    <!-- Generator: sketchtool 51.1 (57501) - http://www.bohemiancoding.com/sketch -->
    <title>A4B2F88B-B4D5-4ECE-A047-2CE79F5F2B5F</title>
    <desc>Created with sketchtool.</desc>
    <defs></defs>
    <g id="Créez-une-offre" stroke="none" stroke-width="1" fill="none" fill-rule="evenodd">
        <g id="Edition-offre-d'emploi" transform="translate(-531.000000, -3273.000000)" fill="#081074" fill-rule="nonzero">
            <g id="Personnalité-recherchée" transform="translate(252.000000, 2972.000000)">
                <g id="-bow_tie_off" transform="translate(279.000000, 301.000000)">
                    <path d="M25.1628866,0.272727273 C25.0515464,0.109090909 24.828866,-1.32419328e-14 24.6618557,-1.32419328e-14 C20.0969072,0.381818182 16.4783505,3.81818182 15.643299,4.58181818 L11.356701,4.58181818 C10.5216495,3.76363636 6.90309278,0.381818182 2.33814433,-1.42108547e-14 C2.11546392,-1.42108547e-14 1.89278351,0.109090909 1.8371134,0.272727273 C1.7814433,0.381818182 0,3.32727273 0,7.41818182 L0,7.51172727 C0,7.48636364 0,7.53409091 0,7.58181818 C0,11.6727273 1.7257732,14.6181818 1.8371134,14.7272727 C1.94845361,14.8909091 2.11546392,15 2.33814433,15 L2.39381443,15 C7.07010309,14.6181818 10.7443299,11.0181818 11.4680412,10.3636364 L15.643299,10.3636364 C16.2556701,11.0181818 19.9298969,14.5636364 24.6061856,15 L24.6618557,15 C24.828866,15 25.0515464,14.8909091 25.1628866,14.7272727 C25.2185567,14.6181818 27,11.6727273 27,7.58181818 L27,7.47272727 L27,7.41818182 C27,3.32727273 25.2742268,0.381818182 25.1628866,0.272727273 Z M10.5773196,6.92727273 L8.90721649,6.92727273 C8.57319588,6.92727273 8.35051546,7.14545455 8.35051546,7.47272727 C8.35051546,7.8 8.57319588,8.01818182 8.90721649,8.01818182 L10.5773196,8.01818182 L10.5773196,9.6 C9.85360825,10.3090909 6.62474227,13.3636364 2.61649485,13.8545455 C2.17113402,13.0363636 1.11340206,10.6363636 1.11340206,7.52727273 C1.11340206,7.52727273 1.11340206,7.52727273 1.11340206,7.47272727 C1.11340206,4.30909091 2.17113402,1.90909091 2.61649485,1.09090909 C6.56907216,1.58181818 9.85360825,4.63636364 10.5773196,5.34545455 L10.5773196,6.92727273 Z M15.3092784,9.21818182 L11.6350515,9.21818182 L11.6350515,5.61818182 L15.3092784,5.61818182 L15.3092784,9.21818182 Z M25.8309278,7.41818182 C25.8309278,7.47272727 25.8309278,7.47272727 25.8309278,7.52727273 L25.8309278,7.58181818 C25.8309278,10.6909091 24.7731959,13.0909091 24.3278351,13.9090909 C20.3752577,13.4181818 17.0907216,10.3636364 16.3670103,9.65454545 L16.3670103,8.01818182 L18.0371134,8.01818182 C18.371134,8.01818182 18.5938144,7.8 18.5938144,7.47272727 C18.5938144,7.14545455 18.371134,6.92727273 18.0371134,6.92727273 L16.3670103,6.92727273 L16.3670103,5.34545455 C17.0907216,4.63636364 20.3752577,1.58181818 24.3278351,1.09090909 C24.7731959,1.90909091 25.8865979,4.30909091 25.8309278,7.41818182 Z" id="Shape"></path>
                </g>
            </g>
        </g>
    </g>
</svg>