<?xml version="1.0" encoding="UTF-8"?>
<svg width="25px" height="16px" viewBox="0 0 25 16" version="1.1" xmlns="http://www.w3.org/2000/svg" xmlns:xlink="http://www.w3.org/1999/xlink">
    <!-- Generator: sketchtool 51.1 (57501) - http://www.bohemiancoding.com/sketch -->
    <title>D909555E-2D9E-472C-9283-898F03ADFA16</title>
    <desc>Created with sketchtool.</desc>
    <defs></defs>
    <g id="Votre-espace-champ-de-base" stroke="none" stroke-width="1" fill="none" fill-rule="evenodd">
        <g id="Votre-espace-message-d'erreur" transform="translate(-208.000000, -2169.000000)" fill-rule="nonzero">
            <g id="Lieux-d'activité" transform="translate(161.000000, 1945.000000)">
                <g id="canada_flag" transform="translate(47.000000, 224.000000)">
                    <g id="Group" fill="#F5F5F5">
                        <path d="M24.5210526,15.9867619 L0.430214425,15.9867619 C0.192641326,15.9867619 0,15.7985238 0,15.566381 L0,0.433380952 C0,0.201238095 0.192641326,0.013 0.430214425,0.013 L24.5211014,0.013 C24.7586745,0.013 24.9513158,0.201238095 24.9513158,0.433380952 L24.9513158,15.566381 C24.9512671,15.7985714 24.7586257,15.9867619 24.5210526,15.9867619 Z" id="Shape"></path>
                        <rect id="Rectangle-path" x="5.59259259" y="0.0132380952" width="13.7660819" height="15.9738095"></rect>
                    </g>
                    <g id="Group" fill="#FF4B55">
                        <path d="M0.430214425,0.013047619 C0.192641326,0.013047619 0,0.201238095 0,0.433380952 L0,15.566381 C0,15.7985238 0.192641326,15.9867619 0.430214425,15.9867619 L5.59254386,15.9867619 L5.59254386,0.013047619 L0.430214425,0.013047619 Z" id="Shape"></path>
                        <path d="M24.5210526,0.013047619 L19.3587232,0.013047619 L19.3587232,15.9867619 L24.5210526,15.9867619 C24.7586257,15.9867619 24.9512671,15.7985238 24.9512671,15.566381 L24.9512671,0.433380952 C24.9512671,0.201238095 24.7586257,0.013047619 24.5210526,0.013047619 Z" id="Shape"></path>
                        <path d="M15.0862086,9.84561905 L17.6389864,8.42028571 L17.0532164,8.13409524 C16.8889376,8.05380952 16.794883,7.88047619 16.8192008,7.70252381 L17.0097953,6.3062381 L15.9290448,6.61347619 C15.6903021,6.68138095 15.4425439,6.53785714 15.3888402,6.30066667 L15.2853314,5.84352381 L14.2705653,7.004 C14.1298733,7.16485714 13.8618908,7.042 13.8985867,6.83342857 L14.3319688,4.37114286 L13.6684698,4.54847619 C13.4746589,4.60028571 13.2699805,4.51409524 13.1754873,4.34085714 L12.4768031,3.06128571 L12.4768031,3.05938095 L12.4763158,3.06033333 L12.4757797,3.05938095 L12.4757797,3.06128571 L11.7770955,4.34085714 C11.6825049,4.51404762 11.4778265,4.6002381 11.2840156,4.54847619 L10.6204678,4.37114286 L11.0538499,6.83342857 C11.0905458,7.04190476 10.8225146,7.16480952 10.6818226,7.004 L9.66705653,5.84352381 L9.56354776,6.30066667 C9.50984405,6.53790476 9.26208577,6.68133333 9.02334308,6.61347619 L7.94259259,6.3062381 L8.13318713,7.70252381 C8.15750487,7.88042857 8.06345029,8.05380952 7.89917154,8.13409524 L7.31340156,8.42028571 L9.86617934,9.84566667 C10.1306043,9.99333333 10.2464912,10.3064762 10.1398148,10.5851905 L9.92158869,11.1555238 L12.1089669,10.9730476 C12.2300195,10.9629524 12.3330409,11.0581905 12.3294834,11.1768095 L12.260575,13.464619 L12.6907895,13.464619 L12.6218324,11.1767143 C12.6182749,11.0580476 12.7212963,10.9628571 12.8423489,10.9729524 L15.0307505,11.1555238 L14.8125244,10.5851905 C14.7059454,10.3064286 14.8217836,9.9932381 15.0862086,9.84561905 Z" id="Shape"></path>
                    </g>
                </g>
            </g>
        </g>
    </g>
</svg>