<?xml version="1.0" encoding="UTF-8"?>
<svg width="13px" height="7px" viewBox="0 0 13 7" version="1.1" xmlns="http://www.w3.org/2000/svg" xmlns:xlink="http://www.w3.org/1999/xlink">
    <!-- Generator: sketchtool 51.1 (57501) - http://www.bohemiancoding.com/sketch -->
    <title>929C4C7A-A036-4B9A-B3D9-A595A1DABD8B</title>
    <desc>Created with sketchtool.</desc>
    <defs></defs>
    <g id="Babillard" stroke="none" stroke-width="1" fill="none" fill-rule="evenodd">
        <g id="Babillard_connect" transform="translate(-397.000000, -373.000000)" fill="#D8D8D8" fill-rule="nonzero">
            <g id="Menu" transform="translate(160.000000, 336.000000)">
                <g id="barre_recherche">
                    <g id="drop_down_grey" transform="translate(243.500000, 40.500000) rotate(-270.000000) translate(-243.500000, -40.500000) translate(240.000000, 34.000000)">
                        <path d="M6.78758621,5.98063286 L1.50263448,0.207261663 C1.3804,0.0736227181 1.21722759,0 1.04324138,0 C0.869255172,0 0.706082759,0.0736227181 0.583848276,0.207261663 L0.194648276,0.632332657 C-0.0586068966,0.909314402 -0.0586068966,1.35948884 0.194648276,1.63604868 L4.63255172,6.4841785 L0.189724138,11.3376876 C0.0674896552,11.4713266 0,11.6494767 0,11.8394402 C0,12.0296146 0.0674896552,12.2077647 0.189724138,12.3415091 L0.578924138,12.7664746 C0.701255172,12.9001136 0.864331034,12.9737363 1.03831724,12.9737363 C1.21230345,12.9737363 1.37547586,12.9001136 1.49771034,12.7664746 L6.78758621,6.98782961 C6.91011034,6.85376876 6.9774069,6.67477485 6.97702069,6.48449493 C6.9774069,6.29347667 6.91011034,6.11458824 6.78758621,5.98063286 Z" id="Shape"></path>
                    </g>
                </g>
            </g>
        </g>
    </g>
</svg>