<?xml version="1.0" encoding="UTF-8"?>
<svg width="20px" height="26px" viewBox="0 0 20 26" version="1.1" xmlns="http://www.w3.org/2000/svg" xmlns:xlink="http://www.w3.org/1999/xlink">
    <!-- Generator: sketchtool 51.1 (57501) - http://www.bohemiancoding.com/sketch -->
    <title>C7F54DA4-BEFC-40B6-87A9-A451509D135B</title>
    <desc>Created with sketchtool.</desc>
    <defs></defs>
    <g id="Votre-espace-champ-de-base" stroke="none" stroke-width="1" fill="none" fill-rule="evenodd">
        <g id="Votre-espace-edition" transform="translate(-655.000000, -1463.000000)" fill="#FFFFFF" fill-rule="nonzero">
            <g id="Photos" transform="translate(161.000000, 1441.000000)">
                <g id="hand_movement" transform="translate(494.000000, 22.000000)">
                    <path d="M17.8947239,7.58331641 C17.462093,7.58331641 17.0589193,7.71875 16.724183,7.9495 C16.4357789,7.10668359 15.6536585,6.5 14.7368343,6.5 C14.3042034,6.5 13.9010298,6.63543359 13.5662935,6.86618359 C13.2778893,6.02336719 12.4957689,5.41668359 11.5789448,5.41668359 C11.195804,5.41668359 10.8358045,5.52286719 10.5263314,5.70811719 L10.5263314,2.16668359 C10.5263314,0.97175 9.5821224,0 8.42105523,0 C7.25998806,0 6.31577909,0.97175 6.31577909,2.16668359 L6.31577909,14.8319336 L3.42211608,13.3423672 C2.98632733,13.1180664 2.49789063,13 2.01053946,13 C0.901084044,13 0,13.9284336 0,15.0756836 C0,15.62925 0.209456892,16.1481836 0.589489162,16.53925 L7.39577731,23.5440664 C8.93366952,25.1279336 10.9810675,26 13.1578895,26 C16.9305314,26 20,22.841 20,18.9583164 L20,9.75 C20,8.55506641 19.055791,7.58331641 17.8947239,7.58331641 Z M18.9473373,18.9583164 C18.9473373,22.2440664 16.3494303,24.9166328 13.156804,24.9166328 C11.2610341,24.9166328 9.47998441,24.1571992 8.14103924,22.7770664 L1.33371491,15.77225 C1.15267903,15.587 1.05266274,15.3389336 1.05266274,15.0691836 C1.05266274,14.5253672 1.48213572,14.0833672 2.01053946,14.0833672 C2.33580208,14.0833672 2.66002852,14.1624336 2.95159054,14.3119336 L6.60739045,16.1926172 C6.77056452,16.2760508 6.96526815,16.2673672 7.11896855,16.1688008 C7.27370514,16.0702344 7.36844183,15.8958008 7.36844183,15.7083672 L7.36844183,2.16668359 C7.36844183,1.56975 7.84000355,1.08336719 8.42105523,1.08336719 C9.0021069,1.08336719 9.47366863,1.56980078 9.47366863,2.16668359 L9.47366863,12.4583672 C9.47366863,12.7573672 9.70947416,13.0000508 10,13.0000508 C10.2905258,13.0000508 10.5263314,12.7573672 10.5263314,12.4583672 L10.5263314,7.58336719 C10.5263314,6.98643359 10.9978931,6.50005078 11.5789448,6.50005078 C12.1599964,6.50005078 12.6315582,6.98648437 12.6315582,7.58336719 L12.6315582,12.4583672 C12.6315582,12.7573672 12.8673637,13.0000508 13.1578895,13.0000508 C13.4484154,13.0000508 13.6842209,12.7573672 13.6842209,12.4583672 L13.6842209,8.66668359 C13.6842209,8.06975 14.1557826,7.58336719 14.7368343,7.58336719 C15.317886,7.58336719 15.7894477,8.06980078 15.7894477,8.66668359 L15.7894477,12.4583672 C15.7894477,12.7573672 16.0252532,13.0000508 16.3157791,13.0000508 C16.6063049,13.0000508 16.8421105,12.7573672 16.8421105,12.4583672 L16.8421105,9.75 C16.8421105,9.15306641 17.3136722,8.66668359 17.8947239,8.66668359 C18.4757755,8.66668359 18.9473373,9.15311719 18.9473373,9.75 L18.9473373,18.9583164 Z" id="Shape"></path>
                </g>
            </g>
        </g>
    </g>
</svg>