<?xml version="1.0" encoding="UTF-8"?>
<svg width="25px" height="27px" viewBox="0 0 25 27" version="1.1" xmlns="http://www.w3.org/2000/svg" xmlns:xlink="http://www.w3.org/1999/xlink">
    <!-- Generator: sketchtool 51.1 (57501) - http://www.bohemiancoding.com/sketch -->
    <title>4D169D32-E682-41BA-A88B-03382F7A7ADE</title>
    <desc>Created with sketchtool.</desc>
    <defs></defs>
    <g id="Créez-une-offre" stroke="none" stroke-width="1" fill="none" fill-rule="evenodd">
        <g id="Prévisualisation" transform="translate(-274.000000, -2244.000000)" fill="#FFFFFF" fill-rule="nonzero">
            <g id="lightbulb" transform="translate(274.000000, 2244.000000)">
                <path d="M12.5365331,6.45727483 C8.31001381,6.45727483 4.85697514,9.92147806 4.85697514,14.1616628 C4.85697514,16.3787529 5.82382597,18.5127021 7.45366022,19.9538106 C8.66912983,21.1732102 8.5586326,23.778291 8.53100829,23.8060046 C8.53100829,23.9445727 8.5586326,24.0554273 8.66912983,24.1662818 C8.75200276,24.2494226 8.89012431,24.3048499 9.00062155,24.3048499 L16.0448204,24.3048499 C16.182942,24.3048499 16.2934392,24.2494226 16.3763122,24.1662818 C16.4591851,24.0831409 16.5144337,23.9445727 16.5144337,23.8060046 C16.5144337,23.778291 16.3763122,21.1732102 17.5917818,19.9538106 C17.6194061,19.926097 17.6470304,19.8983834 17.6746547,19.8706697 C19.2768646,18.4018476 20.2160912,16.3233256 20.2160912,14.1616628 C20.2160912,9.92147806 16.7630525,6.45727483 12.5365331,6.45727483 Z M16.9564227,19.2332564 C16.9287983,19.26097 16.8735497,19.3163972 16.8735497,19.3441109 C15.7962017,20.5080831 15.6028315,22.4203233 15.5752072,23.334873 L9.47023481,23.334873 C9.4426105,22.4203233 9.24924033,20.4249423 8.08901934,19.2332564 C6.62493094,17.9584296 5.76857735,16.1016166 5.76857735,14.1339492 C5.76857735,10.3926097 8.77962707,7.37182448 12.5089088,7.37182448 C16.2381906,7.37182448 19.2492403,10.3926097 19.2492403,14.1339492 C19.2492403,16.1016166 18.420511,17.9584296 16.9564227,19.2332564 Z" id="Shape"></path>
                <path d="M15.5752072,24.8314088 L9.4426105,24.8314088 C8.80725138,24.8314088 8.2823895,25.3579677 8.2823895,25.9953811 C8.2823895,26.6327945 8.80725138,27.1593533 9.4426105,27.1593533 L15.5475829,27.1593533 C16.2105663,27.1316397 16.7354282,26.6327945 16.7354282,25.9953811 C16.7354282,25.3579677 16.2105663,24.8314088 15.5752072,24.8314088 Z M15.5752072,26.1893764 L9.4426105,26.1893764 C9.33211326,26.1893764 9.22161602,26.1062356 9.22161602,25.9676674 C9.22161602,25.8290993 9.30448895,25.7459584 9.4426105,25.7459584 L15.5475829,25.7459584 C15.6580801,25.7459584 15.7685773,25.8290993 15.7685773,25.9676674 C15.7685773,26.1062356 15.6857044,26.1893764 15.5752072,26.1893764 Z" id="Shape"></path>
                <path d="M12.5089088,4.15704388 C12.7851519,4.15704388 12.9785221,3.93533487 12.9785221,3.68591224 L12.9785221,0.47113164 C12.9785221,0.221709007 12.7575276,0 12.5089088,0 C12.2602901,0 12.0392956,0.221709007 12.0392956,0.47113164 L12.0392956,3.68591224 C12.0392956,3.93533487 12.2602901,4.15704388 12.5089088,4.15704388 Z" id="Shape"></path>
                <path d="M20.3265884,2.38337182 C20.1055939,2.21709007 19.8293508,2.30023095 19.6912293,2.49422633 L17.9232735,5.15473441 C17.7575276,5.37644342 17.8127762,5.6812933 18.0337707,5.81986143 C18.1166436,5.87528868 18.1995166,5.90300231 18.2823895,5.90300231 C18.4481354,5.90300231 18.5862569,5.81986143 18.6691298,5.6812933 L20.4370856,3.02078522 C20.6028315,2.82678984 20.5475829,2.52193995 20.3265884,2.38337182 Z" id="Shape"></path>
                <path d="M6.90117403,5.79214781 C6.98404696,5.79214781 7.06691989,5.76443418 7.14979282,5.70900693 C7.37078729,5.5704388 7.42603591,5.26558891 7.28791436,5.04387991 L5.57520718,2.3556582 C5.43708564,2.13394919 5.13321823,2.07852194 4.91222376,2.21709007 C4.69122928,2.3556582 4.63598066,2.66050808 4.77410221,2.88221709 L6.48680939,5.5704388 C6.59730663,5.73672055 6.73542818,5.79214781 6.90117403,5.79214781 Z" id="Shape"></path>
                <path d="M3.5586326,8.72979215 L0.768577348,7.20554273 C0.547582873,7.09468822 0.24371547,7.1778291 0.133218232,7.39953811 C-0.00490331492,7.62124711 0.0779696133,7.926097 0.326588398,8.0369515 L3.11664365,9.56120092 C3.19951657,9.58891455 3.25476519,9.61662818 3.33763812,9.61662818 C3.50338398,9.61662818 3.66912983,9.5334873 3.75200276,9.36720554 C3.8625,9.14549654 3.77962707,8.84064665 3.5586326,8.72979215 Z" id="Shape"></path>
                <path d="M24.9122238,7.39953811 C24.8017265,7.1778291 24.4978591,7.09468822 24.2768646,7.20554273 L21.4591851,8.72979215 C21.2381906,8.84064665 21.1553177,9.14549654 21.2658149,9.36720554 C21.3486878,9.5334873 21.5144337,9.61662818 21.6801796,9.61662818 C21.7630525,9.61662818 21.8459254,9.58891455 21.901174,9.56120092 L24.7188536,8.0369515 C24.9398481,7.926097 25.022721,7.62124711 24.9122238,7.39953811 Z" id="Shape"></path>
            </g>
        </g>
    </g>
</svg>