<?xml version="1.0" encoding="UTF-8"?>
<svg width="25px" height="23px" viewBox="0 0 25 23" version="1.1" xmlns="http://www.w3.org/2000/svg" xmlns:xlink="http://www.w3.org/1999/xlink">
    <!-- Generator: sketchtool 51.1 (57501) - http://www.bohemiancoding.com/sketch -->
    <title>A4C63BBD-FFA8-4834-A7B7-2B20A9A18296</title>
    <desc>Created with sketchtool.</desc>
    <defs></defs>
    <g id="Créez-une-offre" stroke="none" stroke-width="1" fill="none" fill-rule="evenodd">
        <g id="Edition-offre-d'emploi" transform="translate(-1011.000000, -3170.000000)" fill="#081074" fill-rule="nonzero">
            <g id="Personnalité-recherchée" transform="translate(252.000000, 2972.000000)">
                <g id="link_off" transform="translate(759.000000, 198.000000)">
                    <path d="M13.2091097,9.8578714 C12.9347826,10.1281596 12.9347826,10.5616408 13.2091097,10.831929 C14.3426501,11.9487805 14.3426501,13.7643016 13.2091097,14.881153 L7.25672878,20.745898 C6.12318841,21.8627494 4.2805383,21.8627494 3.14699793,20.745898 L2.2515528,19.8636364 C1.11801242,18.7467849 1.11801242,16.9312639 2.2515528,15.8144124 L8.20393375,9.94966741 C8.47826087,9.67937916 8.47826087,9.245898 8.20393375,8.97560976 C7.92960663,8.70532151 7.48964803,8.70532151 7.21532091,8.97560976 L1.26293996,14.8403548 C0.450310559,15.64102 0,16.7068736 0,17.8390244 C0,18.9711752 0.445134576,20.0370288 1.26293996,20.837694 L2.15838509,21.7199557 C2.99689441,22.5461197 4.09937888,22.9592018 5.20186335,22.9592018 C6.30434783,22.9592018 7.4068323,22.5461197 8.24534161,21.7199557 L14.1977226,15.8552106 C15.8747412,14.2028825 15.8747412,11.5101996 14.1977226,9.8578714 C13.9285714,9.58758315 13.4834369,9.58758315 13.2091097,9.8578714 Z" id="Shape"></path>
                    <path d="M23.7318841,2.15210643 L22.8364389,1.26984479 C21.1594203,-0.38248337 18.426501,-0.38248337 16.7494824,1.26984479 L10.7971014,7.1345898 C9.12008282,8.78691796 9.12008282,11.4796009 10.7971014,13.131929 C11.0714286,13.4022173 11.5113872,13.4022173 11.7857143,13.131929 C12.0600414,12.8616408 12.0600414,12.4281596 11.7857143,12.1578714 C10.6521739,11.04102 10.6521739,9.22549889 11.7857143,8.10864745 L17.7380952,2.24390244 C18.8716356,1.127051 20.7142857,1.127051 21.8478261,2.24390244 L22.7432712,3.12616408 C23.8768116,4.24301552 23.8768116,6.05853659 22.7432712,7.17538803 L16.7908903,13.040133 C16.5165631,13.3104213 16.5165631,13.7439024 16.7908903,14.0141907 C16.9254658,14.1467849 17.1066253,14.2181818 17.2826087,14.2181818 C17.4585921,14.2181818 17.6397516,14.1518847 17.7743271,14.0141907 L23.7267081,8.14944568 C24.5393375,7.34878049 24.989648,6.28292683 24.989648,5.15077605 C24.989648,4.01862528 24.5445135,2.95277162 23.7318841,2.15210643 Z" id="Shape"></path>
                </g>
            </g>
        </g>
    </g>
</svg>