<?xml version="1.0" encoding="UTF-8"?>
<svg width="20px" height="30px" viewBox="0 0 20 30" version="1.1" xmlns="http://www.w3.org/2000/svg" xmlns:xlink="http://www.w3.org/1999/xlink">
    <!-- Generator: sketchtool 51.1 (57501) - http://www.bohemiancoding.com/sketch -->
    <title>11B397F7-15E3-480A-AE66-4C433B393236</title>
    <desc>Created with sketchtool.</desc>
    <defs></defs>
    <g id="Créez-une-offre" stroke="none" stroke-width="1" fill="none" fill-rule="evenodd">
        <g id="Edition-offre-d'emploi_message-d'erreur" transform="translate(-302.000000, -3224.000000)" fill="#FFFFFF" fill-rule="nonzero">
            <g id="Personnalité-recherchée" transform="translate(252.000000, 2930.000000)">
                <g id="microphone_on" transform="translate(50.000000, 294.000000)">
                    <path d="M19.2374556,9.98520468 C18.8447337,9.98520468 18.526213,10.299883 18.526213,10.6881287 L18.526213,15.0801754 C18.526213,19.7264912 14.7014201,23.5064912 10.0000592,23.5064912 C5.29869822,23.5064912 1.4739645,19.7263743 1.4739645,15.080117 L1.4739645,10.6880702 C1.4739645,10.2998246 1.15544379,9.9851462 0.762721893,9.9851462 C0.369881657,9.9851462 0.0514792899,10.2998246 0.0514792899,10.6880702 L0.0514792899,15.080117 C0.0514792899,20.2652632 4.13390533,24.5252632 9.28881657,24.8869006 L9.28881657,28.535731 L5.60988166,28.535731 C5.21715976,28.535731 4.89863905,28.8504094 4.89863905,29.238655 C4.89863905,29.6269006 5.21710059,29.9415789 5.60988166,29.9415789 L14.3901183,29.9415789 C14.7828402,29.9415789 15.1013609,29.6269006 15.1013609,29.238655 C15.1013609,28.8504094 14.7828994,28.535731 14.3901183,28.535731 L10.7112426,28.535731 L10.7112426,24.8869006 C15.866213,24.5252632 19.9485799,20.2652047 19.9485799,15.080117 L19.9485799,10.6880702 C19.9486982,10.299883 19.6301775,9.98520468 19.2374556,9.98520468 Z" id="Shape"></path>
                    <path d="M10.4740237,0 L9.52609467,0 C6.27467456,0 3.62946746,2.61426901 3.62946746,5.82766082 L3.62946746,15.548538 C3.62946746,18.7619298 6.27467456,21.3761988 9.52609467,21.3761988 L10.4740237,21.3761988 C13.7254438,21.3761988 16.3706509,18.7619298 16.3706509,15.548538 L16.3706509,5.82766082 C16.3706509,2.61426901 13.7254438,0 10.4740237,0 Z M14.9482249,7.65222222 L12.37,7.65222222 C11.9771598,7.65222222 11.6587574,7.96690058 11.6587574,8.3551462 C11.6587574,8.74339181 11.9771598,9.05807018 12.37,9.05807018 L14.9482249,9.05807018 L14.9482249,11.0146784 L12.37,11.0146784 C11.9771598,11.0146784 11.6587574,11.3293567 11.6587574,11.7176023 C11.6587574,12.105848 11.9771598,12.4205263 12.37,12.4205263 L14.9482249,12.4205263 L14.9482249,14.3772515 L12.37,14.3772515 C11.9771598,14.3772515 11.6587574,14.6919298 11.6587574,15.0801754 C11.6587574,15.4684211 11.9771598,15.7830994 12.37,15.7830994 L14.9418343,15.7830994 C14.8181065,18.1126901 12.8615385,19.9704094 10.4740828,19.9704094 L9.52615385,19.9704094 C7.13869822,19.9704094 5.18213018,18.1126901 5.05840237,15.7830994 L7.63023669,15.7830994 C8.02307692,15.7830994 8.34147929,15.4684211 8.34147929,15.0801754 C8.34147929,14.6919298 8.02307692,14.3772515 7.63023669,14.3772515 L5.05201183,14.3772515 L5.05201183,12.4205263 L7.63023669,12.4205263 C8.02307692,12.4205263 8.34147929,12.105848 8.34147929,11.7176023 C8.34147929,11.3293567 8.02307692,11.0146784 7.63023669,11.0146784 L5.05201183,11.0146784 L5.05201183,9.05807018 L7.63023669,9.05807018 C8.02307692,9.05807018 8.34147929,8.74339181 8.34147929,8.3551462 C8.34147929,7.96690058 8.02307692,7.65222222 7.63023669,7.65222222 L5.05201183,7.65222222 L5.05201183,5.82766082 C5.05201183,4.07538012 6.08869822,2.55783626 7.58775148,1.84269006 L7.58775148,3.83 C7.58775148,4.21824561 7.90621302,4.53292398 8.29899408,4.53292398 C8.69177515,4.53292398 9.01023669,4.21824561 9.01023669,3.83 L9.01023669,1.43614035 C9.17964497,1.41678363 10.8205917,1.41678363 10.99,1.43614035 L10.99,3.83 C10.99,4.21824561 11.3084024,4.53292398 11.7012426,4.53292398 C12.0939645,4.53292398 12.4124852,4.21824561 12.4124852,3.83 L12.4124852,1.84269006 C13.9115385,2.55783626 14.9482249,4.07526316 14.9482249,5.82760234 L14.9482249,7.65222222 Z" id="Shape"></path>
                </g>
            </g>
        </g>
    </g>
</svg>