<?xml version="1.0" encoding="UTF-8"?>
<svg width="21px" height="18px" viewBox="0 0 21 18" version="1.1" xmlns="http://www.w3.org/2000/svg" xmlns:xlink="http://www.w3.org/1999/xlink">
    <!-- Generator: sketchtool 51.1 (57501) - http://www.bohemiancoding.com/sketch -->
    <title>0EC4223D-3418-4FB4-93C7-EEA7EBC60FF4</title>
    <desc>Created with sketchtool.</desc>
    <defs></defs>
    <g id="Votre-espace-champ-de-base" stroke="none" stroke-width="1" fill="none" fill-rule="evenodd">
        <g id="Votre-espace-edition" transform="translate(-918.000000, -459.000000)" fill="#081074" fill-rule="nonzero">
            <g id="Bloc-1" transform="translate(161.000000, 200.000000)">
                <g id="money_blue" transform="translate(757.676497, 259.000000)">
                    <path d="M20.0142032,6 C19.9811737,5.42966667 19.3022341,4.984 17.9443551,4.644 C17.9900626,4.544 18.0157522,4.44 18.0160858,4.332 L18.0160858,2 L18.0104141,2 C17.8909741,0.0573333333 9.92319333,0 9.0080429,0 C8.09289246,0 0.125111707,0.0573333333 0.00567173071,2 L0,2 L0,2.04333333 L0,4.333 C0.00166815609,4.96633333 0.819731903,5.462 2.03681859,5.831 C2.02013703,5.88633333 2.01012809,5.94266667 2.00679178,6 L2.00178731,6 L2.00178731,6.04333333 L2.00178731,8.329 C0.690616622,8.66633333 0.0356985404,9.10566667 0.00333631218,9.66666667 L0,9.66666667 L0,9.71 L0,11.9996667 C0.00100089366,12.4406667 0.399022937,12.8146667 1.05027108,13.1263333 C1.025916,13.1936667 1.01023533,13.2626667 1.00589812,13.3333333 L1.00089366,13.3333333 L1.00089366,13.3766667 L1.00089366,15.6663333 C1.0035627,16.775 3.5021269,17.4633333 6.27827227,17.7846667 C6.29862377,17.7886667 6.31730712,17.797 6.33899315,17.797 C6.34533214,17.797 6.35067024,17.7936667 6.35700923,17.7933333 C6.89215371,17.8536667 7.43597259,17.9006667 7.97411975,17.9343333 C7.98546321,17.9356667 7.99547215,17.941 8.00714924,17.941 C8.01348823,17.941 8.0184927,17.9376667 8.02449806,17.9373333 C8.7077748,17.979 9.3800417,18 10.0089366,18 C10.6378314,18 11.3100983,17.979 11.993375,17.9373333 C11.9993804,17.9376667 12.0047185,17.941 12.0107239,17.941 C12.022401,17.941 12.0324099,17.9353333 12.0437534,17.9343333 C12.5819005,17.9006667 13.1257194,17.854 13.6608639,17.7933333 C13.6672029,17.7933333 13.672541,17.7966667 13.67888,17.7966667 C13.700566,17.7966667 13.7192493,17.7883333 13.7396008,17.7843333 C16.5157462,17.463 19.0139768,16.7743333 19.0169794,15.6653333 L19.0169794,13.3333333 L19.0116413,13.3333333 C18.9882872,12.9246667 18.6396425,12.5836667 17.9510277,12.2986667 C17.9930652,12.2023333 18.0160858,12.1023333 18.0160858,11.9986667 L18.0160858,9.82 C19.2138219,9.452 20.0162049,8.95966667 20.0178731,8.332 L20.0178731,6 L20.0142032,6 Z M2.33541853,5.22466667 L2.33541853,3.61433333 C2.64703009,3.69833333 2.98199583,3.775 3.33631218,3.84466667 L3.33631218,5.47166667 C3.29527554,5.463 3.25290438,5.45433333 3.21286863,5.44566667 C3.03537682,5.40666667 2.86222222,5.366 2.69674114,5.323 C2.57062854,5.29066667 2.45085493,5.25766667 2.33541853,5.22466667 Z M17.2724218,4.494 L17.2630801,4.492 L17.1416384,4.58633333 C16.9654811,4.72333333 16.6949062,4.862 16.3479297,4.996 L16.3479297,3.41033333 C16.7446172,3.27233333 17.082252,3.11933333 17.3488234,2.95166667 L17.3488234,4.331 C17.3488234,4.38166667 17.3221329,4.43633333 17.2724218,4.494 Z M8.39916592,11.9943333 C8.49091451,11.996 8.58266309,11.9973333 8.67441168,11.9983333 L8.67441168,13.6643333 C8.60968722,13.6636667 8.54496276,13.6636667 8.48057194,13.6626667 C8.45121239,13.6623333 8.42285374,13.6613333 8.39382782,13.661 C8.24102472,13.6583333 8.08888889,13.6546667 7.93775395,13.65 C7.9190706,13.6493333 7.90038725,13.6486667 7.8817039,13.648 C7.69987489,13.642 7.5193804,13.6343333 7.34022043,13.6256667 L7.34022043,11.9616667 C7.67451892,11.9773333 8.01048555,11.9876667 8.34645219,11.9936667 C8.36380101,11.9936667 8.38148347,11.994 8.39916592,11.9943333 Z M9.66996723,11.9933333 C10.0059339,11.987 10.3419005,11.9766667 10.676199,11.9613333 L10.676199,13.6256667 C10.6048019,13.6293333 10.5330712,13.6326667 10.4606732,13.6356667 C10.2604945,13.644 10.0573131,13.651 9.85079535,13.656 C9.8020852,13.6573333 9.75304141,13.658 9.70399762,13.659 C9.58489127,13.6613333 9.46278225,13.662 9.34200775,13.663 L9.34200775,11.998 C9.43375633,11.997 9.52550492,11.9956667 9.6172535,11.994 C9.63460232,11.994 9.65228478,11.9936667 9.66996723,11.9933333 Z M11.5656598,13.5693333 C11.4922609,13.575 11.4181948,13.5806667 11.3434614,13.586 L11.3434614,11.9236667 C11.6817635,11.9013333 12.016062,11.8746667 12.3443551,11.8426667 L12.3443551,13.498 C12.138171,13.5196667 11.9273161,13.54 11.7107894,13.5576667 C11.6624129,13.562 11.6140363,13.5656667 11.5656598,13.5693333 Z M13.0116175,11.7706667 C13.3555913,11.7293333 13.6895562,11.6823333 14.0125112,11.63 L14.0125112,13.2666667 C13.6982306,13.322 13.3642657,13.373 13.0116175,13.4193333 L13.0116175,11.7706667 Z M5.84488531,13.516 C5.81085493,13.5126667 5.77715818,13.509 5.74346142,13.5056667 C5.71943998,13.5033333 5.69575216,13.5003333 5.67173071,13.498 L5.67173071,11.843 C6.00002383,11.8746667 6.33432231,11.9016667 6.67262437,11.924 L6.67262437,13.585 C6.39237414,13.565 6.11546023,13.5423333 5.84488531,13.516 Z M5.00446828,11.7706667 L5.00446828,13.4193333 C4.65182008,13.373 4.31785523,13.322 4.00357462,13.2666667 L4.00357462,11.63 C4.32652964,11.6823333 4.66049449,11.7296667 5.00446828,11.7706667 Z M14.6797736,13.138 L14.6797736,11.511 C15.03409,11.4413333 15.3690557,11.3646667 15.6806673,11.2806667 L15.6806673,12.891 C15.3834018,12.9766667 15.0487697,13.0596667 14.6797736,13.138 Z M8.39916592,4.32766667 C8.49091451,4.32933333 8.58266309,4.33066667 8.67441168,4.33166667 L8.67441168,5.996 C8.22534406,5.99166667 7.77894549,5.98 7.3398868,5.958 L7.3398868,4.295 C7.67418528,4.31066667 8.01015192,4.321 8.34611856,4.327 C8.36380101,4.327 8.38148347,4.32733333 8.39916592,4.32766667 Z M9.66996723,4.32666667 C10.0059339,4.32033333 10.3419005,4.31 10.676199,4.29466667 L10.676199,5.95766667 C10.6194817,5.96033333 10.5650998,5.96433333 10.5080489,5.967 C10.503378,5.96733333 10.4987072,5.96733333 10.4937027,5.96766667 C10.2698362,5.97766667 10.0416324,5.985 9.81042598,5.99033333 C9.7743938,5.99133333 9.73836163,5.99166667 9.70232946,5.99266667 C9.58355675,5.995 9.46211498,5.99533333 9.34167411,5.99666667 L9.34167411,4.33166667 C9.4334227,4.33066667 9.52517128,4.32933333 9.61691987,4.32766667 C9.63460232,4.32733333 9.65228478,4.327 9.66996723,4.32666667 Z M11.6717545,8.32666667 C12.0077212,8.32033333 12.3436878,8.31 12.6779863,8.29466667 L12.6779863,9.95733333 C12.2395949,9.979 11.7938636,9.991 11.3434614,9.99566667 L11.3434614,8.33166667 C11.43521,8.33066667 11.5269586,8.32933333 11.6187072,8.32766667 C11.6363896,8.32733333 11.6540721,8.327 11.6717545,8.32666667 Z M8.45655049,9.903 C8.24302651,9.88633333 8.034507,9.868 7.83099196,9.84766667 C7.78728627,9.84333333 7.74358058,9.83866667 7.70020852,9.83433333 C7.69120048,9.83333333 7.68252606,9.832 7.67351802,9.83133333 L7.67351802,8.176 C8.00181114,8.20766667 8.33610962,8.23466667 8.67441168,8.257 L8.67441168,9.91833333 C8.64738755,9.91633333 8.61869526,9.915 8.59167113,9.913 C8.54629729,9.90966667 8.50125707,9.90633333 8.45655049,9.903 Z M6.38736968,9.664 C6.25525171,9.643 6.1311409,9.62033333 6.00536193,9.59833333 L6.00536193,7.96366667 C6.32831695,8.016 6.6622818,8.063 7.00625559,8.10433333 L7.00625559,9.753 C6.80207328,9.726 6.60222818,9.698 6.41039023,9.668 C6.40271671,9.66633333 6.39504319,9.665 6.38736968,9.664 Z M10.4009532,8.32766667 C10.4927018,8.32933333 10.5844504,8.33066667 10.676199,8.33166667 L10.676199,9.996 C10.5137206,9.99433333 10.3499077,9.99366667 10.1914328,9.99 C10.1670777,9.98933333 10.1417218,9.989 10.1173667,9.98866667 C9.86647602,9.98233333 9.62125707,9.97266667 9.38037534,9.961 C9.36736372,9.96033333 9.3543521,9.95966667 9.34167411,9.95933333 L9.34167411,8.295 C9.67597259,8.31066667 10.0119392,8.321 10.3479059,8.327 C10.3655883,8.327 10.3832708,8.32733333 10.4009532,8.32766667 Z M13.7596187,9.887 C13.747608,9.888 13.7359309,9.889 13.7239202,9.89 C13.5994757,9.90033333 13.4710277,9.907 13.3449151,9.916 L13.3449151,8.25666667 C13.6832172,8.23433333 14.0175156,8.20766667 14.3458088,8.17566667 L14.3458088,9.82933333 C14.1523027,9.85 13.9587965,9.87033333 13.7596187,9.887 Z M5.67173071,5.83 L5.67173071,4.176 C6.00002383,4.20766667 6.33432231,4.23466667 6.67262437,4.257 L6.67262437,5.91633333 C6.33298779,5.892 5.99802204,5.86433333 5.67173071,5.83 Z M12.3443551,5.82933333 C12.0220673,5.86333333 11.6884361,5.893 11.3434614,5.91766667 L11.3434614,4.257 C11.6817635,4.23466667 12.016062,4.208 12.3443551,4.176 L12.3443551,5.82933333 Z M13.0116175,4.104 C13.3555913,4.06266667 13.6895562,4.01566667 14.0125112,3.96333333 L14.0125112,5.59733333 C13.6962288,5.653 13.3632648,5.70433333 13.0116175,5.75066667 L13.0116175,4.104 Z M14.6797736,5.469 L14.6797736,3.84466667 C15.03409,3.775 15.3690557,3.69833333 15.6806673,3.61433333 L15.6806673,5.221 C15.3817337,5.308 15.0450998,5.391 14.6797736,5.469 Z M5.00446828,4.104 L5.00446828,5.751 C4.93840929,5.74233333 4.86968126,5.73533333 4.80428954,5.72633333 C4.76158475,5.72033333 4.72088174,5.714 4.67884421,5.708 C4.48600536,5.68033333 4.29750372,5.65066667 4.11267203,5.61966667 C4.07563896,5.61333333 4.03994042,5.60666667 4.00357462,5.60033333 L4.00357462,3.96366667 C4.32652964,4.01566667 4.66049449,4.063 5.00446828,4.104 Z M5.33809949,7.84433333 L5.33809949,9.46866667 C4.969437,9.38966667 4.63513852,9.30566667 4.33720584,9.21833333 L4.33720584,7.614 C4.6488174,7.698 4.98378314,7.775 5.33809949,7.84433333 Z M15.9832708,9.60566667 C15.8368067,9.631 15.689008,9.656 15.5372058,9.679 C15.4501281,9.69233333 15.3610486,9.705 15.2716354,9.71766667 C15.1872267,9.72966667 15.0994817,9.74 15.0137385,9.751 L15.0137385,8.104 C15.3577122,8.06266667 15.6916771,8.01566667 16.0146321,7.96333333 L16.0146321,9.6 C16.0039559,9.602 15.9936133,9.604 15.9832708,9.60566667 Z M3.6699434,7.41033333 L3.6699434,8.994 C3.14547513,8.79166667 2.80717307,8.585 2.69707477,8.401 L2.67472148,8.36366667 C2.67271969,8.35333333 2.66938338,8.34233333 2.66904975,8.332 L2.66904975,6.95166667 C2.93562109,7.11933333 3.27325588,7.27233333 3.6699434,7.41033333 Z M3.33631218,11.511 L3.33631218,13.138 C3.03003873,13.073 2.74745308,13.0046667 2.49022341,12.9346667 C2.44952041,12.9233333 2.40748287,12.9123333 2.36778076,12.9006667 C2.35677093,12.8973333 2.34642836,12.8943333 2.33541853,12.8913333 L2.33541853,11.281 C2.64703009,11.3646667 2.98199583,11.4416667 3.33631218,11.511 Z M4.33720584,15.1776667 L4.33720584,16.8046667 C3.96820971,16.7263333 3.6335776,16.6433333 3.33631218,16.5576667 L3.33631218,14.9473333 C3.64792374,15.0313333 3.98288948,15.1083333 4.33720584,15.1776667 Z M5.00446828,15.297 C5.32742329,15.3493333 5.66138814,15.3963333 6.00536193,15.4376667 L6.00536193,17.0863333 C5.65271373,17.04 5.31874888,16.989 5.00446828,16.9336667 L5.00446828,15.297 Z M6.67262437,15.5093333 C7.00091749,15.541 7.33521597,15.568 7.67351802,15.5903333 L7.67351802,17.2526667 C7.32687519,17.2283333 6.99324397,17.1986667 6.67262437,17.165 L6.67262437,15.5093333 Z M8.34078046,15.628 C8.67507894,15.6436667 9.01104558,15.654 9.34701221,15.66 C9.36469467,15.6603333 9.38237712,15.6606667 9.39972595,15.661 C9.49147453,15.6626667 9.58322312,15.664 9.6749717,15.665 L9.6749717,17.3313333 C9.21389336,17.327 8.76882931,17.3136667 8.34044683,17.2926667 L8.34044683,15.628 L8.34078046,15.628 Z M10.3425678,15.6646667 C10.4343164,15.6636667 10.5260649,15.6623333 10.6178135,15.6606667 C10.635496,15.6603333 10.6531784,15.66 10.6708609,15.6596667 C11.0068275,15.6533333 11.3427942,15.643 11.6770926,15.6276667 L11.6770926,17.292 C11.2487102,17.313 10.8036461,17.3263333 10.3425678,17.3306667 L10.3425678,15.6646667 Z M12.3443551,15.5903333 C12.6826571,15.568 13.0169556,15.5413333 13.3452487,15.5093333 L13.3452487,17.1646667 C13.0246291,17.1983333 12.6909979,17.228 12.3443551,17.2523333 L12.3443551,15.5903333 Z M14.0125112,15.4373333 C14.356485,15.396 14.6904498,15.349 15.0134048,15.2966667 L15.0134048,16.9333333 C14.6991242,16.9886667 14.3651594,17.0396667 14.0125112,17.086 L14.0125112,15.4373333 Z M15.6806673,15.1776667 C16.0349836,15.108 16.3699494,15.0313333 16.6815609,14.9473333 L16.6815609,16.5576667 C16.3842955,16.6433333 16.0496634,16.7263333 15.6806673,16.8046667 L15.6806673,15.1776667 Z M17.3127912,12.107 L17.1990229,12.2066667 C17.0238665,12.361 16.7319392,12.5166667 16.3479297,12.6666667 L16.3479297,11.0773333 C16.7446172,10.9393333 17.082252,10.7863333 17.3488234,10.6186667 L17.3488234,11.998 C17.3488234,12.0323333 17.3361454,12.069 17.3127912,12.107 Z M17.5369914,9.26533333 C17.370843,9.31166667 17.1950194,9.355 17.0155258,9.39733333 C16.9324516,9.41666667 16.8477093,9.436 16.7609651,9.45466667 C16.7352755,9.46033333 16.7079178,9.46533333 16.6818945,9.471 L16.6818945,7.84466667 C17.0362109,7.775 17.3711766,7.69833333 17.6827882,7.61433333 L17.6827882,9.22466667 C17.6347453,9.238 17.5863688,9.25166667 17.5369914,9.26533333 Z M0.667262437,4.332 L0.667262437,2.95166667 C0.93383378,3.11933333 1.27146857,3.27233333 1.66815609,3.41033333 L1.66815609,5.00633333 C1.01924337,4.76333333 0.667929699,4.51966667 0.667262437,4.332 Z M0.667262437,11.9986667 L0.667262437,10.6183333 C0.93383378,10.786 1.27146857,10.939 1.66815609,11.077 L1.66815609,12.6666667 L1.47765267,12.5926667 L1.47364909,12.5966667 C0.949848079,12.3796667 0.667929699,12.1666667 0.667262437,11.9986667 Z M1.66815609,15.6653333 L1.66815609,14.285 C1.93472744,14.4526667 2.27236223,14.6056667 2.66904975,14.7436667 L2.66904975,16.3396667 C2.02013703,16.0966667 1.66882335,15.853 1.66815609,15.6653333 Z M17.3488234,16.3396667 L17.3488234,14.744 C17.7455109,14.606 18.0831457,14.453 18.349717,14.2853333 L18.349717,15.6646667 C18.3493834,15.8523333 17.9977361,16.0963333 17.3488234,16.3396667 Z M18.349717,9.00633333 L18.349717,7.41066667 C18.7464045,7.27266667 19.0840393,7.11966667 19.3506107,6.952 L19.3506107,8.33133333 C19.350277,8.519 18.9986297,8.763 18.349717,9.00633333 Z" id="Shape"></path>
                </g>
            </g>
        </g>
    </g>
</svg>