<?xml version="1.0" encoding="UTF-8"?>
<svg width="12px" height="18px" viewBox="0 0 12 18" version="1.1" xmlns="http://www.w3.org/2000/svg" xmlns:xlink="http://www.w3.org/1999/xlink">
    <!-- Generator: sketchtool 51.1 (57501) - http://www.bohemiancoding.com/sketch -->
    <title>2824B4E6-3F3D-4899-8D36-956E3B4868E7</title>
    <desc>Created with sketchtool.</desc>
    <defs></defs>
    <g id="Votre-espace-champ-de-base" stroke="none" stroke-width="1" fill="none" fill-rule="evenodd">
        <g id="Votre-espace-edition" transform="translate(-206.000000, -1227.000000)" fill="#081074" fill-rule="nonzero">
            <g id="Valeurs" transform="translate(161.000000, 684.000000)">
                <g id="number_3_blue" transform="translate(45.000000, 543.000000)">
                    <path d="M10.9014286,8.994 C11.6651486,9.82438654 12.0729874,10.9324944 12.0342857,12.072 C12.0376651,12.9630817 11.7998324,13.8377225 11.3471429,14.599 C10.8515321,15.4278241 10.1280246,16.0887203 9.26714286,16.499 C8.19435434,16.9686092 7.03503021,17.1954547 5.86857143,17.164 C4.77280216,17.1732819 3.68239621,17.0065877 2.63714286,16.67 C1.68689702,16.3837839 0.79395559,15.92701 -8.8817842e-16,15.321 L1.26285714,12.946 C1.8606026,13.4871748 2.55401535,13.9063743 3.30571429,14.181 C4.11209371,14.4673638 4.95928474,14.6150309 5.81285714,14.618 C6.66631524,14.6651308 7.5121779,14.4321432 8.22714286,13.953 C8.77202133,13.5450893 9.09405472,12.8957565 9.09405472,12.205 C9.09405472,11.5142435 8.77202133,10.8649107 8.22714286,10.457 C7.45687587,9.9816666 6.56141114,9.7625922 5.66428571,9.83 L4.30857143,9.83 L4.30857143,7.702 L7.83714286,3.389 L0.761428571,3.389 L0.761428571,0.881 L11.3842857,0.881 L11.3842857,2.781 L7.67,7.379 C8.89749677,7.51806373 10.0396983,8.08891202 10.9014286,8.994 Z" id="Shape"></path>
                </g>
            </g>
        </g>
    </g>
</svg>