<?xml version="1.0" encoding="UTF-8"?>
<svg width="12px" height="16px" viewBox="0 0 12 16" version="1.1" xmlns="http://www.w3.org/2000/svg" xmlns:xlink="http://www.w3.org/1999/xlink">
    <!-- Generator: sketchtool 51.1 (57501) - http://www.bohemiancoding.com/sketch -->
    <title>0497D08F-49F6-4CF4-B25E-88A0B9F06595</title>
    <desc>Created with sketchtool.</desc>
    <defs></defs>
    <g id="Votre-espace-champ-de-base" stroke="none" stroke-width="1" fill="none" fill-rule="evenodd">
        <g id="Votre-espace-edition" transform="translate(-206.000000, -1039.000000)" fill="#081074" fill-rule="nonzero">
            <g id="Valeurs" transform="translate(161.000000, 684.000000)">
                <g id="number_2_blue" transform="translate(45.000000, 355.000000)">
                    <path d="M12.1085714,13.6 L12.1085714,16.0933333 L0.612857143,16.0933333 L0.612857143,14.2044444 L6.79714286,8.21666667 C7.36483167,7.70712126 7.84773625,7.10752412 8.22714286,6.44111111 C8.45781574,5.9718437 8.57858551,5.45464703 8.58,4.93 C8.61705141,4.27861845 8.34834578,3.64792872 7.85571429,3.23 C7.21244224,2.8016487 6.45027039,2.59625372 5.68285714,2.64444444 C4.24966972,2.53371118 2.85656975,3.15715318 1.96857143,4.30666667 L0,2.62555556 C0.65059546,1.7910592 1.50113285,1.14062575 2.47,0.736666667 C3.56971738,0.270831368 4.75169823,0.039394557 5.94285714,0.0566666667 C7.38821988,-0.0198695227 8.81611976,0.406496254 9.99142857,1.26555556 C10.9930915,2.07012372 11.5585249,3.31149571 11.5142857,4.60888889 C11.5124122,5.44536658 11.3284876,6.2710487 10.9757143,7.02666667 C10.4487589,8.00941194 9.75021581,8.88631562 8.91428571,9.61444444 L4.75428571,13.6 L12.1085714,13.6 Z" id="Shape"></path>
                </g>
            </g>
        </g>
    </g>
</svg>