<?xml version="1.0" encoding="UTF-8"?>
<svg width="22px" height="27px" viewBox="0 0 22 27" version="1.1" xmlns="http://www.w3.org/2000/svg" xmlns:xlink="http://www.w3.org/1999/xlink">
    <!-- Generator: sketchtool 51.1 (57501) - http://www.bohemiancoding.com/sketch -->
    <title>73C4F760-C066-44E9-BC66-EADCC0812533</title>
    <desc>Created with sketchtool.</desc>
    <defs></defs>
    <g id="Créez-une-offre" stroke="none" stroke-width="1" fill="none" fill-rule="evenodd">
        <g id="Edition-offre-d'emploi_message-d'erreur" transform="translate(-808.000000, -633.000000)" fill="#081074" fill-rule="nonzero">
            <g id="person_blue" transform="translate(808.000000, 633.000000)">
                <path d="M21.738973,20.8458409 L21.6527568,20.9526136 C18.8141622,24.4675227 15.0331351,26.4041591 11.0083243,26.4041591 C6.98291892,26.4041591 3.20248649,24.4681364 0.363297297,20.9526136 L0.277675676,20.8458409 L0.297891892,20.709 C0.846108108,17.0185909 2.71432432,14.0541136 5.55827027,12.3598636 L5.76043243,12.2395909 L5.92156757,12.4138636 C7.26475676,13.8681818 9.07113514,14.6683636 11.0077297,14.6683636 C12.9443243,14.6683636 14.7507027,13.8675682 16.0938919,12.4138636 L16.255027,12.2395909 L16.4571892,12.3598636 C19.3011351,14.0541136 21.1693514,17.0185909 21.7181622,20.709 L21.738973,20.8458409 Z M11.0083243,13.1864318 C14.5307027,13.1864318 17.3966486,10.2287045 17.3966486,6.59352273 C17.3966486,2.95834091 14.5307027,0 11.0083243,0 C7.48594595,0 4.62,2.95834091 4.62,6.59290909 C4.62,10.2274773 7.48594595,13.1864318 11.0083243,13.1864318 Z" id="Shape"></path>
            </g>
        </g>
    </g>
</svg>