<?xml version="1.0" encoding="UTF-8"?>
<svg width="25px" height="25px" viewBox="0 0 25 25" version="1.1" xmlns="http://www.w3.org/2000/svg" xmlns:xlink="http://www.w3.org/1999/xlink">
    <!-- Generator: sketchtool 51.1 (57501) - http://www.bohemiancoding.com/sketch -->
    <title>612164CA-D1E8-408E-8427-84CA034753B2</title>
    <desc>Created with sketchtool.</desc>
    <defs></defs>
    <g id="Créez-une-offre" stroke="none" stroke-width="1" fill="none" fill-rule="evenodd">
        <g id="Edition-offre-d'emploi_message-d'erreur" transform="translate(-775.000000, -3127.000000)" fill="#FFFFFF" fill-rule="nonzero">
            <g id="Personnalité-recherchée" transform="translate(252.000000, 2930.000000)">
                <g id="protractor_on" transform="translate(523.000000, 197.000000)">
                    <path d="M24.8831915,5.20207447 L23.7571809,4.07606383 C21.1286702,1.44760638 17.633883,0 13.9165957,0 C10.1993617,0 6.70457447,1.44760638 4.07606383,4.07606383 C1.4462234,6.70797872 0,10.2011702 0,13.9165957 C0,17.633883 1.44760638,21.1286702 4.07606383,23.7571809 L5.20207447,24.8831915 C5.28,24.9610638 5.38207447,25 5.48420213,25 C5.5862766,25 5.68840426,24.9610638 5.76632979,24.8831915 L9.5037766,21.1457447 C9.65957447,20.9898936 9.65957447,20.7373404 9.5037766,20.5815426 L8.65984043,19.7376596 L17.0107447,11.3867021 C17.1665426,11.2308511 17.1665426,10.9782979 17.0107447,10.8225 C16.8549468,10.6668085 16.6023936,10.6667021 16.4465426,10.8225 L7.81351064,19.4555319 C7.65771277,19.611383 7.65771277,19.8639362 7.81351064,20.019734 L8.65744681,20.863617 L5.48420213,24.0368617 L4.92882979,23.4814894 L5.77473404,22.6344681 C5.93042553,22.4785638 5.93026596,22.2259574 5.7743617,22.0703191 C5.61851064,21.9145745 5.36590426,21.914734 5.21021277,22.0706915 L4.36909574,22.9129255 C3.87319149,22.3873936 3.42537234,21.8278723 3.02797872,21.2396277 L4.03861702,20.6036702 C4.22510638,20.4863298 4.28117021,20.2400532 4.16382979,20.0535638 C4.04654255,19.8670213 3.80010638,19.8109043 3.6137234,19.9283511 L2.60196809,20.565 C2.23723404,19.9467021 1.92462766,19.3012234 1.66781915,18.633617 L2.79808511,18.2373936 C3.00595745,18.1644681 3.11547872,17.9368617 3.04260638,17.728883 C2.96968085,17.5209574 2.74207447,17.4116489 2.53409574,17.4843617 L1.40521277,17.8801064 C1.19079787,17.2005319 1.03154255,16.5015426 0.930265957,15.7884574 L2.11526596,15.6543085 C2.33420213,15.6295213 2.49154255,15.4319681 2.46675532,15.2130319 C2.44196809,14.9941489 2.24388298,14.8373936 2.02547872,14.8615426 L0.84212766,14.9955319 C0.813297872,14.6385106 0.79787234,14.2787766 0.79787234,13.9165957 C0.79787234,13.5590426 0.812819149,13.2039362 0.841010638,12.8514362 L2.02452128,12.9841489 C2.26989362,12.9867021 2.44260638,12.8360106 2.46542553,12.6321809 C2.49,12.4132447 2.33239362,12.2158511 2.11345745,12.1912766 L0.928457447,12.0583511 C1.02898936,11.3451596 1.18739362,10.6459574 1.40111702,9.96617021 L2.53037234,10.3607447 C2.57388298,10.3759574 2.61829787,10.3831915 2.66196809,10.3831915 C2.8268617,10.3831915 2.98111702,10.2801596 3.03856383,10.1157447 C3.1112234,9.90776596 3.00154255,9.68021277 2.79356383,9.60755319 L1.66308511,9.21255319 C1.91920213,8.54468085 2.23101064,7.89882979 2.59510638,7.28015957 L3.6075,7.91574468 C3.67340426,7.95712766 3.74670213,7.9768617 3.81920213,7.9768617 C3.9518617,7.9768617 4.08170213,7.91069149 4.15739362,7.78994681 C4.27457447,7.60335106 4.21829787,7.35712766 4.03164894,7.24 L3.02021277,6.605 C3.41702128,6.01632979 3.86441489,5.45643617 4.35978723,4.93037234 L5.20164894,5.77164894 C5.27957447,5.84952128 5.38159574,5.88840426 5.48367021,5.88840426 C5.58579787,5.88840426 5.68797872,5.84941489 5.76585106,5.77148936 C5.92164894,5.61558511 5.92154255,5.36303191 5.76569149,5.20734043 L4.92367021,4.36595745 C5.4493617,3.87021277 6.00898936,3.42260638 6.59739362,3.02537234 L7.23303191,4.0362234 C7.30888298,4.15680851 7.43851064,4.22287234 7.57111702,4.22287234 C7.64367021,4.22287234 7.71712766,4.20308511 7.78308511,4.16164894 C7.96962766,4.0443617 8.02574468,3.79808511 7.90845745,3.61154255 L7.27218085,2.59962766 C7.8906383,2.23510638 8.53617021,1.92276596 9.20388298,1.6662234 L9.59968085,2.79654255 C9.65718085,2.96090426 9.81138298,3.0637234 9.97617021,3.0637234 C10.0198936,3.0637234 10.0643617,3.05648936 10.1080319,3.04117021 C10.3159574,2.96840426 10.4255319,2.74079787 10.3527128,2.53281915 L9.95734043,1.4037766 C10.6370213,1.18957447 11.3360638,1.03058511 12.0492021,0.929574468 L12.1829787,2.11457447 C12.2060106,2.31829787 12.378617,2.4687766 12.578883,2.4687766 C12.8430851,2.44148936 13.0005319,2.24393617 12.9758511,2.025 L12.8422872,0.841648936 C13.197766,0.813138298 13.5560106,0.79787234 13.9165957,0.79787234 C14.2756383,0.79787234 14.6323936,0.812978723 14.986383,0.841382979 L14.8532447,2.02484043 C14.828617,2.2437766 14.986117,2.4412766 15.2050532,2.46590426 C15.4505319,2.46845745 15.6231915,2.31787234 15.646117,2.11409574 L15.7794681,0.929095745 C16.4926596,1.02989362 17.1917553,1.18856383 17.8714894,1.4025 L17.4764894,2.53164894 C17.4037234,2.73962766 17.5132979,2.96718085 17.7213298,3.03994681 C17.7648936,3.05521277 17.8093617,3.06244681 17.8530851,3.06244681 C18.0179255,3.06244681 18.1721277,2.95946809 18.2296277,2.79515957 L18.6251064,1.66473404 C19.2929255,1.92106383 19.9385638,2.2331383 20.5571277,2.59744681 L19.9212234,3.60962766 C19.8039894,3.7962234 19.860266,4.0425 20.0467553,4.15968085 C20.1127128,4.20111702 20.186117,4.22085106 20.258617,4.22085106 C20.3912766,4.22085106 20.5210106,4.15473404 20.5967553,4.03409574 L21.2320745,3.02287234 C21.8205851,3.41989362 22.3803191,3.86734043 22.9061702,4.36287234 L22.0645745,5.20446809 C21.9087766,5.36031915 21.9087766,5.61287234 22.0645745,5.76867021 C22.1425,5.84654255 22.2446277,5.88547872 22.3467021,5.88547872 C22.4487766,5.88547872 22.5509043,5.84654255 22.6288298,5.76867021 L23.4751064,4.92239362 L24.0369681,5.48420213 L20.8637234,8.6575 L20.0197872,7.81351064 C19.9449468,7.7387234 19.8435106,7.69670213 19.7376596,7.69670213 C19.6318085,7.69670213 19.5304255,7.7387234 19.4555319,7.81356383 L17.575,9.69414894 C17.4192021,9.84994681 17.4192021,10.1025 17.575,10.2582979 C17.7308511,10.4140426 17.9834043,10.4140426 18.1392021,10.2582979 L19.7376596,8.65973404 L20.5815957,9.5037234 C20.6564362,9.57851064 20.7578723,9.62053191 20.8637234,9.62053191 C20.9695745,9.62053191 21.0709574,9.57851064 21.1458511,9.5037234 L24.8832979,5.7662234 C25.0389362,5.61047872 25.0389362,5.35792553 24.8831915,5.20207447 Z" id="Shape"></path>
                    <path d="M8.56819149,13.2471277 C8.72404255,13.4028723 8.97659574,13.4028723 9.13239362,13.2471277 L17.0082979,5.3712234 C17.1068085,5.27271277 17.1467553,5.13 17.1137766,4.99468085 C17.0807979,4.85930851 16.9796277,4.75101064 16.8468085,4.70888298 C13.388617,3.61132979 9.6481383,4.5218617 7.08494681,7.08505319 C4.52175532,9.64824468 3.6112766,13.3888298 4.7087766,16.8468617 C4.75090426,16.9796277 4.85920213,17.0807979 4.99457447,17.1138298 C5.02585106,17.1214362 5.05755319,17.1251596 5.08898936,17.1251596 C5.19351064,17.1251596 5.29537234,17.0840426 5.37111702,17.0083511 L7.25170213,15.127766 C7.4075,14.9719149 7.4075,14.7193617 7.25170213,14.5635638 C7.09585106,14.4078191 6.84329787,14.4078191 6.6875,14.5635638 L5.29053191,15.9605851 C4.5818617,12.9747872 5.45617021,9.84234043 7.64914894,7.6493617 C9.84207447,5.45632979 12.9745745,4.58218085 15.9603723,5.29074468 L8.56819149,12.6829255 C8.41239362,12.8387234 8.41239362,13.0912766 8.56819149,13.2471277 Z" id="Shape"></path>
                </g>
            </g>
        </g>
    </g>
</svg>