<?xml version="1.0" encoding="UTF-8"?>
<svg width="30px" height="30px" viewBox="0 0 30 30" version="1.1" xmlns="http://www.w3.org/2000/svg" xmlns:xlink="http://www.w3.org/1999/xlink">
    <!-- Generator: sketchtool 51.1 (57501) - http://www.bohemiancoding.com/sketch -->
    <title>139B0B6D-E5F0-4D1B-B0DA-DDBD8AAA13D4</title>
    <desc>Created with sketchtool.</desc>
    <defs></defs>
    <g id="Créez-une-offre" stroke="none" stroke-width="1" fill="none" fill-rule="evenodd">
        <g id="Edition-offre-d'emploi" transform="translate(-652.000000, -3166.000000)" fill="#081074" fill-rule="nonzero">
            <g id="Personnalité-recherchée" transform="translate(252.000000, 2972.000000)">
                <g id="puzzle_off" transform="translate(400.000000, 194.000000)">
                    <path d="M18.3015234,21.2881287 C18.2762109,20.8697076 18.0924023,20.4697076 17.7839648,20.1619298 L15.5583984,17.9402924 C15.9179297,17.8267251 16.2423633,17.631345 16.5066211,17.3676608 L16.5632227,17.3111111 C17.5440234,16.3322222 17.465332,14.6610526 16.3878516,13.585614 C15.8751562,13.0739766 15.2119922,12.7692982 14.5204687,12.7276023 C13.801875,12.684269 13.1397656,12.9269006 12.6551367,13.4106433 L12.5985352,13.4671345 C12.3341602,13.7309357 12.1383398,14.0548538 12.0246094,14.4138012 L9.79875,12.1922222 C9.14285156,11.5376023 8.11523437,11.4980702 7.50785156,12.1040936 L5.49052734,14.1175439 C5.24367187,14.3639181 5.14101562,14.7220468 5.21589844,15.0754386 C5.29734375,15.4597076 5.56587891,15.7739181 5.93425781,15.9159649 C6.16681641,16.0056725 6.37769531,16.1438596 6.56091797,16.3267251 L6.62484375,16.3905263 C6.93480469,16.699883 7.11902344,17.0930994 7.14345703,17.4977778 C7.16636719,17.8757895 7.04443359,18.2182456 6.80021484,18.4619883 C6.55599609,18.705731 6.21275391,18.8277193 5.83412109,18.8045029 C5.42865234,18.780117 5.03460937,18.5962573 4.72470703,18.2869006 L4.66078125,18.2230994 C4.47755859,18.0402339 4.33910156,17.8297661 4.24921875,17.5977193 C4.10689453,17.23 3.79207031,16.9619883 3.40699219,16.8807018 C3.05291016,16.8059649 2.69408203,16.9084211 2.44716797,17.1547953 L0.432128906,19.1660234 C-0.175078125,19.7721053 -0.135527344,20.7977193 0.520429687,21.4523977 L2.74628906,23.6739766 C2.38664062,23.7875439 2.06208984,23.9829825 1.79777344,24.2467251 L1.74111328,24.3032749 C0.760371094,25.2821637 0.8390625,26.9533333 1.91654297,28.0287719 C2.48859375,28.5996491 3.22863281,28.8896491 3.94400391,28.8895322 C4.57623047,28.8895322 5.18917969,28.6629825 5.64925781,28.2037427 L5.70591797,28.1472515 C5.97023437,27.8834503 6.16599609,27.5595906 6.27978516,27.2005263 L8.50564453,29.4221053 C8.81408203,29.7299415 9.21486328,29.9133333 9.63410156,29.938655 C9.66621094,29.9405848 9.69826172,29.9415789 9.73019531,29.9415789 C10.1348437,29.9415789 10.5191602,29.7871345 10.7966016,29.5102339 L12.7153711,27.5952047 C12.8644336,27.9569591 13.0838086,28.2837427 13.3679297,28.5674269 L13.4318555,28.6312281 C14.5093359,29.7065497 16.1838281,29.7850877 17.1646289,28.8062573 C18.1454297,27.8273684 18.0667383,26.1561404 16.9892578,25.0807602 L16.925332,25.0169591 C16.6411523,24.7333333 16.3137305,24.5144444 15.9512109,24.3656725 L17.8722656,22.4483626 C18.1716211,22.1495322 18.3280664,21.7267251 18.3015234,21.2881287 Z M17.0436914,21.621345 L15.0263672,23.6347368 C14.7795703,23.8811111 14.6768555,24.2391813 14.7517383,24.5925731 C14.833125,24.9769006 15.1016602,25.2911111 15.4700977,25.4332164 C15.7026562,25.522924 15.9135352,25.6611111 16.0967578,25.8440351 L16.1606836,25.9078363 C16.78125,26.527193 16.8599414,27.4563743 16.3360547,27.9792398 C15.8122266,28.5021053 14.8810547,28.4235673 14.2606055,27.8042105 L14.1966797,27.7404094 C14.013457,27.5575439 13.8749414,27.347076 13.7850586,27.1150292 C13.6427344,26.7473099 13.3278516,26.4792982 12.9427734,26.3980702 C12.5886328,26.3233333 12.2298633,26.425848 11.9830664,26.6721637 L9.96802734,28.6833333 C9.88693359,28.764269 9.78017578,28.7760819 9.70482422,28.7712865 C9.57363281,28.7633918 9.43863281,28.6991813 9.33439453,28.5952047 L8.44148437,27.7040351 L10.3859766,25.7633333 C10.6147852,25.5349708 10.6147852,25.1646784 10.3859766,24.9362573 C10.157168,24.7078363 9.78615234,24.7078947 9.55728516,24.9362573 L7.61279297,26.8769591 L7.00605469,26.2714035 C6.78416016,26.0499415 6.49189453,25.930117 6.19734375,25.930117 C6.09550781,25.930117 5.99332031,25.9445029 5.89371094,25.9739181 C5.53347656,26.0804094 5.27162109,26.3633918 5.19328125,26.7309357 C5.1440625,26.9617544 5.03771484,27.16 4.87716797,27.3202339 L4.82050781,27.3767251 C4.29667969,27.8995906 3.36550781,27.8210526 2.74505859,27.2016959 C2.12449219,26.5823392 2.04580078,25.6531579 2.56962891,25.1302924 L2.62628906,25.0737427 C2.78683594,24.9135088 2.98546875,24.8073684 3.21673828,24.7582456 C3.58505859,24.6800585 3.86859375,24.418655 3.97529297,24.0590643 C4.09001953,23.6723392 3.97576172,23.2470175 3.67722656,22.9490643 L1.3490625,20.6252632 C1.24482422,20.5212865 1.18054688,20.3864912 1.17257813,20.2555556 C1.16800781,20.1804094 1.17966797,20.0738596 1.26070313,19.9928655 L3.17947266,18.0778363 C3.32853516,18.4395906 3.54791016,18.7663743 3.83203125,19.0500585 L3.89595703,19.1138596 C4.97349609,20.1892398 6.64792969,20.2677193 7.62878906,19.2888889 C8.60953125,18.31 8.53089844,16.6388304 7.45335937,15.5633918 L7.38943359,15.4995906 C7.10525391,15.2159649 6.77783203,14.997076 6.4153125,14.8483041 L8.33636719,12.9309942 C8.48425781,12.7835088 8.77441406,12.8238596 8.97,13.0191228 L11.2982813,15.342807 C11.5968164,15.6408187 12.0229687,15.7547953 12.4105078,15.6402924 C12.7707422,15.5338596 13.0325977,15.2508187 13.1109961,14.8832164 C13.1601562,14.6524561 13.2665039,14.4542105 13.4271094,14.2939766 L13.4837695,14.2374269 C13.7279883,13.9937427 14.0709961,13.8721053 14.4498633,13.8949123 C14.855332,13.9192982 15.249375,14.1031579 15.5592773,14.4125146 C16.1798438,15.0319298 16.2585352,15.9611696 15.7346484,16.4839181 L15.6780469,16.5404678 C15.5175,16.7007018 15.3188672,16.8068421 15.0876562,16.8559649 C14.7193359,16.934152 14.4357422,17.1954971 14.329043,17.5550877 C14.2143164,17.9418129 14.3285156,18.367193 14.6271094,18.6652047 L16.9553906,20.9889474 C17.0595703,21.092924 17.1239062,21.2276608 17.1318164,21.3585965 C17.1363867,21.4338012 17.1247852,21.5403509 17.0436914,21.621345 Z" id="Shape"></path>
                    <path d="M28.7197266,13.4404094 C28.4013867,13.1226901 28.01625,12.8796491 27.6022266,12.7346199 L29.5665234,10.774152 C29.8658789,10.4754386 30.0223242,10.0525146 29.9957812,9.61391813 C29.9704687,9.19549708 29.7866602,8.79549708 29.4782227,8.48766082 L27.2963086,6.30964912 C27.6039258,6.19239766 27.8836523,6.01251462 28.1143945,5.78216374 L28.1710547,5.72561404 C29.1517969,4.74672515 29.0731641,3.07555556 27.995625,2.00011696 C26.9182031,0.924795322 25.2437109,0.84625731 24.2628516,1.82508772 L24.2061914,1.88163743 C23.9753906,2.11204678 23.7950977,2.39128655 23.6776172,2.69842105 L21.4929492,0.518070175 C20.8369922,-0.136608187 19.809375,-0.176140351 19.2020508,0.42994152 L17.2377539,2.39040936 C17.0924414,1.97719298 16.8489258,1.59280702 16.5305859,1.27508772 L16.4666602,1.21128655 C15.3891797,0.135906433 13.7146875,0.0574269006 12.7338867,1.03625731 C11.7531445,2.0151462 11.8317773,3.68637427 12.9091992,4.76163743 L12.9732422,4.82555556 C13.2915234,5.14321637 13.6766602,5.38625731 14.0907422,5.53134503 L12.1263867,7.49181287 C11.5191211,8.09789474 11.5587305,9.12350877 12.2148633,9.77836257 L14.5451953,12.1023977 C14.8438477,12.4004094 15.2701758,12.5143275 15.6574805,12.399883 C16.0177148,12.2933918 16.2795703,12.0103509 16.3579687,11.642807 C16.4071289,11.4120468 16.5134766,11.2138012 16.674082,11.0535673 L16.7307422,10.9970175 C16.9749609,10.7532749 17.3186719,10.631462 17.6968359,10.6544444 C18.1023047,10.6788889 18.4962891,10.8627485 18.80625,11.1721053 C19.1162109,11.481462 19.3003711,11.8746784 19.3248633,12.2793567 C19.3477734,12.6574269 19.2258398,12.999883 18.9816211,13.2436257 L18.9250195,13.300117 C18.7644727,13.4603509 18.5658398,13.5664912 18.3346289,13.615614 C17.9663086,13.6938012 17.6827734,13.9551462 17.5760742,14.3146784 C17.4613477,14.701345 17.5754883,15.1266082 17.8739648,15.4246199 L20.2000781,17.7480117 C20.544668,18.0919298 20.9917969,18.2660819 21.4267383,18.2660819 C21.8197266,18.2660819 22.2027539,18.1238596 22.4910352,17.8361404 L24.455332,15.8756725 C24.6006445,16.2888304 24.8441602,16.6732749 25.1624414,16.9909357 L25.2264258,17.0547953 C26.3039648,18.1301754 27.9783984,18.208655 28.9591992,17.2298246 C29.9399414,16.2509357 29.8613086,14.5797076 28.7838281,13.5043275 L28.7197266,13.4404094 Z M28.130332,16.4026316 C27.6065039,16.9254971 26.6753906,16.8469591 26.0548828,16.2276023 L25.990957,16.1638012 C25.7868164,15.960117 25.6338281,15.7138596 25.5485742,15.4516959 C25.4246484,15.0708772 25.1051953,14.7761988 24.7148438,14.6826316 C24.3504492,14.5953216 23.9804883,14.6952047 23.7252539,14.9499415 L21.6622266,17.0089474 C21.5810742,17.089883 21.4741992,17.1015789 21.3990234,17.0969006 C21.267832,17.0890058 21.132832,17.0247953 21.0287695,16.9209357 L18.8049023,14.6997076 C19.1646094,14.5861404 19.4891602,14.3907018 19.7534766,14.1269591 L19.8100781,14.0704094 C20.2947656,13.5866667 20.5378125,12.9254386 20.4944531,12.2087135 C20.4526758,11.5184795 20.1474023,10.8565497 19.6347656,10.3449708 C19.1221289,9.83339181 18.4589648,9.52859649 17.7673828,9.48690058 C17.0489062,9.44385965 16.3866797,9.68619883 15.9020508,10.169883 L15.8453906,10.2264327 C15.5810742,10.4902924 15.3852539,10.8142105 15.2715234,11.1731579 L13.0434375,8.95111111 C12.9391992,8.8471345 12.8749219,8.71233918 12.8669531,8.58140351 C12.8623828,8.50625731 12.874043,8.39964912 12.9550781,8.31871345 L15.0181641,6.2597076 C15.2733984,6.00497076 15.3734766,5.63573099 15.2859961,5.2719883 C15.1921875,4.88239766 14.8969336,4.56356725 14.5154297,4.43994152 C14.2528125,4.35479532 14.0060742,4.20210526 13.8020508,3.99847953 L13.7380078,3.9345614 C13.1174414,3.31520468 13.03875,2.38602339 13.5626367,1.86315789 C14.0864063,1.3402924 15.0175781,1.41877193 15.6380859,2.03818713 L15.7020117,2.1019883 C15.9061523,2.30567251 16.0591406,2.55192982 16.1444531,2.81409357 C16.2683789,3.19491228 16.587832,3.48959064 16.9781836,3.58309942 C17.3425781,3.67040936 17.7125391,3.57046784 17.9677734,3.31578947 L20.0307422,1.25678363 C20.1786328,1.10935673 20.4687305,1.14964912 20.664375,1.34491228 L22.9409766,3.6171345 C23.2295508,3.9051462 23.6438086,4.02263158 24.0219141,3.92345029 C24.372832,3.83152047 24.6404883,3.56877193 24.7377539,3.22064327 C24.7932422,3.0222807 24.8932031,2.85 25.0348828,2.70859649 L25.091543,2.65204678 C25.6153125,2.12918129 26.5464844,2.20766082 27.1669922,2.82707602 C27.7875586,3.44643275 27.86625,4.37561404 27.3423633,4.89847953 L27.2857031,4.95502924 C27.1440234,5.09649123 26.9714063,5.19625731 26.7727148,5.25157895 C26.4239063,5.34871345 26.1606445,5.61578947 26.0685352,5.96602339 C25.9692773,6.34345029 26.086875,6.75684211 26.3754492,7.04491228 L28.6495313,9.3145614 C28.7537695,9.41853801 28.8180469,9.55333333 28.8260156,9.68426901 C28.8305859,9.7594152 28.8189258,9.86602339 28.737832,9.94695906 L27.7975195,10.8854386 L25.8557227,8.94736842 C25.6268555,8.71900585 25.2558984,8.71900585 25.0270898,8.94736842 C24.7982813,9.17573099 24.7982227,9.54602339 25.0270898,9.77438596 L26.9688867,11.7124561 L26.6747461,12.0060234 C26.4195703,12.2607602 26.3194336,12.63 26.4069141,12.9936842 C26.5006641,13.3832749 26.795918,13.7021053 27.1774219,13.8257895 C27.4400977,13.9109357 27.6867773,14.0636257 27.890918,14.2673684 L27.9548438,14.3311696 C28.5755859,14.9505848 28.6542187,15.879883 28.130332,16.4026316 Z" id="Shape"></path>
                </g>
            </g>
        </g>
    </g>
</svg>