<?xml version="1.0" encoding="UTF-8"?>
<svg width="30px" height="30px" viewBox="0 0 30 30" version="1.1" xmlns="http://www.w3.org/2000/svg" xmlns:xlink="http://www.w3.org/1999/xlink">
    <!-- Generator: sketchtool 51.1 (57501) - http://www.bohemiancoding.com/sketch -->
    <title>7F465486-E67F-416F-882D-587B2E8327F5</title>
    <desc>Created with sketchtool.</desc>
    <defs></defs>
    <g id="Créez-une-offre" stroke="none" stroke-width="1" fill="none" fill-rule="evenodd">
        <g id="Edition-offre-d'emploi" transform="translate(-297.000000, -3166.000000)" fill="#081074" fill-rule="nonzero">
            <g id="Personnalité-recherchée" transform="translate(252.000000, 2972.000000)">
                <g id="spring_off" transform="translate(45.000000, 194.000000)">
                    <path d="M23.4271289,4.79636719 C23.3692383,4.79636719 23.3105273,4.78505859 23.2539258,4.76115234 L17.7480469,2.43667969 C17.5212305,2.3409375 17.415,2.07949219 17.5107422,1.85261719 C17.6066016,1.62580078 17.8682812,1.51957031 18.0948047,1.6153125 L23.6006836,3.93978516 C23.8275,4.03552734 23.9337305,4.29697266 23.8379883,4.52384766 C23.7661523,4.69400391 23.600918,4.79636719 23.4271289,4.79636719 Z" id="Shape"></path>
                    <path d="M23.4285937,4.79490234 C23.3152148,4.79490234 23.2018945,4.75195312 23.115,4.6659375 L19.172168,0.762597656 C18.997207,0.589394531 18.9957422,0.307148437 19.1689453,0.1321875 C19.342207,-0.0428320313 19.6243945,-0.0441796875 19.7993555,0.129023437 L23.7421875,4.03236328 C23.9171484,4.20556641 23.9186133,4.4878125 23.7453516,4.66277344 C23.6582227,4.75078125 23.5434375,4.79490234 23.4285937,4.79490234 Z" id="Shape"></path>
                    <path d="M21.8452734,6.39433594 C21.7318945,6.39433594 21.6185742,6.35138672 21.5316797,6.26537109 L17.5887891,2.36203125 C17.4138281,2.18882812 17.4123633,1.90658203 17.585625,1.73162109 C17.7588867,1.55660156 18.0411328,1.55525391 18.2160352,1.72845703 L22.1589258,5.63179687 C22.3338867,5.805 22.3353516,6.08724609 22.1620898,6.26220703 C22.0749023,6.35021484 21.9600586,6.39433594 21.8452734,6.39433594 Z" id="Shape"></path>
                    <path d="M20.2621875,7.99341797 C20.1488086,7.99341797 20.0354883,7.95046875 19.9485937,7.86445312 L16.0057031,3.96111328 C15.8307422,3.78791016 15.8292773,3.50566406 16.0025391,3.33070312 C16.1758008,3.15574219 16.4579883,3.15433594 16.6329492,3.32753906 L20.5758398,7.23087891 C20.7508008,7.40408203 20.7522656,7.68632812 20.5790625,7.86128906 C20.4918164,7.94929687 20.3770312,7.99341797 20.2621875,7.99341797 Z" id="Shape"></path>
                    <path d="M18.6793359,9.59232422 C18.565957,9.59232422 18.4526367,9.549375 18.3657422,9.46335938 L14.4228516,5.55996094 C14.2478906,5.38675781 14.2464258,5.10451172 14.4196875,4.92955078 C14.5929492,4.75453125 14.8751953,4.75318359 15.0500977,4.92638672 L18.9929883,8.82972656 C19.1679492,9.00292969 19.1694141,9.28517578 18.9961523,9.46013672 C18.9089648,9.54820313 18.7941211,9.59232422 18.6793359,9.59232422 Z" id="Shape"></path>
                    <path d="M17.1063281,11.1812109 C16.9929492,11.1812109 16.8796289,11.1382617 16.7927344,11.0522461 L12.8499023,7.14890625 C12.6749414,6.97570313 12.6734766,6.69345703 12.8467383,6.51849609 C13.02,6.34347656 13.3022461,6.34212891 13.4771484,6.51533203 L17.4199805,10.4186719 C17.5949414,10.591875 17.5964062,10.8741211 17.4232031,11.049082 C17.3358984,11.1370898 17.2211133,11.1812109 17.1063281,11.1812109 Z" id="Shape"></path>
                    <path d="M15.523418,12.7801172 C15.4100391,12.7801172 15.2967188,12.737168 15.2098242,12.6511523 L11.2669336,8.7478125 C11.0919727,8.57460937 11.0905078,8.29236328 11.2637695,8.11740234 C11.4370313,7.94238281 11.7192773,7.94103516 11.8941797,8.11423828 L15.8370703,12.0175781 C16.0120313,12.1907812 16.0134961,12.4730273 15.840293,12.6479883 C15.7530469,12.7359961 15.6382031,12.7801172 15.523418,12.7801172 Z" id="Shape"></path>
                    <path d="M13.9408594,14.3787305 C13.8274805,14.3787305 13.7141602,14.3357812 13.6272656,14.2497656 L9.684375,10.3464258 C9.50941406,10.1732227 9.50794922,9.89097656 9.68121094,9.71601562 C9.85447266,9.54099609 10.1367188,9.53964844 10.3116211,9.71285156 L14.2545117,13.6161914 C14.4294727,13.7893945 14.4309375,14.0716406 14.2576758,14.2466016 C14.1704883,14.3346094 14.0557031,14.3787305 13.9408594,14.3787305 Z" id="Shape"></path>
                    <path d="M12.3579492,15.9776367 C12.2445703,15.9776367 12.13125,15.9346875 12.0443555,15.8486719 L8.10152344,11.945332 C7.9265625,11.7721289 7.92509766,11.4898828 8.09835937,11.3149219 C8.27162109,11.1399023 8.55380859,11.1385547 8.72876953,11.3117578 L12.6716016,15.2150977 C12.8465625,15.3883008 12.8480273,15.6705469 12.6747656,15.8455078 C12.5875781,15.9335156 12.4727344,15.9776367 12.3579492,15.9776367 Z" id="Shape"></path>
                    <path d="M10.7704102,17.5812305 C10.6570312,17.5812305 10.5437109,17.5382812 10.4568164,17.4522656 L6.51398437,13.5489258 C6.33902344,13.3757227 6.33755859,13.0934766 6.51082031,12.9185156 C6.68408203,12.7434961 6.96632812,12.7421484 7.14123047,12.9153516 L11.0840625,16.8186914 C11.2590234,16.9918945 11.2604883,17.2741406 11.0872266,17.4491016 C11.0000391,17.5371094 10.8852539,17.5812305 10.7704102,17.5812305 Z" id="Shape"></path>
                    <path d="M9.18755859,19.1801367 C9.07417969,19.1801367 8.96085937,19.1371875 8.87396484,19.0511719 L4.93113281,15.147832 C4.75617187,14.9746289 4.75470703,14.6923828 4.92796875,14.5174219 C5.10123047,14.3424023 5.38347656,14.3410547 5.55837891,14.5142578 L9.50121094,18.4175977 C9.67617187,18.5908008 9.67763672,18.8730469 9.504375,19.0480078 C9.4171875,19.1360156 9.30234375,19.1801367 9.18755859,19.1801367 Z" id="Shape"></path>
                    <path d="M7.60992187,20.7737109 C7.49654297,20.7737109 7.38322266,20.7307617 7.29632813,20.6447461 L3.3534375,16.7414063 C3.17847656,16.5682031 3.17701172,16.285957 3.35027344,16.1109961 C3.52353516,15.9359766 3.80578125,15.9346289 3.98068359,16.1077734 L7.92357422,20.0111133 C8.09853516,20.1843164 8.1,20.4665625 7.92673828,20.6415234 C7.83955078,20.7295898 7.72476562,20.7737109 7.60992187,20.7737109 Z" id="Shape"></path>
                    <path d="M6.02707031,22.3726758 C5.91369141,22.3726758 5.80037109,22.3297266 5.71347656,22.2437109 L1.77058594,18.3403711 C1.595625,18.167168 1.59416016,17.8849219 1.76742188,17.7099609 C1.94068359,17.5349414 2.22292969,17.5335938 2.39783203,17.7067969 L6.34072266,21.6101367 C6.51568359,21.7833398 6.51714844,22.0655859 6.34388672,22.2405469 C6.25669922,22.3285547 6.14185547,22.3726758 6.02707031,22.3726758 Z" id="Shape"></path>
                    <path d="M4.43460937,23.98125 C4.32123047,23.98125 4.20791016,23.9383008 4.12101562,23.8522852 L0.178125,19.9489453 C0.0031640625,19.7757422 0.00169921875,19.4934961 0.174960937,19.3185352 C0.348222656,19.1435156 0.630410156,19.142168 0.805371094,19.3153125 L4.74826172,23.2186523 C4.92322266,23.3918555 4.9246875,23.6741016 4.75142578,23.8490625 C4.66423828,23.9371289 4.54939453,23.98125 4.43460937,23.98125 Z" id="Shape"></path>
                    <path d="M21.8444531,6.39509766 C21.7866211,6.39509766 21.7278516,6.38378906 21.67125,6.35988281 L16.1653125,4.03541016 C15.9384961,3.93966797 15.8322656,3.67822266 15.9280078,3.45134766 C16.02375,3.22458984 16.2853711,3.11830078 16.5120703,3.21404297 L22.0180078,5.53851563 C22.2448242,5.63425781 22.3510547,5.89570313 22.2553125,6.12257813 C22.183418,6.29273438 22.0182422,6.39509766 21.8444531,6.39509766 Z" id="Shape"></path>
                    <path d="M20.2616602,7.99382812 C20.2038281,7.99382812 20.1450586,7.98251953 20.088457,7.95861328 L14.5825781,5.63419922 C14.3557617,5.53845703 14.2495313,5.27701172 14.3452734,5.05013672 C14.4410742,4.82337891 14.7026367,4.71703125 14.9293359,4.81283203 L20.4352148,7.13724609 C20.6620313,7.23298828 20.7682617,7.49443359 20.6725195,7.72130859 C20.6006836,7.89146484 20.4354492,7.99382812 20.2616602,7.99382812 Z" id="Shape"></path>
                    <path d="M18.6789844,9.59261719 C18.6210938,9.59261719 18.5623828,9.58130859 18.5057813,9.55740234 L12.9999023,7.23292969 C12.7730859,7.1371875 12.6668555,6.87574219 12.7625977,6.64886719 C12.8583984,6.42199219 13.1200195,6.31582031 13.3466602,6.4115625 L18.8525391,8.73603516 C19.0793555,8.83177734 19.1855859,9.09322266 19.0898438,9.32009766 C19.0179492,9.49025391 18.8527734,9.59261719 18.6789844,9.59261719 Z" id="Shape"></path>
                    <path d="M17.09625,11.1913477 C17.038418,11.1913477 16.9796484,11.1800391 16.9230469,11.1561328 L11.4171094,8.83171875 C11.190293,8.73597656 11.0840625,8.47453125 11.1798047,8.24765625 C11.2756055,8.02089844 11.5371094,7.91455078 11.7638672,8.01035156 L17.2698047,10.3347656 C17.4966211,10.4305078 17.6028516,10.6919531 17.5071094,10.9188281 C17.4352148,11.0889844 17.2700391,11.1913477 17.09625,11.1913477 Z" id="Shape"></path>
                    <path d="M15.5135156,12.7901367 C15.455625,12.7901367 15.3969141,12.7788281 15.3403125,12.7549219 L9.83443359,10.4304492 C9.60761719,10.334707 9.50138672,10.0732617 9.59712891,9.84638672 C9.69292969,9.61951172 9.95455078,9.51339844 10.1811914,9.60908203 L15.6870703,11.9335547 C15.9138867,12.0292969 16.0201172,12.2907422 15.924375,12.5176172 C15.8524805,12.6877734 15.6873047,12.7901367 15.5135156,12.7901367 Z" id="Shape"></path>
                    <path d="M13.9307813,14.3888672 C13.8729492,14.3888672 13.8141797,14.3775586 13.7575781,14.3536523 L8.25164063,12.0291797 C8.02482422,11.9334375 7.91859375,11.6719922 8.01433594,11.4451172 C8.11007813,11.2183594 8.37169922,11.1120703 8.59839844,11.2078125 L14.1043359,13.5322852 C14.3311523,13.6280273 14.4373828,13.8894727 14.3416406,14.1163477 C14.2697461,14.2865039 14.1045703,14.3888672 13.9307813,14.3888672 Z" id="Shape"></path>
                    <path d="M12.3480469,15.9876563 C12.2901563,15.9876563 12.2314453,15.9763477 12.1748438,15.9524414 L6.66896484,13.6279688 C6.44214844,13.5322266 6.33591797,13.2707813 6.43166016,13.0439063 C6.52746094,12.8170898 6.78908203,12.710918 7.01572266,12.8066016 L12.5216016,15.1310742 C12.748418,15.2268164 12.8546484,15.4882617 12.7589063,15.7151367 C12.6870117,15.885293 12.5217773,15.9876563 12.3480469,15.9876563 Z" id="Shape"></path>
                    <path d="M10.7653125,17.5863867 C10.7074219,17.5863867 10.6487109,17.5750781 10.5921094,17.5511719 L5.08623047,15.2266992 C4.85941406,15.130957 4.75318359,14.8695117 4.84892578,14.6426367 C4.94472656,14.4157617 5.20640625,14.3096484 5.43298828,14.405332 L10.9388672,16.7298047 C11.1656836,16.8255469 11.2719141,17.0869922 11.1761719,17.3138672 C11.1042773,17.4840234 10.9391016,17.5863867 10.7653125,17.5863867 Z" id="Shape"></path>
                    <path d="M9.18257812,19.1850586 C9.12474609,19.1850586 9.06597656,19.17375 9.009375,19.1498437 L3.5034375,16.8254297 C3.27662109,16.7296875 3.17039062,16.4682422 3.26613281,16.2413672 C3.36193359,16.0146094 3.6234375,15.9082617 3.85019531,16.0040625 L9.35613281,18.3284766 C9.58294922,18.4242187 9.68917969,18.6856641 9.5934375,18.9125391 C9.52160156,19.0827539 9.35636719,19.1850586 9.18257812,19.1850586 Z" id="Shape"></path>
                    <path d="M7.59984375,20.7838477 C7.54195313,20.7838477 7.48324219,20.7725391 7.42664063,20.7486328 L1.92070312,18.4241602 C1.69388672,18.328418 1.58765625,18.0669727 1.68339844,17.8400977 C1.77919922,17.6132813 2.04087891,17.5071094 2.26746094,17.602793 L7.77333984,19.9272656 C8.00015625,20.0230078 8.10638672,20.2844531 8.01064453,20.5113281 C7.93880859,20.681543 7.77363281,20.7838477 7.59984375,20.7838477 Z" id="Shape"></path>
                    <path d="M6.01710937,22.3825781 C5.95927734,22.3825781 5.90050781,22.3712695 5.84390625,22.3473633 L0.338027344,20.0229492 C0.111210937,19.927207 0.00498046875,19.6657617 0.100722656,19.4388867 C0.196464844,19.2120117 0.458027344,19.1057813 0.684785156,19.201582 L6.19066406,21.5259961 C6.41748047,21.6217383 6.52371094,21.8831836 6.42796875,22.1100586 C6.35613281,22.2802734 6.19089844,22.3825781 6.01710937,22.3825781 Z" id="Shape"></path>
                    <path d="M29.5068164,10.8150586 C29.4489844,10.8150586 29.3902148,10.80375 29.3336133,10.7798438 L23.8276758,8.45537109 C23.6008594,8.35962891 23.4946289,8.09818359 23.5903711,7.87130859 C23.6861719,7.64449219 23.9476172,7.53826172 24.1744336,7.63400391 L29.6803711,9.95847656 C29.9071875,10.0542188 30.013418,10.3156641 29.9176758,10.5425391 C29.8457812,10.7127539 29.6806055,10.8150586 29.5068164,10.8150586 Z" id="Shape"></path>
                    <path d="M29.5082812,10.8136523 C29.3949023,10.8136523 29.281582,10.7707031 29.1946875,10.6846875 L25.2517969,6.78134766 C25.0768359,6.60814453 25.0753711,6.32589844 25.2485742,6.1509375 C25.4218359,5.97597656 25.704082,5.97457031 25.8789844,6.14777344 L29.821875,10.0511133 C29.9968359,10.2243164 29.9983008,10.5065625 29.8250391,10.6815234 C29.7379102,10.7695312 29.6230664,10.8136523 29.5082812,10.8136523 Z" id="Shape"></path>
                    <path d="M27.9249023,12.4130273 C27.8115234,12.4130273 27.6982031,12.3700781 27.6113086,12.2840625 L23.668418,8.38072266 C23.493457,8.20751953 23.4919922,7.92527344 23.6651953,7.7503125 C23.838457,7.57529297 24.1207031,7.57394531 24.2956055,7.74714844 L28.2384961,11.6504883 C28.413457,11.8236914 28.4149219,12.1059375 28.2416602,12.2808984 C28.1545312,12.3689648 28.0397461,12.4130273 27.9249023,12.4130273 Z" id="Shape"></path>
                    <path d="M26.341875,14.0121094 C26.2284961,14.0121094 26.1151758,13.9691602 26.0282812,13.8831445 L22.0853906,9.97980469 C21.9104297,9.80660156 21.9089648,9.52435547 22.0822266,9.34939453 C22.2554883,9.174375 22.5377344,9.17302734 22.7126367,9.34623047 L26.6555273,13.2495703 C26.8304883,13.4227734 26.8319531,13.7050195 26.65875,13.8799805 C26.5715039,13.9679883 26.4566602,14.0121094 26.341875,14.0121094 Z" id="Shape"></path>
                    <path d="M24.7589062,15.6110156 C24.6455273,15.6110156 24.532207,15.5680664 24.4453125,15.4820508 L20.5024805,11.5787109 C20.3275195,11.4055078 20.3260547,11.1232617 20.4993164,10.9483008 C20.6725781,10.7732812 20.9548242,10.7719336 21.1297266,10.9451367 L25.0725586,14.8484766 C25.2475195,15.0216797 25.2489844,15.3039258 25.0757227,15.4788867 C24.9885352,15.5668945 24.87375,15.6110156 24.7589062,15.6110156 Z" id="Shape"></path>
                    <path d="M23.185957,17.1999609 C23.0725781,17.1999609 22.9592578,17.1570117 22.8723633,17.0709961 L18.9294727,13.1676562 C18.7545117,12.9944531 18.7530469,12.712207 18.9263086,12.5372461 C19.0995703,12.3622266 19.3818164,12.3608789 19.5567187,12.534082 L23.4996094,16.4374219 C23.6745703,16.610625 23.6760352,16.8928711 23.5027734,17.067832 C23.4155859,17.1558398 23.3008008,17.1999609 23.185957,17.1999609 Z" id="Shape"></path>
                    <path d="M21.6031055,18.7988672 C21.4897266,18.7988672 21.3764062,18.755918 21.2895117,18.6699023 L17.3466211,14.7665625 C17.1716602,14.5933594 17.1701953,14.3111133 17.343457,14.1361523 C17.5167187,13.9611914 17.7989062,13.9597852 17.9738672,14.1329883 L21.9167578,18.0363281 C22.0917187,18.2095312 22.0931836,18.4917773 21.9199805,18.6667383 C21.8327344,18.7547461 21.7178906,18.7988672 21.6031055,18.7988672 Z" id="Shape"></path>
                    <path d="M20.0204883,20.3974805 C19.9071094,20.3974805 19.7937891,20.3545313 19.7068945,20.2685156 L15.7640625,16.3651758 C15.5891016,16.1919727 15.5876367,15.9097266 15.7608398,15.7347656 C15.9341016,15.5597461 16.2163477,15.5583984 16.39125,15.7316016 L20.334082,19.6349414 C20.509043,19.8081445 20.5105078,20.0903906 20.3372461,20.2653516 C20.2501172,20.3533594 20.135332,20.3974805 20.0204883,20.3974805 Z" id="Shape"></path>
                    <path d="M18.4376367,21.9963867 C18.3242578,21.9963867 18.2109375,21.9534375 18.124043,21.8674219 L14.1811523,17.964082 C14.0061914,17.7908789 14.0047266,17.5086328 14.1779883,17.3336719 C14.35125,17.1586523 14.6334961,17.1573047 14.8083984,17.3304492 L18.7512891,21.2337891 C18.92625,21.4069922 18.9277148,21.6892383 18.7545117,21.8641992 C18.6672656,21.9522656 18.5524219,21.9963867 18.4376367,21.9963867 Z" id="Shape"></path>
                    <path d="M16.8500977,23.5999805 C16.7367187,23.5999805 16.6233984,23.5570313 16.5365039,23.4710156 L12.5936133,19.5676758 C12.4186523,19.3944727 12.4171875,19.1122266 12.5904492,18.9372656 C12.7637109,18.7623047 13.045957,18.7608984 13.2208594,18.9341016 L17.16375,22.8374414 C17.3387109,23.0106445 17.3401758,23.2928906 17.1669727,23.4678516 C17.0797266,23.5558594 16.9648828,23.5999805 16.8500977,23.5999805 Z" id="Shape"></path>
                    <path d="M15.2671875,25.1988867 C15.1538086,25.1988867 15.0404883,25.1559375 14.9535937,25.0699219 L11.0107031,21.166582 C10.8357422,20.9933789 10.8342773,20.7111328 11.0075391,20.5361719 C11.1808008,20.3611523 11.4630469,20.3598047 11.6379492,20.5329492 L15.5808398,24.4362891 C15.7558008,24.6094922 15.7572656,24.8917383 15.5840625,25.0666992 C15.4968164,25.1547656 15.3820312,25.1988867 15.2671875,25.1988867 Z" id="Shape"></path>
                    <path d="M13.6896094,26.7924609 C13.5762305,26.7924609 13.4629102,26.7495117 13.3760156,26.6634961 L9.433125,22.7601562 C9.25816406,22.5869531 9.25669922,22.304707 9.42996094,22.1297461 C9.60322266,21.9547266 9.88541016,21.9533789 10.0603711,22.1265234 L14.0032617,26.0298633 C14.1782227,26.2030664 14.1796875,26.4853125 14.0064258,26.6602734 C13.9192383,26.7483398 13.8043945,26.7924609 13.6896094,26.7924609 Z" id="Shape"></path>
                    <path d="M12.1066992,28.3914258 C11.9933203,28.3914258 11.88,28.3484766 11.7931055,28.2624609 L7.85021484,24.3591211 C7.67525391,24.185918 7.67378906,23.9036719 7.84705078,23.7287109 C8.0203125,23.55375 8.30255859,23.5523438 8.47746094,23.7255469 L12.4203516,27.6288867 C12.5953125,27.8020898 12.5967773,28.0843359 12.4235156,28.2592969 C12.3363281,28.3473047 12.221543,28.3914258 12.1066992,28.3914258 Z" id="Shape"></path>
                    <path d="M10.5141797,30 C10.4008008,30 10.2874805,29.9570508 10.2005859,29.8710352 L6.25775391,25.9676953 C6.08279297,25.7944922 6.08132812,25.5122461 6.25458984,25.3372852 C6.42785156,25.1622656 6.71003906,25.1609766 6.885,25.3341211 L10.827832,29.2374609 C11.002793,29.4106641 11.0042578,29.6929102 10.8309961,29.8678711 C10.7438086,29.9558789 10.6290234,30 10.5141797,30 Z" id="Shape"></path>
                    <path d="M27.924082,12.4137891 C27.8661914,12.4137891 27.8074805,12.4024805 27.7508789,12.3785742 L22.245,10.0541016 C22.0181836,9.95835938 21.9119531,9.69691406 22.0076953,9.47003906 C22.1034961,9.24322266 22.3651758,9.13705078 22.5917578,9.23273438 L28.0976367,11.557207 C28.3244531,11.6529492 28.4306836,11.9143945 28.3349414,12.1412695 C28.2630469,12.3114844 28.0978711,12.4137891 27.924082,12.4137891 Z" id="Shape"></path>
                    <path d="M26.3413477,14.0125195 C26.2835156,14.0125195 26.2247461,14.0012109 26.1681445,13.9773047 L20.6622656,11.6528906 C20.4354492,11.5571484 20.3292187,11.2957031 20.4249609,11.0688281 C20.5207617,10.8420117 20.782207,10.7357813 21.0090234,10.8315234 L26.5149023,13.1559375 C26.7417187,13.2516797 26.8479492,13.513125 26.752207,13.74 C26.6803125,13.9102148 26.5151367,14.0125195 26.3413477,14.0125195 Z" id="Shape"></path>
                    <path d="M24.7586719,15.6113086 C24.7008398,15.6113086 24.6420703,15.6 24.5854687,15.5760938 L19.0795312,13.2516211 C18.8527148,13.1558789 18.7464844,12.8944336 18.8422266,12.6675586 C18.9380273,12.4408008 19.1995312,12.3345117 19.4262891,12.4302539 L24.9322266,14.7547266 C25.159043,14.8504688 25.2652734,15.1119141 25.1695312,15.3387891 C25.0976367,15.5090039 24.9324023,15.6113086 24.7586719,15.6113086 Z" id="Shape"></path>
                    <path d="M23.1758789,17.2100391 C23.1180469,17.2100391 23.0592773,17.1987305 23.0026758,17.1748242 L17.4967969,14.8504102 C17.2699805,14.754668 17.16375,14.4932227 17.2594922,14.2663477 C17.355293,14.0395898 17.6167969,13.9333008 17.8435547,14.029043 L23.3494336,16.353457 C23.57625,16.4491992 23.6824805,16.7106445 23.5867383,16.9375195 C23.5148437,17.1077344 23.349668,17.2100391 23.1758789,17.2100391 Z" id="Shape"></path>
                    <path d="M21.5931445,18.8088281 C21.5352539,18.8088281 21.476543,18.7975195 21.4199414,18.7736133 L15.9140625,16.4491406 C15.6872461,16.3533984 15.5810156,16.0919531 15.6767578,15.8650781 C15.7725586,15.6382617 16.0341797,15.5320898 16.2608203,15.6277734 L21.7666992,17.9522461 C21.9935156,18.0479883 22.0997461,18.3094336 22.0040039,18.5363086 C21.932168,18.7065234 21.7669336,18.8088281 21.5931445,18.8088281 Z" id="Shape"></path>
                    <path d="M20.0104688,20.4075586 C19.9526367,20.4075586 19.8938672,20.39625 19.8372656,20.3723438 L14.3313281,18.0478711 C14.1045117,17.9521289 13.9982813,17.6906836 14.0940234,17.4638086 C14.1898242,17.2369922 14.4512695,17.1307031 14.6780859,17.2265039 L20.1840234,19.5509766 C20.4108398,19.6467188 20.5170703,19.9081641 20.4213281,20.1350391 C20.3494336,20.3052539 20.1842578,20.4075586 20.0104688,20.4075586 Z" id="Shape"></path>
                    <path d="M18.4276758,22.0063477 C18.3697852,22.0063477 18.3110742,21.9950391 18.2544727,21.9711328 L12.7485938,19.6466602 C12.5217773,19.550918 12.4155469,19.2894727 12.5112891,19.0625977 C12.6070898,18.8357812 12.8687109,18.7295508 13.0953516,18.825293 L18.6012305,21.1497656 C18.8280469,21.2455078 18.9342773,21.5069531 18.8385352,21.7338281 C18.7666992,21.904043 18.6014648,22.0063477 18.4276758,22.0063477 Z" id="Shape"></path>
                    <path d="M16.845,23.6050781 C16.787168,23.6050781 16.7283984,23.5937695 16.6717969,23.5698633 L11.1658594,21.2453906 C10.939043,21.1496484 10.8328125,20.8882031 10.9285547,20.6613281 C11.0243555,20.4345117 11.2858594,20.3282812 11.5126172,20.4240234 L17.0185547,22.7484961 C17.2453711,22.8442383 17.3516016,23.1056836 17.2558594,23.3325586 C17.1839648,23.5027734 17.0187891,23.6050781 16.845,23.6050781 Z" id="Shape"></path>
                    <path d="M15.262207,25.2038086 C15.204375,25.2038086 15.1456055,25.1925 15.0890039,25.1685937 L9.583125,22.8441797 C9.35630859,22.7484375 9.25007813,22.4869922 9.34582031,22.2601172 C9.44162109,22.0333008 9.703125,21.9270703 9.92988281,22.0228125 L15.4357617,24.3472266 C15.6625781,24.4429687 15.7688086,24.7044141 15.6730664,24.9312891 C15.6011719,25.1015039 15.4359961,25.2038086 15.262207,25.2038086 Z" id="Shape"></path>
                    <path d="M13.6795313,26.8025977 C13.6216406,26.8025977 13.5629297,26.7912891 13.5063281,26.7673828 L8.00044922,24.4429102 C7.77363281,24.347168 7.66740234,24.0857227 7.76314453,23.8588477 C7.85894531,23.6320312 8.120625,23.5258008 8.34720703,23.621543 L13.8530859,25.9460156 C14.0799023,26.0417578 14.1861328,26.3032031 14.0903906,26.5300781 C14.0184961,26.700293 13.8533203,26.8025977 13.6795313,26.8025977 Z" id="Shape"></path>
                    <path d="M12.0967969,28.4013281 C12.0389648,28.4013281 11.9801953,28.3900195 11.9235938,28.3661133 L6.41765625,26.0416992 C6.19083984,25.945957 6.08460938,25.6845117 6.18035156,25.4576367 C6.27615234,25.2308789 6.53759766,25.1245898 6.76441406,25.220332 L12.2703516,27.5447461 C12.497168,27.6404883 12.6033984,27.9019336 12.5076563,28.1288086 C12.4357617,28.2990234 12.2705859,28.4013281 12.0967969,28.4013281 Z" id="Shape"></path>
                </g>
            </g>
        </g>
    </g>
</svg>