<?xml version="1.0" encoding="UTF-8"?>
<svg width="20px" height="24px" viewBox="0 0 20 24" version="1.1" xmlns="http://www.w3.org/2000/svg" xmlns:xlink="http://www.w3.org/1999/xlink">
    <!-- Generator: sketchtool 51.1 (57501) - http://www.bohemiancoding.com/sketch -->
    <title>75107825-65AD-45A3-B5A9-9388AE3FA22A</title>
    <desc>Created with sketchtool.</desc>
    <defs></defs>
    <g id="Babillard" stroke="none" stroke-width="1" fill="none" fill-rule="evenodd">
        <g id="Babillard_connect" transform="translate(-1388.000000, -146.000000)" fill="#000000" fill-rule="nonzero">
            <g id="Header_candidat" transform="translate(0.000000, 124.000000)">
                <g id="user" transform="translate(1388.000000, 22.000000)">
                    <path d="M9.82951224,11.5609131 C11.4128213,11.5609131 12.7836594,10.991272 13.9040596,9.86737059 C15.0240946,8.74365234 15.5921437,7.36871339 15.5921437,5.78027344 C15.5921437,4.19238281 15.0242771,2.81726072 13.9038771,1.69317628 C12.7834769,0.569641125 11.4126387,0 9.82951224,0 C8.24602075,0 6.87536505,0.569641125 5.75514748,1.69335937 C4.63492991,2.81707762 4.06688084,4.19219972 4.06688084,5.78027344 C4.06688084,7.36871339 4.63492991,8.74383544 5.75514748,9.86755369 C6.87573014,10.9910888 8.24656832,11.5609131 9.82951224,11.5609131 Z M6.74667785,2.68780519 C7.60623542,1.8255615 8.61455897,1.40643309 9.82951224,1.40643309 C11.044283,1.40643309 12.0527892,1.8255615 12.9125292,2.68780519 C13.7720867,3.55023192 14.190092,4.56188963 14.190092,5.78027344 C14.190092,6.99902344 13.7720867,8.01049805 12.9125292,8.87292478 C12.0527892,9.73535156 11.044283,10.15448 9.82951224,10.15448 C8.61492407,10.15448 7.60660047,9.73516847 6.74667785,8.87292478 C5.8869378,8.01068114 5.46893252,6.99902344 5.46893252,5.78027344 C5.46893252,4.56188963 5.8869378,3.55023192 6.74667785,2.68780519 Z" id="Shape"></path>
                    <path d="M19.9125657,18.454834 C19.880257,17.9871826 19.8149094,17.4770508 19.7187135,16.9383545 C19.6216049,16.3956299 19.4965683,15.8825684 19.3468896,15.4136353 C19.1920999,14.9289551 18.9820021,14.4503174 18.7218896,13.9916382 C18.4522853,13.515564 18.1354045,13.1010132 17.7798262,12.7598877 C17.4080023,12.4030151 16.9527599,12.1160888 16.4263289,11.9067993 C15.9017231,11.6986084 15.320349,11.5931396 14.6984521,11.5931396 C14.4542202,11.5931396 14.2180199,11.6936646 13.7618648,11.9915771 C13.4811259,12.1752319 13.1527453,12.3876343 12.786215,12.6225586 C12.4728023,12.822876 12.0482257,13.0105591 11.5238026,13.180481 C11.0121568,13.3465576 10.4926621,13.4307862 9.9797386,13.4307862 C9.46718019,13.4307862 8.94768547,13.3465576 8.43567467,13.180481 C7.91179907,13.0107422 7.48704,12.8230591 7.17417495,12.6227417 C6.81111271,12.3900146 6.48254963,12.1776123 6.19761243,11.991394 C5.74182243,11.6934815 5.50562206,11.5929565 5.26139019,11.5929565 C4.63931075,11.5929565 4.05811916,11.6986084 3.53369598,11.9069824 C3.00762995,12.1159057 2.55220505,12.402832 2.18001607,12.7600708 C1.8244378,13.1013794 1.50755696,13.5157471 1.23813523,13.9916382 C0.97838785,14.4503174 0.768107477,14.928772 0.613317757,15.4138184 C0.463821542,15.8827515 0.338785047,16.3956299 0.241676402,16.9383545 C0.145297897,17.4763184 0.0801328972,17.9866333 0.0478242056,18.4553833 C0.0160630841,18.9136963 0,19.390686 0,19.8726196 C0,21.1254272 0.397013738,22.1396484 1.17990654,22.8876343 C1.953125,23.6257324 2.9760514,24 4.2203928,24 L15.7405447,24 C16.984521,24 18.0074474,23.6257324 18.7808484,22.8876343 C19.5639238,22.1401978 19.9609375,21.1256104 19.9609375,19.8724365 C19.960755,19.388855 19.9445093,18.9118652 19.9125657,18.454834 Z M17.8141428,21.8686523 C17.3032272,22.3564453 16.624927,22.5935669 15.7403621,22.5935669 L4.2203928,22.5935669 C3.33564542,22.5935669 2.65734523,22.3564453 2.14661215,21.8688354 C1.64555346,21.3903809 1.40205168,20.7372436 1.40205168,19.8726196 C1.40205168,19.4229126 1.41683701,18.9788818 1.44640771,18.5526123 C1.47524822,18.1343994 1.53420706,17.6749878 1.62164136,17.1868286 C1.70798042,16.7047119 1.81786654,16.2522583 1.94856164,15.8426513 C2.07396318,15.4498901 2.24499855,15.0609741 2.45710425,14.6863403 C2.65953561,14.3292847 2.89245037,14.0229492 3.14945972,13.776123 C3.38985836,13.5452271 3.69286654,13.3562622 4.04990509,13.2145386 C4.38011098,13.083435 4.75120472,13.0116577 5.15405958,13.0008545 C5.2031615,13.0270386 5.29059579,13.0770263 5.43224299,13.1696777 C5.72046584,13.3580932 6.05267963,13.5730591 6.41994014,13.8083496 C6.83392963,14.0731201 7.36729701,14.3122559 8.00452687,14.5186157 C8.65599444,14.7299194 9.32042201,14.8372193 9.97992112,14.8372193 C10.6394203,14.8372193 11.3040304,14.7299194 11.9551329,14.5187988 C12.5929103,14.3120728 13.1260952,14.0731201 13.5406323,13.8079834 C13.916472,13.5670166 14.2393764,13.3582763 14.5275993,13.1696777 C14.6692465,13.0772095 14.7566808,13.0270386 14.8057827,13.0008545 C15.2088201,13.0116577 15.5799138,13.083435 15.9103023,13.2145386 C16.2671583,13.3562622 16.5701664,13.5454102 16.8105651,13.776123 C17.0675745,14.0227661 17.3004892,14.3291016 17.5029206,14.6865234 C17.7152088,15.0609741 17.8864267,15.4500732 18.0116457,15.8424683 C18.1425234,16.2526245 18.252592,16.704895 18.3387486,17.1866455 C18.4260003,17.6757202 18.4851416,18.135315 18.5139822,18.5527954 L18.5139822,18.5531616 C18.5437354,18.9777832 18.5587033,19.4216309 18.5588858,19.8726196 C18.5587033,20.7374268 18.3152015,21.3903809 17.8141428,21.8686523 Z" id="Shape"></path>
                </g>
            </g>
        </g>
    </g>
</svg>