<?xml version="1.0" encoding="UTF-8"?>
<svg width="15px" height="14px" viewBox="0 0 15 14" version="1.1" xmlns="http://www.w3.org/2000/svg" xmlns:xlink="http://www.w3.org/1999/xlink">
    <!-- Generator: sketchtool 51.1 (57501) - http://www.bohemiancoding.com/sketch -->
    <title>7AC654CE-057B-45E0-96BC-8CD9EE6CC4C8</title>
    <desc>Created with sketchtool.</desc>
    <defs></defs>
    <g id="Votre-espace-champ-de-base" stroke="none" stroke-width="1" fill="none" fill-rule="evenodd">
        <g id="Votre-espace-message-d'erreur" transform="translate(-260.000000, -169.000000)" fill="#E00303" fill-rule="nonzero">
            <g id="Message-d'erreur" transform="translate(161.000000, 144.000000)">
                <g id="warning_red" transform="translate(99.000000, 25.000000)">
                    <path d="M7.77002053,10 C7.35112936,10 7,10.3578475 7,10.7847534 C7,11.2116592 7.35112936,11.5695067 7.77002053,11.5695067 C8.17351129,11.5695067 8.54004107,11.2116592 8.52156057,10.8035874 C8.54004107,10.3547085 8.19199179,10 7.77002053,10 Z" id="Shape"></path>
                    <path d="M14.6188545,12.590583 C15.1024274,11.7399103 15.1055075,10.726009 14.6250147,9.87847534 L9.80160609,1.36547085 C9.32419336,0.508520179 8.46177036,0 7.49462457,0 C6.52747878,0 5.66505578,0.511659193 5.18764305,1.36233184 L0.358074262,9.88475336 C-0.122418551,10.741704 -0.119338469,11.7618834 0.367314508,12.6125561 C0.847807322,13.4538117 1.70715024,13.9591928 2.66813586,13.9591928 L12.3026328,13.9591928 C13.2666985,13.9591928 14.1322016,13.4475336 14.6188545,12.590583 Z M13.5716266,11.9753363 C13.3036595,12.4461883 12.8293268,12.7255605 12.2995527,12.7255605 L2.66505578,12.7255605 C2.14144182,12.7255605 1.67018925,12.4524664 1.40838227,11.9910314 C1.14349521,11.5233184 1.14041512,10.964574 1.40530219,10.493722 L6.23487098,1.97443946 C6.49667796,1.50672646 6.96485044,1.23049327 7.49462457,1.23049327 C8.02131862,1.23049327 8.49257118,1.50986547 8.75437816,1.97757848 L13.5808669,10.496861 C13.8395938,10.955157 13.8365137,11.5076233 13.5716266,11.9753363 Z" id="Shape"></path>
                    <path d="M7.59445585,4.02215484 C7.22792608,4.1288813 7,4.46789475 7,4.87910552 C7.01848049,5.12708758 7.0338809,5.37820866 7.0523614,5.62619072 C7.10472279,6.57103377 7.15708419,7.49704274 7.20944559,8.44188579 C7.22792608,8.76206516 7.47125257,8.99435215 7.78542094,8.99435215 C8.09958932,8.99435215 8.34599589,8.74637009 8.3613963,8.4230517 C8.3613963,8.22843287 8.3613963,8.0495091 8.3798768,7.85175126 C8.4137577,7.24592166 8.45071869,6.64009206 8.48459959,6.03426247 C8.50308008,5.64188579 8.53696099,5.2495091 8.55544148,4.85713242 C8.55544148,4.71587682 8.53696099,4.59031628 8.48459959,4.46475574 C8.3275154,4.11318623 7.96098563,3.93426247 7.59445585,4.02215484 Z" id="Shape"></path>
                </g>
            </g>
        </g>
    </g>
</svg>