<?xml version="1.0" encoding="UTF-8"?>
<svg width="24px" height="24px" viewBox="0 0 24 24" version="1.1" xmlns="http://www.w3.org/2000/svg" xmlns:xlink="http://www.w3.org/1999/xlink">
    <!-- Generator: sketchtool 51.1 (57501) - http://www.bohemiancoding.com/sketch -->
    <title>E0B00A06-3BE4-494C-8E85-3484867242A0</title>
    <desc>Created with sketchtool.</desc>
    <defs></defs>
    <g id="Votre-espace-champ-de-base" stroke="none" stroke-width="1" fill="none" fill-rule="evenodd">
        <g id="Votre-espace-message-d'erreur" transform="translate(-245.000000, -399.000000)">
            <g id="Bloc-1" transform="translate(161.000000, 221.000000)">
                <g id="warning_-circle_red" transform="translate(84.000000, 178.000000)">
                    <circle id="Oval-2" fill="#FFAAAA" cx="12" cy="12" r="12"></circle>
                    <path d="M11.7700205,14 C11.3511294,14 11,14.3578475 11,14.7847534 C11,15.2116592 11.3511294,15.5695067 11.7700205,15.5695067 C12.1735113,15.5695067 12.5400411,15.2116592 12.5215606,14.8035874 C12.5400411,14.3547085 12.1919918,14 11.7700205,14 Z" id="Shape" fill="#E00303" fill-rule="nonzero"></path>
                    <path d="M18.6188545,16.590583 C19.1024274,15.7399103 19.1055075,14.726009 18.6250147,13.8784753 L13.8016061,5.36547085 C13.3241934,4.50852018 12.4617704,4 11.4946246,4 C10.5274788,4 9.66505578,4.51165919 9.18764305,5.36233184 L4.35807426,13.8847534 C3.87758145,14.741704 3.88066153,15.7618834 4.36731451,16.6125561 C4.84780732,17.4538117 5.70715024,17.9591928 6.66813586,17.9591928 L16.3026328,17.9591928 C17.2666985,17.9591928 18.1322016,17.4475336 18.6188545,16.590583 Z M17.5716266,15.9753363 C17.3036595,16.4461883 16.8293268,16.7255605 16.2995527,16.7255605 L6.66505578,16.7255605 C6.14144182,16.7255605 5.67018925,16.4524664 5.40838227,15.9910314 C5.14349521,15.5233184 5.14041512,14.964574 5.40530219,14.493722 L10.234871,5.97443946 C10.496678,5.50672646 10.9648504,5.23049327 11.4946246,5.23049327 C12.0213186,5.23049327 12.4925712,5.50986547 12.7543782,5.97757848 L17.5808669,14.496861 C17.8395938,14.955157 17.8365137,15.5076233 17.5716266,15.9753363 Z" id="Shape" fill="#E00303" fill-rule="nonzero"></path>
                    <path d="M11.5944559,8.02215484 C11.2279261,8.1288813 11,8.46789475 11,8.87910552 C11.0184805,9.12708758 11.0338809,9.37820866 11.0523614,9.62619072 C11.1047228,10.5710338 11.1570842,11.4970427 11.2094456,12.4418858 C11.2279261,12.7620652 11.4712526,12.9943522 11.7854209,12.9943522 C12.0995893,12.9943522 12.3459959,12.7463701 12.3613963,12.4230517 C12.3613963,12.2284329 12.3613963,12.0495091 12.3798768,11.8517513 C12.4137577,11.2459217 12.4507187,10.6400921 12.4845996,10.0342625 C12.5030801,9.64188579 12.536961,9.2495091 12.5554415,8.85713242 C12.5554415,8.71587682 12.536961,8.59031628 12.4845996,8.46475574 C12.3275154,8.11318623 11.9609856,7.93426247 11.5944559,8.02215484 Z" id="Shape" fill="#E00303" fill-rule="nonzero"></path>
                </g>
            </g>
        </g>
    </g>
</svg>