<?xml version="1.0" encoding="UTF-8"?>
<svg width="15px" height="13px" viewBox="0 0 15 13" version="1.1" xmlns="http://www.w3.org/2000/svg" xmlns:xlink="http://www.w3.org/1999/xlink">
    <!-- Generator: sketchtool 51.1 (57501) - http://www.bohemiancoding.com/sketch -->
    <title>A77BF02A-4C34-477E-9A08-5249917A9047</title>
    <desc>Created with sketchtool.</desc>
    <defs></defs>
    <g id="Babillard" stroke="none" stroke-width="1" fill="none" fill-rule="evenodd">
        <g id="Babillard_non_connect" transform="translate(-449.000000, -539.000000)" fill="#838189" fill-rule="nonzero">
            <g id="Offre1" transform="translate(160.000000, 459.000000)">
                <g id="work_grey" transform="translate(289.000000, 80.000000)">
                    <polygon id="Shape" points="6.18164062 6.93333333 8.81835938 6.93333333 8.81835938 7.8 6.18164062 7.8"></polygon>
                    <path d="M12.1693039,7.8 L9.69726562,7.8 L9.69726562,8.23333333 C9.69726562,8.47279512 9.50065611,8.66666667 9.2578125,8.66666667 L5.7421875,8.66666667 C5.49934389,8.66666667 5.30273438,8.47279512 5.30273438,8.23333333 L5.30273438,7.8 L2.83069611,7.8 C2.26249693,7.8 1.75998688,7.44283855 1.58008576,6.91132812 L0,2.2362934 L0,11.7 C0,12.4168056 0.591430664,13 1.31835938,13 L13.6816406,13 C14.4085693,13 15,12.4168056 15,11.7 L15,2.23663194 L13.4197998,6.91132812 C13.2400131,7.44283855 12.7375031,7.8 12.1693039,7.8 Z" id="Shape"></path>
                    <path d="M9.2578125,0 L5.7421875,0 C5.01525879,0 4.42382812,0.583194444 4.42382812,1.3 L4.42382812,1.73333333 L0.756111152,1.73333333 L2.41355895,6.63710938 C2.47364045,6.81439235 2.64141082,6.93333333 2.83069611,6.93333333 L5.30273438,6.93333333 L5.30273438,6.5 C5.30273438,6.26053821 5.49934389,6.06666667 5.7421875,6.06666667 L9.2578125,6.06666667 C9.50065611,6.06666667 9.69726562,6.26053821 9.69726562,6.5 L9.69726562,6.93333333 L12.1693039,6.93333333 C12.3585892,6.93333333 12.5263596,6.81439235 12.5864411,6.63710938 L14.2440033,1.73333333 L10.5761719,1.73333333 L10.5761719,1.3 C10.5761719,0.583194444 9.98474121,0 9.2578125,0 Z M5.30273438,1.73333333 L5.30273438,1.3 C5.30273438,1.06087673 5.49968719,0.866666667 5.7421875,0.866666667 L9.2578125,0.866666667 C9.50031281,0.866666667 9.69726563,1.06087673 9.69726563,1.3 L9.69726563,1.73333333 L5.30273438,1.73333333 Z" id="Shape"></path>
                </g>
            </g>
        </g>
    </g>
</svg>