<?xml version="1.0" encoding="UTF-8"?>
<svg width="28px" height="28px" viewBox="0 0 28 28" version="1.1" xmlns="http://www.w3.org/2000/svg" xmlns:xlink="http://www.w3.org/1999/xlink">
    <!-- Generator: sketchtool 51.1 (57501) - http://www.bohemiancoding.com/sketch -->
    <title>4F327763-8121-48E9-97A1-E9711B06570A</title>
    <desc>Created with sketchtool.</desc>
    <defs></defs>
    <g id="Créez-une-offre" stroke="none" stroke-width="1" fill="none" fill-rule="evenodd">
        <g id="Edition-offre-d'emploi" transform="translate(-889.000000, -3167.000000)" fill="#081074" fill-rule="nonzero">
            <g id="Personnalité-recherchée" transform="translate(252.000000, 2972.000000)">
                <g id="wrench_off" transform="translate(637.000000, 195.000000)">
                    <path d="M27.0860471,2.54407018 L25.3969333,0.864834308 C24.2953804,-0.230276803 22.4392549,-0.29397271 21.2591922,0.722923977 L18.2905882,3.2811306 C18.2525961,3.31387914 18.2199843,3.35241326 18.1940706,3.39525926 L15.3043059,8.18069396 L13.4488392,8.79554776 C13.2920392,8.84750877 13.1735059,8.97648343 13.1355686,9.13635088 C13.0976314,9.29621832 13.1456157,9.46421832 13.2624471,9.58042105 L18.3191922,14.60754 C18.4096706,14.6974347 18.5313882,14.7463392 18.6563451,14.7463392 C18.6928549,14.7463392 18.7295843,14.742191 18.7658745,14.7336764 C18.9266824,14.695961 19.0564157,14.5781209 19.1086824,14.4222378 L19.7273176,12.5770214 L24.6116706,9.64493567 C24.6546588,9.61906433 24.6933098,9.58669786 24.7261412,9.54881871 L27.2384549,6.65444834 C28.2556235,5.48270565 28.1871608,3.63879922 27.0860471,2.54407018 Z M26.5166039,6.03511891 L24.0538667,8.87234308 L19.0841412,11.8556803 C18.9871294,11.9139181 18.9141647,12.0046316 18.8783137,12.1116101 L18.4480471,13.3949162 L17.3085569,12.2620897 C17.3083373,12.2618713 17.3081725,12.2615984 17.3079529,12.2613801 L15.622298,10.585692 C15.6221333,10.5855283 15.6219137,10.5854191 15.621749,10.5852554 L14.482149,9.45231969 L15.7730039,9.0245692 C15.8809412,8.98876413 15.9724627,8.91584405 16.0309882,8.81890838 L18.9725255,3.94794542 L21.8837569,1.43918908 C22.6937255,0.741099415 23.9672314,0.784109162 24.7226275,1.53519688 L26.4117961,3.21443275 C27.1675765,3.96568421 27.2145725,5.23108772 26.5166039,6.03511891 Z" id="Shape"></path>
                    <path d="M25.7345255,19.0444756 C24.3347451,17.6529357 22.274549,17.1692398 20.4079373,17.7708304 L10.2756706,7.69781676 C10.8807451,5.84212086 10.3942039,3.79391813 8.99453333,2.40232359 C7.51986667,0.936389864 5.31220392,0.47780117 3.37010196,1.23451072 C3.22038431,1.2928577 3.11025098,1.42232359 3.07736471,1.5788616 C3.04447843,1.73534503 3.09317647,1.89783236 3.20693333,2.01092398 L6.23977255,5.02597271 L4.21701961,7.03684211 L1.18423529,4.02173879 C1.07042353,3.90870175 0.9072,3.86039766 0.749631373,3.89292788 C0.592172549,3.92562183 0.461890196,4.03505653 0.403254902,4.18395322 C-0.357796078,6.11458869 0.10332549,8.30939571 1.57793725,9.77549318 C2.97771765,11.1670331 5.03791373,11.6508382 6.90452549,11.0491384 L10.6932,14.8156569 L5.9750902,19.5062846 L2.97425882,21.1742768 C2.89080784,21.2206706 2.82327843,21.2909708 2.7805098,21.3760078 L1.43206275,24.0571306 C1.34026667,24.2395945 1.37622745,24.4599922 1.52133333,24.6043041 L3.20687843,26.2800468 C3.2984,26.3710331 3.42044706,26.418846 3.54414118,26.418846 C3.61655686,26.418846 3.68952157,26.4024717 3.75727059,26.3687953 L6.45416471,25.0282339 C6.53970196,24.9857154 6.61041569,24.9185809 6.65708235,24.8356179 L8.33488627,21.8522807 L13.0531059,17.1618168 L17.0368471,21.1222612 C16.4317176,22.9779571 16.9183137,25.0261598 18.3180392,26.4177544 C19.3207137,27.4145107 20.6621333,27.9454737 22.0286431,27.9454737 C22.6718745,27.9454191 23.3208157,27.8277427 23.9424157,27.5856218 C24.0921333,27.5272749 24.2022667,27.397809 24.2351529,27.241271 C24.2680392,27.0847875 24.2193412,26.9223002 24.1055843,26.8092086 L21.0727451,23.7941053 L23.0954431,21.7832904 L26.1282275,24.7983392 C26.2419843,24.9114308 26.4053176,24.9599532 26.5628314,24.9271501 C26.7202902,24.8944561 26.8505725,24.7850214 26.9092078,24.6361248 C27.6703137,22.7053801 27.2091922,20.5105731 25.7345255,19.0444756 Z M7.61380392,21.2284211 C7.58278431,21.2592593 7.55626667,21.294191 7.5348549,21.3322885 L5.89641569,24.2455984 L3.63818824,25.3681092 L2.43858039,24.1755166 L3.56763922,21.9304405 L6.49803137,20.3016374 C6.53635294,20.2803509 6.5714902,20.2539883 6.6025098,20.2231501 L11.3673961,15.4860741 L12.3787451,16.4915088 L7.61380392,21.2284211 Z M26.235451,23.5642105 L23.4325961,20.7777466 C23.2463686,20.5927173 22.9445725,20.5927173 22.7583451,20.7777466 L20.061451,23.4588694 C19.9720706,23.5477817 19.9218353,23.6682963 19.9218353,23.7940507 C19.9218353,23.9198051 19.9720706,24.0402651 20.061451,24.129232 L22.8643608,26.9157505 C21.4745725,27.1902924 20.0170902,26.7662534 18.9922902,25.7474464 C17.7857098,24.547922 17.4083686,22.7519376 18.0311216,21.1720936 C18.1002431,20.9966706 18.0583529,20.797232 17.9243922,20.664 L7.36548235,10.1668928 C7.2743451,10.0763431 7.15240784,10.0280936 7.02821961,10.0280936 C6.96980392,10.0280936 6.91083922,10.0387914 6.8544,10.0607875 C5.26531765,10.6799532 3.45876863,10.3047096 2.25213333,9.10529435 C1.22727843,8.08637817 0.800690196,6.63736452 1.07701176,5.25581287 L3.87986667,8.04233138 C4.06609412,8.2274152 4.3678902,8.22730604 4.55411765,8.04233138 L7.25101176,5.36120858 C7.43718431,5.17607018 7.43718431,4.87603899 7.25101176,4.69090058 L4.44815686,1.90438207 C5.8379451,1.62929435 7.29531765,2.0537154 8.32022745,3.07268616 C9.52680784,4.27221053 9.90414902,6.06819493 9.28139608,7.64803899 C9.21227451,7.82346199 9.25416471,8.02290058 9.38812549,8.15613255 L19.9469255,18.6531306 C20.0809961,18.786308 20.2817176,18.8279532 20.4580078,18.7592359 C22.0472,18.1402885 23.8536392,18.5152593 25.0602745,19.714729 C26.0852392,20.7336452 26.5117176,22.1827135 26.235451,23.5642105 Z" id="Shape"></path>
                </g>
            </g>
        </g>
    </g>
</svg>