<?xml version="1.0" encoding="UTF-8"?>
<svg width="21px" height="25px" viewBox="0 0 21 25" version="1.1" xmlns="http://www.w3.org/2000/svg" xmlns:xlink="http://www.w3.org/1999/xlink">
    <!-- Generator: sketchtool 51.1 (57501) - http://www.bohemiancoding.com/sketch -->
    <title>F6A09A30-EC11-461F-B4DE-0D0867268C24</title>
    <desc>Created with sketchtool.</desc>
    <defs></defs>
    <g id="Votre-espace-champ-de-base" stroke="none" stroke-width="1" fill="none" fill-rule="evenodd">
        <g id="Votre-espace-edition" transform="translate(-918.000000, -404.000000)" fill="#081074" fill-rule="nonzero">
            <g id="Bloc-1" transform="translate(161.000000, 200.000000)">
                <g id="years_blue" transform="translate(757.676497, 204.000000)">
                    <path d="M10.0120562,6.80851064 C11.237722,6.80851064 12.2305045,5.79292553 12.2305045,4.53898936 C12.2305045,4.11345745 12.1140369,3.7106383 11.9143781,3.37021277 L10.0120562,0 L8.10973434,3.37021277 C7.91007555,3.7106383 7.79360793,4.11345745 7.79360793,4.53898936 C7.79360793,5.79292553 8.78639045,6.80851064 10.0120562,6.80851064 Z" id="Shape"></path>
                    <path d="M16.6673491,10.212766 L11.1212544,10.212766 L11.1212544,7.94324468 L8.90280608,7.94324468 L8.90280608,10.212766 L3.35676334,10.212766 C1.52099439,10.212766 0.0291169063,11.7389894 0.0291169063,13.6170213 L0.0291169063,15.3645213 C0.0291169063,16.5900532 1.0052092,17.588617 2.20316191,17.588617 C2.78550004,17.588617 3.32899829,17.3560106 3.73944268,16.936117 L6.11314648,14.5134043 L8.48133886,16.9304255 C9.30217564,17.7701596 10.7330636,17.7701596 11.5538484,16.9304255 L13.9275522,14.5134043 L16.2957446,16.9304255 C16.706137,17.350266 17.2496872,17.5829255 17.8320253,17.5829255 C19.0299781,17.5829255 20.0060704,16.5843617 20.0060704,15.3588298 L20.0060704,13.6170213 C19.9949955,11.7389894 18.503118,10.212766 16.6673491,10.212766 Z" id="Shape"></path>
                    <path d="M15.1089187,18.1389894 L13.9165294,16.9191489 L12.7185767,18.1389894 C11.2710505,19.6198404 8.74203916,19.6198404 7.29451296,18.1389894 L6.10207165,16.9191489 L4.90411894,18.1389894 C4.18867495,18.882234 3.2292209,19.2907447 2.20316191,19.2907447 C1.39896336,19.2907447 0.650242912,19.029734 0.0291169063,18.5928723 L0.0291169063,23.8297872 C0.0291169063,24.453883 0.528263872,24.9645213 1.13831505,24.9645213 L18.8857454,24.9645213 C19.4957966,24.9645213 19.9949435,24.453883 19.9949435,23.8297872 L19.9949435,18.5929255 C19.3737655,19.0297872 18.6306085,19.2907979 17.8208985,19.2907979 C16.7948915,19.2907979 15.8354375,18.8822872 15.1089187,18.1389894 Z" id="Shape"></path>
                </g>
            </g>
        </g>
    </g>
</svg>