// Jest Snapshot v1, https://goo.gl/fbAQLP

exports[`components/base-components/gb-badge should match snapshot when b2b color defined 1`] = `
<div
  class="gb-badge gb-b2b"
>
   
  <span />
</div>
`;

exports[`components/base-components/gb-badge should match snapshot when b2c color defined 1`] = `
<div
  class="gb-badge gb-b2c"
>
   
  <span />
</div>
`;

exports[`components/base-components/gb-badge should match snapshot when highlighted 1`] = `
<div
  class="gb-badge gb-highlight"
>
   
  <span />
</div>
`;

exports[`components/base-components/gb-badge should match snapshot when neutral color defined 1`] = `
<div
  class="gb-badge gb-neutral"
>
   
  <span />
</div>
`;

exports[`components/base-components/gb-badge should match snapshot when no color defined it should use b2c 1`] = `
<div
  class="gb-badge"
>
   
  <span />
</div>
`;

exports[`components/base-components/gb-badge should match snapshot when rounded 1`] = `
<div
  class="gb-badge gb-round"
>
   
  <span />
</div>
`;

exports[`components/base-components/gb-badge should match snapshot when success color defined 1`] = `
<div
  class="gb-badge gb-success"
>
   
  <span />
</div>
`;

exports[`components/base-components/gb-badge should match snapshot with no slot 1`] = `
<div
  class="gb-badge"
>
   
  <span />
</div>
`;

exports[`components/base-components/gb-badge should match snapshot with slots 1`] = `
<div
  class="gb-badge gb-with-icon"
>
  <img
    alt="an image"
    src="path/to/img.png"
  />
   
  <span>
    <span>
      Text
    </span>
  </span>
</div>
`;
