// Jest Snapshot v1, https://goo.gl/fbAQLP

exports[`components/base-components/gb-block should match snapshot with no configuration 1`] = `
<div
  class="gb-block"
>
  <!---->
   
  <span
    class="gb-block--header"
  />
   
  <!---->
   
  <div
    class="gb-block--content"
  />
</div>
`;

exports[`components/base-components/gb-block should match snapshot with slots 1`] = `
<div
  class="gb-block"
>
  <!---->
   
  <span
    class="gb-block--header"
  >
    <div>
      HEADER
    </div>
  </span>
   
  <p
    class="gb-block--subheader"
  >
    <div>
      SUBHEADER
    </div>
  </p>
   
  <div
    class="gb-block--content"
  >
    <div>
      CONTENT
    </div>
  </div>
</div>
`;
