// Jest Snapshot v1, https://goo.gl/fbAQLP

exports[`components/base-components/gb-element-with-icon should match snapshot with large enabled 1`] = `
<div
  class="gb-element-with-icon inside gb-large"
>
   
  <div
    class="gb-element-with-icon--icon-container"
  >
    <div
      class="gb-element-with-icon"
    />
  </div>
</div>
`;

exports[`components/base-components/gb-element-with-icon should match snapshot with no configuration 1`] = `
<div
  class="gb-element-with-icon inside"
>
   
  <div
    class="gb-element-with-icon--icon-container"
  >
    <div
      class="gb-element-with-icon"
    />
  </div>
</div>
`;

exports[`components/base-components/gb-element-with-icon should match snapshot with position inside 1`] = `
<div
  class="gb-element-with-icon inside"
>
   
  <div
    class="gb-element-with-icon--icon-container"
  >
    <div
      class="gb-element-with-icon"
    />
  </div>
</div>
`;

exports[`components/base-components/gb-element-with-icon should match snapshot with position outside 1`] = `
<div
  class="gb-element-with-icon outside"
>
   
  <div
    class="gb-element-with-icon--icon-container"
  >
    <div
      class="gb-element-with-icon"
    />
  </div>
</div>
`;

exports[`components/base-components/gb-element-with-icon should match snapshot with rounded icon 1`] = `
<div
  class="gb-element-with-icon inside"
>
   
  <div
    class="gb-element-with-icon--icon-container"
  >
    <div
      class="gb-element-with-icon gb-element-with-icon--icon-background"
    />
  </div>
</div>
`;

exports[`components/base-components/gb-element-with-icon should match snapshot with slots 1`] = `
<div
  class="gb-element-with-icon inside"
>
   
  <div
    class="gb-element-with-icon--icon-container"
  >
    <div
      class="gb-element-with-icon"
    >
      <img
        alt=""
        src="xyz"
      />
    </div>
  </div>
</div>
`;

exports[`components/base-components/gb-element-with-icon should match snapshot without rounded icon 1`] = `
<div
  class="gb-element-with-icon inside"
>
   
  <div
    class="gb-element-with-icon--icon-container"
  >
    <div
      class="gb-element-with-icon"
    />
  </div>
</div>
`;
